
[Client] packet : (0x5A) F_PING_DATAGRAM  Size = 13 
|------------------------------------------------|----------------|
|00 01 02 03 04 05 06 07 08 09 0A 0B 0C 0D 0E 0F |0123456789ABCDEF|
|------------------------------------------------|----------------|
|00 01 5D 2C 00 DD FF FF 00 5A 00 6A 78          |.............   |
-------------------------------------------------------------------
[Server] packet : (0x51) F_ANIMATION  Size = 9 
|------------------------------------------------|----------------|
|00 01 02 03 04 05 06 07 08 09 0A 0B 0C 0D 0E 0F |0123456789ABCDEF|
|------------------------------------------------|----------------|
|00 06 51 01 3C 00 E5 00 00                      |.........       |
-------------------------------------------------------------------
[Client] packet : (0x01) UNKNOWN  Size = 32 
|------------------------------------------------|----------------|
|00 01 02 03 04 05 06 07 08 09 0A 0B 0C 0D 0E 0F |0123456789ABCDEF|
|------------------------------------------------|----------------|
|00 14 5D 3A 00 DD 00 00 00 01 00 54 D5 73 00 23 |..]:.......T.s.#|
|39 B0 08 18 C0 4A 20 07 7A EF 90 38 7C EF 00 00 |9....J .z..8|...|                                                
-------------------------------------------------------------------
[Server] packet : (0x00) UNKNOWN  Size = 23 
|------------------------------------------------|----------------|
|00 01 02 03 04 05 06 07 08 09 0A 0B 0C 0D 0E 0F |0123456789ABCDEF|
|------------------------------------------------|----------------|
|00 14 00 00 54 D5 73 AA DB 37 CC 00 00 00 00 20 |....T.s..7..... |
|07 7A EF 90 38 7C 00                            |.......         |
-------------------------------------------------------------------
[Server] packet : (0x1D) F_GUILD_DATA  Size = 86 
|------------------------------------------------|----------------|
|00 01 02 03 04 05 06 07 08 09 0A 0B 0C 0D 0E 0F |0123456789ABCDEF|
|------------------------------------------------|----------------|
|00 53 1D 02 01 00 21 90 EA 00 C8 00 00 07 00 0F |.S....!.........|
|4C 61 6D 65 20 64 75 20 44 65 73 74 69 6E 00 00 |Lame du Destin..|
|00 0F 44 72 6F 6C 65 64 65 66 65 6D 6D 65 5E 46 |..Droledefemme^F|
|00 28 01 6B 00 52 81 5E 14 00 01 02 01 00 14 52 |.(.k.R.^.......R|
|65 72 6F 6C 6C 20 4B 69 70 77 61 20 2D 20 52 52 |eroll Kipwa - RR|
|33 32 00 00 01 00                               |......          |
-------------------------------------------------------------------
[Server] packet : (0xBE) F_CHARACTER_INFO  Size = 176 
|------------------------------------------------|----------------|
|00 01 02 03 04 05 06 07 08 09 0A 0B 0C 0D 0E 0F |0123456789ABCDEF|
|------------------------------------------------|----------------|
|00 AD BE 06 02 C4 7D 03 CC DF 96 01 0F 2A 03 0F |......}......*..|
|00 18 02 01 00 01 07 00 00 00 57 61 72 65 6D 68 |..........Waremh|
|75 07 00 00 00 57 61 72 20 45 6D 75 A0 D0 01 C3 |u....War Emu....|
|BB 03 DC 24 9B 4E 78 40 01 02 90 03 01 64 64 00 |...$.Nx@.....dd.|
|9C E4 6C 0F 19 03 28 00 0E 02 00 00 01 07 00 00 |..l...(.........|
|00 44 61 73 63 6F 75 62 08 00 00 00 56 6F 78 20 |.Dascoub....Vox |
|49 72 61 65 E7 D0 01 D2 BA 03 DC 24 0D 7D B1 40 |Irae.......$.}.@|
|01 02 90 03 01 64 64 00 EA A1 86 01 0F 2A 03 28 |.....dd......*.(|
|00 18 02 01 00 01 0C 00 00 00 44 72 6F 6C 65 64 |..........Droled|
|65 66 65 6D 6D 65 08 00 00 00 56 6F 78 20 49 72 |efemme....Vox Ir|
|61 65 00 00 00 00 00 00 00 01 00 00 01 64 64 00 |ae...........dd.|                                                
-------------------------------------------------------------------
[Server] packet : (0x33) UNKNOWN  Size = 32 
|------------------------------------------------|----------------|
|00 01 02 03 04 05 06 07 08 09 0A 0B 0C 0D 0E 0F |0123456789ABCDEF|
|------------------------------------------------|----------------|
|00 1D 33 07 EA 90 21 00 00 00 00 00 00 00 00 01 |..3...!.........|
|00 00 00 00 00 00 00 00 00 00 00 01 64 64 64 00 |............ddd.|                                                
-------------------------------------------------------------------
[Server] packet : (0x33) UNKNOWN  Size = 49 
|------------------------------------------------|----------------|
|00 01 02 03 04 05 06 07 08 09 0A 0B 0C 0D 0E 0F |0123456789ABCDEF|
|------------------------------------------------|----------------|
|00 2E 33 18 EA 90 21 0F 00 2A 00 03 00 28 00 18 |..3...!..*...(..|
|02 01 00 01 0C 00 0D 08 00 09 44 72 6F 6C 65 64 |..........Droled|
|65 66 65 6D 6D 65 00 56 6F 78 20 49 72 61 65 00 |efemme.Vox Irae.|
|00                                              |.               |
-------------------------------------------------------------------
[Server] packet : (0xBE) F_CHARACTER_INFO  Size = 30 
|------------------------------------------------|----------------|
|00 01 02 03 04 05 06 07 08 09 0A 0B 0C 0D 0E 0F |0123456789ABCDEF|
|------------------------------------------------|----------------|
|00 1B BE 06 04 C4 7D CC DF 96 01 F5 17 00 9C E4 |......}.........|
|6C 94 4F 00 EA A1 86 01 BD 72 00 00 00 00       |..............  |
-------------------------------------------------------------------
[Server] packet : (0xD8) F_GROUP_STATUS  Size = 23 
|------------------------------------------------|----------------|
|00 01 02 03 04 05 06 07 08 09 0A 0B 0C 0D 0E 0F |0123456789ABCDEF|
|------------------------------------------------|----------------|
|00 14 D8 3E C4 01 FF 00 02 00 00 00 00 00 01 00 |...>............|
|25 AF CC 00 25 AF 00                            |.......         |
-------------------------------------------------------------------
[Server] packet : (0xD8) F_GROUP_STATUS  Size = 11 
|------------------------------------------------|----------------|
|00 01 02 03 04 05 06 07 08 09 0A 0B 0C 0D 0E 0F |0123456789ABCDEF|
|------------------------------------------------|----------------|
|00 08 D8 3E C4 02 FF 00 00 00 00                |...........     |
-------------------------------------------------------------------
[Server] packet : (0xD8) F_GROUP_STATUS  Size = 11 
|------------------------------------------------|----------------|
|00 01 02 03 04 05 06 07 08 09 0A 0B 0C 0D 0E 0F |0123456789ABCDEF|
|------------------------------------------------|----------------|
|00 08 D8 3E C4 02 FF 01 00 00 00                |...........     |
-------------------------------------------------------------------
[Server] packet : (0x33) UNKNOWN  Size = 32 
|------------------------------------------------|----------------|
|00 01 02 03 04 05 06 07 08 09 0A 0B 0C 0D 0E 0F |0123456789ABCDEF|
|------------------------------------------------|----------------|
|00 1D 33 07 EA 90 21 CC 68 05 DE 5C 12 0C 72 01 |..3...!.h..\..r.|
|00 00 00 01 00 00 00 C8 00 00 00 01 64 64 00 00 |............dd..|                                                
-------------------------------------------------------------------
[Server] packet : (0x96) F_KEEP_STATUS  Size = 29 
|------------------------------------------------|----------------|
|00 01 02 03 04 05 06 07 08 09 0A 0B 0C 0D 0E 0F |0123456789ABCDEF|
|------------------------------------------------|----------------|
|00 1A 96 16 05 00 01 01 00 64 00 00 00 00 00 00 |.........d......|
|00 00 00 00 00 00 00 00 00 00 00 00 00          |.............   |
-------------------------------------------------------------------
[Server] packet : (0x51) F_ANIMATION  Size = 9 
|------------------------------------------------|----------------|
|00 01 02 03 04 05 06 07 08 09 0A 0B 0C 0D 0E 0F |0123456789ABCDEF|
|------------------------------------------------|----------------|
|00 06 51 01 3C 00 B0 00 00                      |.........       |
-------------------------------------------------------------------