
[Server] packet : (0xDA) F_USE_ABILITY  Size = 23 
|------------------------------------------------|----------------|
|00 01 02 03 04 05 06 07 08 09 0A 0B 0C 0D 0E 0F |0123456789ABCDEF|
|------------------------------------------------|----------------|
|00 14 DA 00 00 32 7D 32 7D 00 00 12 EC 02 00 00 |.....2}2}.......|
|00 00 00 00 00 00 00                            |.......         |
-------------------------------------------------------------------
[Server] packet : (0xDA) F_USE_ABILITY  Size = 23 
|------------------------------------------------|----------------|
|00 01 02 03 04 05 06 07 08 09 0A 0B 0C 0D 0E 0F |0123456789ABCDEF|
|------------------------------------------------|----------------|
|00 14 DA 00 00 1B CC 1B CC 00 00 38 50 02 00 00 |...........8P...|
|05 00 00 00 00 00 00                            |.......         |
-------------------------------------------------------------------
[Server] packet : (0xDA) F_USE_ABILITY  Size = 23 
|------------------------------------------------|----------------|
|00 01 02 03 04 05 06 07 08 09 0A 0B 0C 0D 0E 0F |0123456789ABCDEF|
|------------------------------------------------|----------------|
|00 14 DA 00 00 12 EC 12 EC 00 00 32 7D 02 00 00 |...........2}...|
|05 00 00 00 00 00 00                            |.......         |
-------------------------------------------------------------------
[Server] packet : (0x51) F_ANIMATION  Size = 9 
|------------------------------------------------|----------------|
|00 01 02 03 04 05 06 07 08 09 0A 0B 0C 0D 0E 0F |0123456789ABCDEF|
|------------------------------------------------|----------------|
|00 06 51 34 A6 00 00 00 00                      |.........       |
-------------------------------------------------------------------
[Server] packet : (0xDA) F_USE_ABILITY  Size = 23 
|------------------------------------------------|----------------|
|00 01 02 03 04 05 06 07 08 09 0A 0B 0C 0D 0E 0F |0123456789ABCDEF|
|------------------------------------------------|----------------|
|00 14 DA 00 00 38 50 38 50 00 00 1B CC 02 00 00 |.....8P8P.......|
|09 00 00 00 00 00 00                            |.......         |
-------------------------------------------------------------------
[Server] packet : (0x0A) F_OBJECT_DEATH  Size = 15 
|------------------------------------------------|----------------|
|00 01 02 03 04 05 06 07 08 09 0A 0B 0C 0D 0E 0F |0123456789ABCDEF|
|------------------------------------------------|----------------|
|00 0C 0A 27 7C 05 00 04 78 00 00 00 00 00 00    |............... |
-------------------------------------------------------------------
[Server] packet : (0x0A) F_OBJECT_DEATH  Size = 15 
|------------------------------------------------|----------------|
|00 01 02 03 04 05 06 07 08 09 0A 0B 0C 0D 0E 0F |0123456789ABCDEF|
|------------------------------------------------|----------------|
|00 0C 0A 27 9B 05 00 04 7C 00 00 00 00 00 00    |............... |
-------------------------------------------------------------------
[Server] packet : (0xDA) F_USE_ABILITY  Size = 23 
|------------------------------------------------|----------------|
|00 01 02 03 04 05 06 07 08 09 0A 0B 0C 0D 0E 0F |0123456789ABCDEF|
|------------------------------------------------|----------------|
|00 14 DA 00 00 1B CC 1B CC 00 00 38 50 02 00 00 |...........8P...|
|00 00 00 00 00 00 00                            |.......         |
-------------------------------------------------------------------
[Server] packet : (0xDA) F_USE_ABILITY  Size = 23 
|------------------------------------------------|----------------|
|00 01 02 03 04 05 06 07 08 09 0A 0B 0C 0D 0E 0F |0123456789ABCDEF|
|------------------------------------------------|----------------|
|00 14 DA 00 00 12 EC 12 EC 00 00 32 7D 02 00 00 |...........2}...|
|00 00 00 00 00 00 00                            |.......         |
-------------------------------------------------------------------
[Client] packet : (0xD2) F_INTERACT  Size = 24 
|------------------------------------------------|----------------|
|00 01 02 03 04 05 06 07 08 09 0A 0B 0C 0D 0E 0F |0123456789ABCDEF|
|------------------------------------------------|----------------|
|00 0C B2 F4 00 70 00 00 00 D2 00 00 04 06 00 00 |.....p..........|
|00 00 00 00 00 00 00 00                         |........        |
-------------------------------------------------------------------
[Client] packet : (0xE8) F_CLIENT_DATA  Size = 20 
|------------------------------------------------|----------------|
|00 01 02 03 04 05 06 07 08 09 0A 0B 0C 0D 0E 0F |0123456789ABCDEF|
|------------------------------------------------|----------------|
|00 08 B2 F6 00 70 00 00 00 E8 00 34 00 04 6B 21 |.....p.....4..k!|
|01 00 00 00                                     |....            |
-------------------------------------------------------------------
[Server] packet : (0x7E) F_SET_ABILITY_TIMER  Size = 15 
|------------------------------------------------|----------------|
|00 01 02 03 04 05 06 07 08 09 0A 0B 0C 0D 0E 0F |0123456789ABCDEF|
|------------------------------------------------|----------------|
|00 0C 7E 00 01 01 00 00 00 00 00 00 00 00 00    |............... |
-------------------------------------------------------------------
[Server] packet : (0xE9) F_INTERACT_RESPONSE  Size = 99 
|------------------------------------------------|----------------|
|00 01 02 03 04 05 06 07 08 09 0A 0B 0C 0D 0E 0F |0123456789ABCDEF|
|------------------------------------------------|----------------|
|00 60 E9 00 04 06 00 00 00 22 00 56 54 68 65 73 |.`.......".VThes|
|65 20 62 6C 61 64 65 73 20 61 72 65 20 6D 61 64 |e blades are mad|
|65 20 6F 66 20 74 68 65 20 66 69 6E 65 73 74 20 |e of the finest |
|73 74 65 65 6C 2C 20 74 65 6D 70 65 72 65 64 20 |steel, tempered |
|69 6E 20 74 68 65 20 63 68 65 73 74 20 6F 66 20 |in the chest of |
|61 20 68 6F 77 6C 69 6E 67 20 63 61 70 74 69 76 |a howling captiv|
|65 21 00                                        |...             |
-------------------------------------------------------------------
[Server] packet : (0x0A) F_OBJECT_DEATH  Size = 15 
|------------------------------------------------|----------------|
|00 01 02 03 04 05 06 07 08 09 0A 0B 0C 0D 0E 0F |0123456789ABCDEF|
|------------------------------------------------|----------------|
|00 0C 0A 33 5C 05 00 23 68 00 00 00 00 00 00    |............... |
-------------------------------------------------------------------
[Server] packet : (0xDA) F_USE_ABILITY  Size = 23 
|------------------------------------------------|----------------|
|00 01 02 03 04 05 06 07 08 09 0A 0B 0C 0D 0E 0F |0123456789ABCDEF|
|------------------------------------------------|----------------|
|00 14 DA 00 00 32 7D 32 7D 00 00 12 EC 02 00 00 |.....2}2}.......|
|09 00 00 00 00 00 00                            |.......         |
-------------------------------------------------------------------
[Server] packet : (0xDA) F_USE_ABILITY  Size = 23 
|------------------------------------------------|----------------|
|00 01 02 03 04 05 06 07 08 09 0A 0B 0C 0D 0E 0F |0123456789ABCDEF|
|------------------------------------------------|----------------|
|00 14 DA 00 00 1B CC 1B CC 00 00 38 50 02 00 00 |...........8P...|
|00 00 00 00 00 00 00                            |.......         |
-------------------------------------------------------------------
[Server] packet : (0xDA) F_USE_ABILITY  Size = 23 
|------------------------------------------------|----------------|
|00 01 02 03 04 05 06 07 08 09 0A 0B 0C 0D 0E 0F |0123456789ABCDEF|
|------------------------------------------------|----------------|
|00 14 DA 00 00 12 EC 12 EC 00 00 32 7D 02 00 00 |...........2}...|
|00 00 00 00 00 00 00                            |.......         |
-------------------------------------------------------------------
[Server] packet : (0x51) F_ANIMATION  Size = 9 
|------------------------------------------------|----------------|
|00 01 02 03 04 05 06 07 08 09 0A 0B 0C 0D 0E 0F |0123456789ABCDEF|
|------------------------------------------------|----------------|
|00 06 51 34 A6 00 00 00 00                      |.........       |
-------------------------------------------------------------------
[Server] packet : (0xDA) F_USE_ABILITY  Size = 23 
|------------------------------------------------|----------------|
|00 01 02 03 04 05 06 07 08 09 0A 0B 0C 0D 0E 0F |0123456789ABCDEF|
|------------------------------------------------|----------------|
|00 14 DA 00 00 38 50 38 50 00 00 1B CC 02 00 00 |.....8P8P.......|
|00 00 00 00 00 00 00                            |.......         |
-------------------------------------------------------------------
[Client] packet : (0x01) UNKNOWN  Size = 32 
|------------------------------------------------|----------------|
|00 01 02 03 04 05 06 07 08 09 0A 0B 0C 0D 0E 0F |0123456789ABCDEF|
|------------------------------------------------|----------------|
|00 14 B2 FA 00 70 00 00 00 01 00 8F FF 56 20 07 |.....p.......V .|
|2A 68 90 38 40 04 00 23 79 B0 08 18 D7 4F 5C 63 |*h.8@..#y....O\c|                                                
-------------------------------------------------------------------
[Server] packet : (0xDA) F_USE_ABILITY  Size = 23 
|------------------------------------------------|----------------|
|00 01 02 03 04 05 06 07 08 09 0A 0B 0C 0D 0E 0F |0123456789ABCDEF|
|------------------------------------------------|----------------|
|00 14 DA 00 00 1B CC 1B CC 00 00 38 50 02 00 00 |...........8P...|
|00 00 00 00 00 00 00                            |.......         |
-------------------------------------------------------------------
[Server] packet : (0xDA) F_USE_ABILITY  Size = 23 
|------------------------------------------------|----------------|
|00 01 02 03 04 05 06 07 08 09 0A 0B 0C 0D 0E 0F |0123456789ABCDEF|
|------------------------------------------------|----------------|
|00 14 DA 00 00 12 EC 12 EC 00 00 32 7D 02 00 00 |...........2}...|
|00 00 00 00 00 00 00                            |.......         |
-------------------------------------------------------------------
[Server] packet : (0x00) UNKNOWN  Size = 23 
|------------------------------------------------|----------------|
|00 01 02 03 04 05 06 07 08 09 0A 0B 0C 0D 0E 0F |0123456789ABCDEF|
|------------------------------------------------|----------------|
|00 14 00 00 8F FF 56 7A B7 90 75 00 00 00 00 00 |......Vz..u.....|
|23 79 B0 08 18 D7 00                            |.......         |
-------------------------------------------------------------------
[Client] packet : (0xD2) F_INTERACT  Size = 24 
|------------------------------------------------|----------------|
|00 01 02 03 04 05 06 07 08 09 0A 0B 0C 0D 0E 0F |0123456789ABCDEF|
|------------------------------------------------|----------------|
|00 0C B2 FB 00 70 00 00 00 D2 00 00 04 06 00 09 |.....p..........|
|00 00 00 00 00 00 00 00                         |........        |
-------------------------------------------------------------------
[Server] packet : (0xBF) F_INIT_STORE  Size = 377 
|------------------------------------------------|----------------|
|00 01 02 03 04 05 06 07 08 09 0A 0B 0C 0D 0E 0F |0123456789ABCDEF|
|------------------------------------------------|----------------|
|01 76 BF 00 00 00 03 01 01 00 00 00 03 00 00 00 |.v..............|
|1E 00 00 03 2C 1D 02 CA 00 00 00 00 00 00 00 00 |....,...........|
|00 1F 01 01 00 00 00 01 00 00 00 00 00 00 00 00 |................|
|00 00 00 00 00 0C 00 14 00 01 00 00 00 00 00 00 |................|
|00 00 00 00 00 00 13 44 72 61 6D 20 6F 66 20 52 |.......Dram of R|
|65 73 74 6F 72 61 74 69 6F 6E 00 00 01 00 01 1E |estoration......|
|C7 00 B4 00 00 00 00 00 00 00 01 00 01 03 02 00 |................|
|00 00 00 00 00 00 00 00 00 00 00 00 05 00 00 00 |................|
|00 00 00 00 00 01 03 00 00 00 1E 00 00 03 2C 1E |..............,.|
|02 EE 00 00 00 00 00 00 00 00 00 1F 01 01 00 00 |................|
|00 01 00 00 00 00 00 00 00 00 00 00 00 00 00 0C |................|
|00 14 00 01 00 00 00 00 00 00 00 00 00 00 00 00 |................|
|14 44 72 61 6D 20 6F 66 20 49 6E 76 69 67 6F 72 |.Dram of Invigor|
|61 74 69 6F 6E 00 00 01 00 01 1E D2 00 B4 00 00 |ation...........|
|00 00 00 00 00 01 00 01 03 02 00 00 00 00 00 00 |................|
|00 00 00 00 00 00 00 05 00 00 00 00 00 00 00 00 |................|
|02 03 00 00 00 1E 00 00 03 2C 1F 02 EE 00 00 00 |.........,......|
|00 00 00 00 00 00 1F 01 01 00 00 00 01 00 00 00 |................|
|00 00 00 00 00 00 00 00 00 00 0C 00 14 00 01 00 |................|
|00 00 00 00 00 00 00 00 00 00 00 11 44 72 61 6D |............Dram|
|20 6F 66 20 53 63 72 65 65 6E 69 6E 67 00 00 01 | of Screening...|
|00 01 1E D4 01 2C 00 00 00 00 00 00 00 01 00 01 |.....,..........|
|03 02 00 00 00 00 00 00 00 00 00 00 00 00 00 03 |................|
|00 00 00 00 00 00 00 00 00                      |.........       |
-------------------------------------------------------------------
[Server] packet : (0xC0) F_STORE_BUY_BACK  Size = 5 
|------------------------------------------------|----------------|
|00 01 02 03 04 05 06 07 08 09 0A 0B 0C 0D 0E 0F |0123456789ABCDEF|
|------------------------------------------------|----------------|
|00 02 C0 00 00                                  |.....           |
-------------------------------------------------------------------
[Server] packet : (0x0A) F_OBJECT_DEATH  Size = 15 
|------------------------------------------------|----------------|
|00 01 02 03 04 05 06 07 08 09 0A 0B 0C 0D 0E 0F |0123456789ABCDEF|
|------------------------------------------------|----------------|
|00 0C 0A 34 0B 05 00 04 77 00 00 00 00 00 00    |............... |
-------------------------------------------------------------------
[Server] packet : (0xDA) F_USE_ABILITY  Size = 23 
|------------------------------------------------|----------------|
|00 01 02 03 04 05 06 07 08 09 0A 0B 0C 0D 0E 0F |0123456789ABCDEF|
|------------------------------------------------|----------------|
|00 14 DA 00 00 32 7D 32 7D 00 00 12 EC 02 00 00 |.....2}2}.......|
|09 00 00 00 00 00 00                            |.......         |
-------------------------------------------------------------------
[Client] packet : (0x0B) F_PING  Size = 32 
|------------------------------------------------|----------------|
|00 01 02 03 04 05 06 07 08 09 0A 0B 0C 0D 0E 0F |0123456789ABCDEF|
|------------------------------------------------|----------------|
|00 14 B2 FD 00 70 00 00 00 0B 00 90 08 DF A7 AF |.....p..........|
|BF FB F8 7E 6D 16 00 00 00 00 00 00 00 00 A0 29 |...~m..........)|                                                
-------------------------------------------------------------------
[Server] packet : (0x72) F_CREATE_MONSTER  Size = 111 
|------------------------------------------------|----------------|
|00 01 02 03 04 05 06 07 08 09 0A 0B 0C 0D 0E 0F |0123456789ABCDEF|
|------------------------------------------------|----------------|
|00 6C 72 12 92 00 00 02 44 12 48 00 0F B9 B3 00 |.lr.....D.H.....|
|0F 95 C7 00 00 04 C9 32 02 81 00 00 00 00 00 00 |.......2........|
|00 00 00 03 E8 00 00 00 00 E2 F4 00 06 00 00 01 |................|
|19 00 48 6F 75 73 65 20 53 63 69 6F 6E 5E 6D 00 |..House Scion^m.|
|01 0A 00 00 00 12 15 00 12 92 39 B3 15 C7 12 48 |..........9....H|
|64 00 C8 00 00 00 00 00 44 02 12 92 00 04 00 0A |d.......D.......|
|07 50 00 0B 04 7C 00 16 0E B2 00 19 0E B3 00    |............... |
-------------------------------------------------------------------
[Server] packet : (0x81) S_PONG  Size = 23 
|------------------------------------------------|----------------|
|00 01 02 03 04 05 06 07 08 09 0A 0B 0C 0D 0E 0F |0123456789ABCDEF|
|------------------------------------------------|----------------|
|00 14 81 00 90 08 DF 52 75 0C 39 00 00 00 00 00 |.......Ru.9.....|
|00 B2 FE 00 00 00 00                            |.......         |
-------------------------------------------------------------------
[Server] packet : (0xDA) F_USE_ABILITY  Size = 23 
|------------------------------------------------|----------------|
|00 01 02 03 04 05 06 07 08 09 0A 0B 0C 0D 0E 0F |0123456789ABCDEF|
|------------------------------------------------|----------------|
|00 14 DA 00 00 1B CC 1B CC 00 00 38 50 02 00 00 |...........8P...|
|00 00 00 00 00 00 00                            |.......         |
-------------------------------------------------------------------
[Server] packet : (0x0A) F_OBJECT_DEATH  Size = 15 
|------------------------------------------------|----------------|
|00 01 02 03 04 05 06 07 08 09 0A 0B 0C 0D 0E 0F |0123456789ABCDEF|
|------------------------------------------------|----------------|
|00 0C 0A 29 38 05 00 27 09 00 00 00 00 00 00    |............... |
-------------------------------------------------------------------
[Server] packet : (0xDA) F_USE_ABILITY  Size = 23 
|------------------------------------------------|----------------|
|00 01 02 03 04 05 06 07 08 09 0A 0B 0C 0D 0E 0F |0123456789ABCDEF|
|------------------------------------------------|----------------|
|00 14 DA 00 00 12 EC 12 EC 00 00 32 7D 02 00 00 |...........2}...|
|00 00 00 00 00 00 00                            |.......         |
-------------------------------------------------------------------
[Server] packet : (0x51) F_ANIMATION  Size = 9 
|------------------------------------------------|----------------|
|00 01 02 03 04 05 06 07 08 09 0A 0B 0C 0D 0E 0F |0123456789ABCDEF|
|------------------------------------------------|----------------|
|00 06 51 12 92 00 00 00 00                      |.........       |
-------------------------------------------------------------------
[Client] packet : (0x5A) F_PING_DATAGRAM  Size = 13 
|------------------------------------------------|----------------|
|00 01 02 03 04 05 06 07 08 09 0A 0B 0C 0D 0E 0F |0123456789ABCDEF|
|------------------------------------------------|----------------|
|00 01 B3 00 00 70 FF FF 00 5A 00 D1 77          |.............   |
-------------------------------------------------------------------
[Server] packet : (0xDA) F_USE_ABILITY  Size = 23 
|------------------------------------------------|----------------|
|00 01 02 03 04 05 06 07 08 09 0A 0B 0C 0D 0E 0F |0123456789ABCDEF|
|------------------------------------------------|----------------|
|00 14 DA 00 00 38 50 38 50 00 00 1B CC 02 00 00 |.....8P8P.......|
|00 00 00 00 00 00 00                            |.......         |
-------------------------------------------------------------------
[Server] packet : (0x51) F_ANIMATION  Size = 9 
|------------------------------------------------|----------------|
|00 01 02 03 04 05 06 07 08 09 0A 0B 0C 0D 0E 0F |0123456789ABCDEF|
|------------------------------------------------|----------------|
|00 06 51 12 92 00 00 00 00                      |.........       |
-------------------------------------------------------------------
[Server] packet : (0xDA) F_USE_ABILITY  Size = 23 
|------------------------------------------------|----------------|
|00 01 02 03 04 05 06 07 08 09 0A 0B 0C 0D 0E 0F |0123456789ABCDEF|
|------------------------------------------------|----------------|
|00 14 DA 00 00 1B CC 1B CC 00 00 38 50 02 00 00 |...........8P...|
|00 00 00 00 00 00 00                            |.......         |
-------------------------------------------------------------------
[Server] packet : (0xDA) F_USE_ABILITY  Size = 23 
|------------------------------------------------|----------------|
|00 01 02 03 04 05 06 07 08 09 0A 0B 0C 0D 0E 0F |0123456789ABCDEF|
|------------------------------------------------|----------------|
|00 14 DA 00 00 12 EC 12 EC 00 00 32 7D 02 00 00 |...........2}...|
|05 00 00 00 00 00 00                            |.......         |
-------------------------------------------------------------------
[Server] packet : (0x51) F_ANIMATION  Size = 9 
|------------------------------------------------|----------------|
|00 01 02 03 04 05 06 07 08 09 0A 0B 0C 0D 0E 0F |0123456789ABCDEF|
|------------------------------------------------|----------------|
|00 06 51 34 A6 00 00 00 00                      |.........       |
-------------------------------------------------------------------
[Server] packet : (0xDA) F_USE_ABILITY  Size = 23 
|------------------------------------------------|----------------|
|00 01 02 03 04 05 06 07 08 09 0A 0B 0C 0D 0E 0F |0123456789ABCDEF|
|------------------------------------------------|----------------|
|00 14 DA 00 00 32 7D 32 7D 00 00 12 EC 02 00 00 |.....2}2}.......|
|09 00 00 00 00 00 00                            |.......         |
-------------------------------------------------------------------
[Server] packet : (0xDA) F_USE_ABILITY  Size = 23 
|------------------------------------------------|----------------|
|00 01 02 03 04 05 06 07 08 09 0A 0B 0C 0D 0E 0F |0123456789ABCDEF|
|------------------------------------------------|----------------|
|00 14 DA 00 00 1B CC 1B CC 00 00 38 50 02 00 00 |...........8P...|
|00 00 00 00 00 00 00                            |.......         |
-------------------------------------------------------------------
[Server] packet : (0xDA) F_USE_ABILITY  Size = 23 
|------------------------------------------------|----------------|
|00 01 02 03 04 05 06 07 08 09 0A 0B 0C 0D 0E 0F |0123456789ABCDEF|
|------------------------------------------------|----------------|
|00 14 DA 00 00 12 EC 12 EC 00 00 32 7D 02 00 00 |...........2}...|
|00 00 00 00 00 00 00                            |.......         |
-------------------------------------------------------------------
[Server] packet : (0x51) F_ANIMATION  Size = 9 
|------------------------------------------------|----------------|
|00 01 02 03 04 05 06 07 08 09 0A 0B 0C 0D 0E 0F |0123456789ABCDEF|
|------------------------------------------------|----------------|
|00 06 51 12 92 00 00 00 00                      |.........       |
-------------------------------------------------------------------
[Client] packet : (0x86) F_MAIL  Size = 16 
|------------------------------------------------|----------------|
|00 01 02 03 04 05 06 07 08 09 0A 0B 0C 0D 0E 0F |0123456789ABCDEF|
|------------------------------------------------|----------------|
|00 04 B3 03 00 70 FF FF 00 86 00 00 00 00 00 00 |.....p..........|                                                
-------------------------------------------------------------------
[Server] packet : (0xDA) F_USE_ABILITY  Size = 23 
|------------------------------------------------|----------------|
|00 01 02 03 04 05 06 07 08 09 0A 0B 0C 0D 0E 0F |0123456789ABCDEF|
|------------------------------------------------|----------------|
|00 14 DA 00 00 38 50 38 50 00 00 1B CC 02 00 00 |.....8P8P.......|
|00 00 00 00 00 00 00                            |.......         |
-------------------------------------------------------------------
[Server] packet : (0xDA) F_USE_ABILITY  Size = 23 
|------------------------------------------------|----------------|
|00 01 02 03 04 05 06 07 08 09 0A 0B 0C 0D 0E 0F |0123456789ABCDEF|
|------------------------------------------------|----------------|
|00 14 DA 00 00 1B CC 1B CC 00 00 38 50 02 00 00 |...........8P...|
|00 00 00 00 00 00 00                            |.......         |
-------------------------------------------------------------------
[Server] packet : (0xDA) F_USE_ABILITY  Size = 23 
|------------------------------------------------|----------------|
|00 01 02 03 04 05 06 07 08 09 0A 0B 0C 0D 0E 0F |0123456789ABCDEF|
|------------------------------------------------|----------------|
|00 14 DA 00 00 12 EC 12 EC 00 00 32 7D 02 00 00 |...........2}...|
|00 00 00 00 00 00 00                            |.......         |
-------------------------------------------------------------------