
[Client] packet : (0x0B) F_PING  Size = 32 
|------------------------------------------------|----------------|
|00 01 02 03 04 05 06 07 08 09 0A 0B 0C 0D 0E 0F |0123456789ABCDEF|
|------------------------------------------------|----------------|
|00 14 04 89 00 2B 00 00 00 0B 00 04 C2 54 54 14 |.....+.......TT.|
|06 4E 06 A6 3C 91 00 00 00 00 00 00 00 00 20 83 |.N..<......... .|                                                
-------------------------------------------------------------------
[Server] packet : (0x81) S_PONG  Size = 23 
|------------------------------------------------|----------------|
|00 01 02 03 04 05 06 07 08 09 0A 0B 0C 0D 0E 0F |0123456789ABCDEF|
|------------------------------------------------|----------------|
|00 14 81 00 04 C2 54 52 75 8A A0 00 00 00 00 00 |......TRu.......|
|00 04 8A 00 00 00 00                            |.......         |
-------------------------------------------------------------------
[Client] packet : (0x5A) F_PING_DATAGRAM  Size = 13 
|------------------------------------------------|----------------|
|00 01 02 03 04 05 06 07 08 09 0A 0B 0C 0D 0E 0F |0123456789ABCDEF|
|------------------------------------------------|----------------|
|00 01 04 8C 00 2B FF FF 00 5A 00 A1 F3          |.............   |
-------------------------------------------------------------------
[Client] packet : (0x01) UNKNOWN  Size = 32 
|------------------------------------------------|----------------|
|00 01 02 03 04 05 06 07 08 09 0A 0B 0C 0D 0E 0F |0123456789ABCDEF|
|------------------------------------------------|----------------|
|00 14 04 8C 00 2B 00 00 00 01 00 04 C1 F1 00 00 |.....+..........|
|00 00 00 00 00 00 00 00 14 82 00 00 06 18 00 00 |................|                                                
-------------------------------------------------------------------
[Client] packet : (0xD2) F_INTERACT  Size = 24 
|------------------------------------------------|----------------|
|00 01 02 03 04 05 06 07 08 09 0A 0B 0C 0D 0E 0F |0123456789ABCDEF|
|------------------------------------------------|----------------|
|00 0C 04 8F 00 2B 00 00 00 D2 00 00 00 1D 00 00 |.....+..........|
|00 00 00 00 00 00 00 00                         |........        |
-------------------------------------------------------------------
[Server] packet : (0x7E) F_SET_ABILITY_TIMER  Size = 15 
|------------------------------------------------|----------------|
|00 01 02 03 04 05 06 07 08 09 0A 0B 0C 0D 0E 0F |0123456789ABCDEF|
|------------------------------------------------|----------------|
|00 0C 7E 00 01 01 00 00 00 00 00 00 00 00 00    |............... |
-------------------------------------------------------------------
[Server] packet : (0xE9) F_INTERACT_RESPONSE  Size = 11 
|------------------------------------------------|----------------|
|00 01 02 03 04 05 06 07 08 09 0A 0B 0C 0D 0E 0F |0123456789ABCDEF|
|------------------------------------------------|----------------|
|00 08 E9 00 00 1D 00 00 00 02 00                |...........     |
-------------------------------------------------------------------
[Client] packet : (0xD2) F_INTERACT  Size = 24 
|------------------------------------------------|----------------|
|00 01 02 03 04 05 06 07 08 09 0A 0B 0C 0D 0E 0F |0123456789ABCDEF|
|------------------------------------------------|----------------|
|00 0C 04 91 00 2B 00 00 00 D2 00 00 00 1D 00 09 |.....+..........|
|00 00 00 00 00 00 FB 6D                         |........        |
-------------------------------------------------------------------
[Server] packet : (0x00) UNKNOWN  Size = 23 
|------------------------------------------------|----------------|
|00 01 02 03 04 05 06 07 08 09 0A 0B 0C 0D 0E 0F |0123456789ABCDEF|
|------------------------------------------------|----------------|
|00 14 00 00 04 C1 F1 7C A5 93 BE 00 00 00 00 00 |.......|........|
|00 14 82 00 00 06 00                            |.......         |
-------------------------------------------------------------------
[Server] packet : (0xBF) F_INIT_STORE  Size = 4107 
|------------------------------------------------|----------------|
|00 01 02 03 04 05 06 07 08 09 0A 0B 0C 0D 0E 0F |0123456789ABCDEF|
|------------------------------------------------|----------------|
|10 08 BF 00 00 00 19 01 01 03 00 00 02 00 00 00 |................|
|7D 00 00 01 39 21 0F C0 00 00 00 00 00 00 00 00 |}...9!..........|
|1A 00 01 01 00 00 00 01 00 00 00 00 00 00 00 00 |................|
|00 00 00 00 00 32 00 01 00 01 00 00 00 00 00 00 |.....2..........|
|00 00 00 00 00 00 11 53 68 69 6E 79 20 4D 65 74 |.......Shiny Met|
|61 6C 20 54 68 69 6E 67 00 00 01 00 00 33 90 00 |al Thing.....3..|
|05 00 00 00 00 00 3E 45 6E 67 69 6E 65 65 72 73 |......>Engineers|
|20 6C 6F 76 65 20 6D 65 74 61 6C 20 70 61 72 74 | love metal part|
|73 20 6F 66 20 61 6C 6C 20 6B 69 6E 64 2C 20 6E |s of all kind, n|
|6F 20 6D 61 74 74 65 72 20 68 6F 77 20 75 73 65 |o matter how use|
|6C 65 73 73 2E 01 01 00 00 03 06 00 00 00 00 00 |less............|
|00 00 00 00 00 00 00 00 00 00 00 00 00 00 00 00 |................|
|00 01 02 00 00 00 7D 00 00 01 39 25 01 96 00 00 |......}...9%....|
|00 00 00 00 00 00 1A 00 01 01 00 00 00 01 00 00 |................|
|00 00 00 00 00 00 00 00 00 00 00 32 00 01 00 01 |...........2....|
|00 00 00 00 00 00 00 00 00 00 00 00 17 45 6E 64 |.............End|
|6C 65 73 73 20 4C 69 73 74 20 6F 66 20 47 72 75 |less List of Gru|
|64 67 65 73 00 00 01 00 00 33 90 00 05 00 00 00 |dges.....3......|
|00 00 19 49 72 6F 6E 62 72 65 61 6B 65 72 73 20 |...Ironbreakers |
|6E 65 76 65 72 20 66 6F 72 67 65 74 01 01 00 00 |never forget....|
|03 06 00 00 00 00 00 00 00 00 00 00 00 00 00 00 |................|
|00 00 00 00 00 00 00 00 02 02 00 00 00 7D 00 00 |.............}..|
|01 39 27 01 96 00 00 00 00 00 00 00 00 1A 00 01 |.9'.............|
|01 00 00 00 01 00 00 00 00 00 00 00 00 00 00 00 |................|
|00 00 32 00 01 00 01 00 00 00 00 00 00 00 00 00 |..2.............|
|00 00 00 1A 53 69 6D 70 6C 65 74 6F 6E 27 73 20 |....Simpleton's |
|47 75 69 64 65 20 74 6F 20 52 75 6E 65 73 00 00 |Guide to Runes..|
|01 00 00 33 90 00 05 00 00 00 00 00 16 50 6C 61 |...3.........Pla|
|63 65 20 72 75 6E 65 20 41 20 69 6E 20 73 6C 6F |ce rune A in slo|
|74 20 42 01 01 00 00 03 06 00 00 00 00 00 00 00 |t B.............|
|00 00 00 00 00 00 00 00 00 00 00 00 00 00 00 03 |................|
|02 00 00 00 7D 00 00 01 39 29 10 03 00 00 00 00 |....}...9)......|
|00 00 00 00 1A 00 01 01 00 00 00 01 00 00 00 00 |................|
|00 00 00 00 00 00 00 00 00 32 00 01 00 01 00 00 |.........2......|
|00 00 00 00 00 00 00 00 00 00 0B 46 6C 69 6E 74 |...........Flint|
|20 53 74 6F 6E 65 00 00 01 00 00 33 90 00 05 00 | Stone.....3....|
|00 00 00 00 29 42 65 63 61 75 73 65 20 65 76 65 |....)Because eve|
|6E 20 42 72 69 67 68 74 20 57 69 7A 61 72 64 73 |n Bright Wizards|
|20 68 61 76 65 20 6F 66 66 2D 64 61 79 73 01 01 | have off-days..|
|00 00 03 06 00 00 00 00 00 00 00 00 00 00 00 00 |................|
|00 00 00 00 00 00 00 00 00 00 04 02 00 00 00 7D |...............}|
|00 00 01 39 2D 01 C9 00 00 00 00 00 00 00 00 1A |...9-...........|
|00 01 01 00 00 00 01 00 00 00 00 00 00 00 00 00 |................|
|00 00 00 00 32 00 01 00 01 00 00 00 00 00 00 00 |....2...........|
|00 00 00 00 00 0D 54 68 75 6D 62 20 55 6E 67 75 |......Thumb Ungu|
|65 6E 74 00 00 01 00 00 33 90 00 05 00 00 00 00 |ent.....3.......|
|00 3B 59 6F 75 20 68 61 76 65 20 74 6F 20 70 72 |.;You have to pr|
|6F 74 65 63 74 20 79 6F 75 72 20 74 68 75 6D 62 |otect your thumb|
|73 20 77 68 65 6E 20 79 6F 75 20 73 77 69 6E 67 |s when you swing|
|20 61 20 62 69 67 20 68 61 6D 6D 65 72 01 01 00 | a big hammer...|
|00 03 06 00 00 00 00 00 00 00 00 00 00 00 00 00 |................|
|00 00 00 00 00 00 00 00 00 05 02 00 00 00 7D 00 |..............}.|
|00 01 39 2F 01 9D 00 00 00 00 00 00 00 00 1A 00 |..9/............|
|01 01 00 00 00 01 00 00 00 00 00 00 00 00 00 00 |................|
|00 00 00 32 00 01 00 01 00 00 00 00 00 00 00 00 |...2............|
|00 00 00 00 10 46 65 61 72 20 69 6E 20 61 20 62 |.....Fear in a b|
|6F 74 74 6C 65 00 00 01 00 00 33 90 00 05 00 00 |ottle.....3.....|
|00 00 00 3B 49 66 20 79 6F 75 20 63 6F 75 6C 64 |...;If you could|
|20 73 61 76 65 20 66 65 61 72 20 69 6E 20 61 20 | save fear in a |
|62 6F 74 74 6C 65 2C 20 69 74 20 77 6F 75 6C 64 |bottle, it would|
|20 6C 6F 6F 6B 20 6C 69 6B 65 20 74 68 69 73 01 | look like this.|
|01 00 00 03 06 00 00 00 00 00 00 00 00 00 00 00 |................|
|00 00 00 00 00 00 00 00 00 00 00 06 02 00 00 00 |................|
|7D 00 00 01 39 35 01 96 00 00 00 00 00 00 00 00 |}...95..........|
|1A 00 01 01 00 00 00 01 00 00 00 00 00 00 00 00 |................|
|00 00 00 00 00 32 00 01 00 01 00 00 00 00 00 00 |.....2..........|
|00 00 00 00 00 00 0B 52 75 69 6E 65 64 20 42 6F |.......Ruined Bo|
|6F 6B 00 00 01 00 00 33 90 00 05 00 00 00 00 00 |ok.....3........|
|47 54 68 69 73 20 62 6F 6F 6B 20 6C 6F 6F 6B 73 |GThis book looks|
|20 6C 69 6B 65 20 69 74 20 77 61 73 20 77 65 6C | like it was wel|
|6C 20 75 73 65 64 20 62 79 20 74 68 65 20 41 72 |l used by the Ar|
|63 68 6D 61 67 65 20 69 74 20 77 61 73 20 74 61 |chmage it was ta|
|6B 65 6E 20 66 72 6F 6D 01 01 00 00 03 06 00 00 |ken from........|
|00 00 00 00 00 00 00 00 00 00 00 00 00 00 00 00 |................|
|00 00 00 00 07 02 00 00 00 7D 00 00 01 39 37 0F |.........}...97.|
|4B 00 00 00 00 00 00 00 00 1A 00 01 01 00 00 00 |K...............|
|01 00 00 00 00 00 00 00 00 00 00 00 00 00 32 00 |..............2.|
|01 00 01 00 00 00 00 00 00 00 00 00 00 00 00 15 |................|
|43 61 70 74 75 72 65 64 20 4C 69 6F 6E 20 45 73 |Captured Lion Es|
|73 65 6E 63 65 00 00 01 00 00 33 90 00 05 00 00 |sence.....3.....|
|00 00 00 42 4C 6F 75 64 20 61 6E 64 20 62 65 6C |...BLoud and bel|
|6C 6F 77 69 6E 67 2C 20 74 68 69 73 20 68 6F 72 |lowing, this hor|
|6E 20 63 61 70 74 75 72 65 73 20 74 68 65 20 65 |n captures the e|
|73 73 65 6E 63 65 20 6F 66 20 61 20 57 68 69 74 |ssence of a Whit|
|65 20 4C 69 6F 6E 01 01 00 00 03 06 00 00 00 00 |e Lion..........|
|00 00 00 00 00 00 00 00 00 00 00 00 00 00 00 00 |................|
|00 00 08 02 00 00 00 7D 00 00 01 39 39 0F 6A 00 |.......}...99.j.|
|00 00 00 00 00 00 00 1A 00 01 01 00 00 00 01 00 |................|
|00 00 00 00 00 00 00 00 00 00 00 00 32 00 01 00 |............2...|
|01 00 00 00 00 00 00 00 00 00 00 00 00 10 42 72 |..............Br|
|6F 6B 65 6E 20 42 6F 77 73 74 72 69 6E 67 00 00 |oken Bowstring..|
|01 00 00 33 90 00 05 00 00 00 00 00 17 57 6F 74 |...3.........Wot|
|20 64 69 73 20 73 75 70 70 6F 73 65 27 20 64 61 | dis suppose' da|
|20 64 6F 3F 01 01 00 00 03 06 00 00 00 00 00 00 | do?............|
|00 00 00 00 00 00 00 00 00 00 00 00 00 00 00 00 |................|
|09 03 00 00 00 7D 00 00 01 39 3B 06 17 00 00 00 |.....}...9;.....|
|00 00 00 00 00 1A 00 01 01 00 00 00 01 00 00 00 |................|
|00 00 00 00 00 00 00 00 00 00 32 00 01 00 01 00 |..........2.....|
|00 00 00 00 00 00 00 00 00 00 00 0C 42 72 6F 6B |............Brok|
|65 6E 20 53 77 6F 72 64 00 00 01 00 00 33 90 00 |en Sword.....3..|
|05 00 00 00 00 00 41 54 61 6B 65 6E 20 66 72 6F |......ATaken fro|
|6D 20 61 20 53 77 6F 72 64 6D 61 73 74 65 72 2C |m a Swordmaster,|
|20 74 68 69 73 20 62 72 6F 6B 65 6E 20 73 77 6F | this broken swo|
|72 64 20 6D 61 6B 65 73 20 61 20 67 72 65 61 74 |rd makes a great|
|20 6D 65 6D 65 6E 74 6F 01 01 00 00 03 06 00 00 | memento........|
|00 00 00 00 00 00 00 00 00 00 00 00 00 00 00 00 |................|
|00 00 00 00 0A 02 00 00 00 7D 00 00 01 39 23 02 |.........}...9#.|
|32 00 00 00 00 00 00 00 00 1A 00 01 01 00 00 00 |2...............|
|01 00 00 00 00 00 00 00 00 00 00 00 00 00 32 00 |..............2.|
|01 00 01 00 00 00 00 00 00 00 00 00 00 00 00 0F |................|
|53 6C 61 79 65 72 20 48 61 69 72 63 6F 6D 62 00 |Slayer Haircomb.|
|00 01 00 00 33 90 00 05 00 00 00 00 00 3A 54 68 |....3........:Th|
|69 73 20 6F 72 6E 61 74 65 20 63 6F 6D 62 20 6C |is ornate comb l|
|6F 6F 6B 73 20 69 6D 6D 61 63 75 6C 61 74 65 2C |ooks immaculate,|
|20 6C 69 6B 65 20 69 74 20 77 61 73 20 6E 65 76 | like it was nev|
|65 72 20 75 73 65 64 2E 01 01 00 00 03 06 00 00 |er used.........|
|00 00 00 00 00 00 00 00 00 00 00 00 00 00 00 00 |................|
|00 00 00 00 0B 02 00 00 00 7D 00 00 01 39 2B 10 |.........}...9+.|
|0E 00 00 00 00 00 00 00 00 1A 00 01 01 00 00 00 |................|
|01 00 00 00 00 00 00 00 00 00 00 00 00 00 32 00 |..............2.|
|01 00 01 00 00 00 00 00 00 00 00 00 00 00 00 0E |................|
|4D 79 72 6D 69 64 69 61 6E 20 49 63 6F 6E 00 00 |Myrmidian Icon..|
|01 00 00 33 90 00 05 00 00 00 00 00 2B 41 20 73 |...3........+A s|
|6D 61 6C 6C 20 66 69 67 75 72 69 6E 65 20 6F 66 |mall figurine of|
|20 74 68 65 20 67 6F 64 64 65 73 73 20 6F 66 20 | the goddess of |
|77 61 72 66 61 72 65 20 01 01 00 00 03 06 00 00 |warfare ........|
|00 00 00 00 00 00 00 00 00 00 00 00 00 00 00 00 |................|
|00 00 00 00 0C 02 00 00 00 7D 00 00 01 39 11 03 |.........}...9..|
|12 00 00 00 00 00 00 00 00 1A 00 01 01 00 00 00 |................|
|01 00 00 00 00 00 00 00 00 00 00 00 00 00 32 00 |..............2.|
|01 00 01 00 00 00 00 00 00 00 00 00 00 00 00 10 |................|
|4D 61 72 6B 20 6F 66 20 54 7A 65 65 6E 74 63 68 |Mark of Tzeentch|
|00 00 01 00 00 33 90 00 05 00 00 00 00 00 26 42 |.....3........&B|
|65 20 63 68 6F 73 65 6E 20 66 69 72 73 74 20 77 |e chosen first w|
|69 74 68 20 74 68 69 73 20 6C 6F 76 65 6C 79 20 |ith this lovely |
|6D 61 72 6B 2E 01 01 00 00 03 06 00 00 00 00 00 |mark............|
|00 00 00 00 00 00 00 00 00 00 00 00 00 00 00 00 |................|
|00 0D 03 00 00 00 7D 00 00 01 39 13 01 C6 00 00 |......}...9.....|
|00 00 00 00 00 00 1A 00 01 01 00 00 00 01 00 00 |................|
|00 00 00 00 00 00 00 00 00 00 00 32 00 01 00 01 |...........2....|
|00 00 00 00 00 00 00 00 00 00 00 00 0B 44 69 73 |.............Dis|
|63 75 73 20 54 65 63 68 00 00 01 00 00 33 90 00 |cus Tech.....3..|
|05 00 00 00 00 00 22 46 65 76 65 72 20 69 6E 64 |......"Fever ind|
|75 63 69 6E 67 20 6C 69 67 68 74 20 73 68 6F 77 |ucing light show|
|20 69 6E 63 6C 75 64 65 64 01 01 00 00 03 06 00 | included.......|
|00 00 00 00 00 00 00 00 00 00 00 00 00 00 00 00 |................|
|00 00 00 00 00 0E 03 00 00 00 7D 00 00 01 39 15 |..........}...9.|
|0F D1 00 00 00 00 00 00 00 00 1A 00 01 01 00 00 |................|
|00 01 00 00 00 00 00 00 00 00 00 00 00 00 00 32 |...............2|
|00 01 00 01 00 00 00 00 00 00 00 00 00 00 00 00 |................|
|0C 4D 75 74 61 74 65 64 20 43 6C 61 77 00 00 01 |.Mutated Claw...|
|00 00 33 90 00 05 00 00 00 00 00 19 49 74 20 6B |..3.........It k|
|65 65 70 73 20 67 6F 69 6E 67 2C 20 61 6E 64 20 |eeps going, and |
|67 6F 69 6E 67 01 01 00 00 03 06 00 00 00 00 00 |going...........|
|00 00 00 00 00 00 00 00 00 00 00 00 00 00 00 00 |................|
|00 0F 02 00 00 00 7D 00 00 01 39 17 06 24 00 00 |......}...9..$..|
|00 00 00 00 00 00 1A 00 01 01 00 00 00 01 00 00 |................|
|00 00 00 00 00 00 00 00 00 00 00 32 00 01 00 01 |...........2....|
|00 00 00 00 00 00 00 00 00 00 00 00 0D 53 6D 6F |.............Smo|
|6B 69 6E 67 20 53 6B 75 6C 6C 00 00 01 00 00 33 |king Skull.....3|
|90 00 05 00 00 00 00 00 21 41 6C 61 73 20 70 6F |........!Alas po|
|6F 72 20 5A 65 61 6C 6F 74 2C 20 49 20 6B 6E 65 |or Zealot, I kne|
|77 20 68 69 6D 20 77 65 6C 6C 01 01 00 00 03 06 |w him well......|
|00 00 00 00 00 00 00 00 00 00 00 00 00 00 00 00 |................|
|00 00 00 00 00 00 10 02 00 00 00 7D 00 00 01 39 |...........}...9|
|19 02 FE 00 00 00 00 00 00 00 00 1A 00 01 01 00 |................|
|00 00 01 00 00 00 00 00 00 00 00 00 00 00 00 00 |................|
|32 00 01 00 01 00 00 00 00 00 00 00 00 00 00 00 |2...............|
|00 0B 57 69 74 63 68 20 41 72 6D 6F 72 00 00 01 |..Witch Armor...|
|00 00 33 90 00 05 00 00 00 00 00 37 54 68 69 73 |..3........7This|
|20 72 69 62 62 6F 6E 20 77 61 73 20 70 61 72 74 | ribbon was part|
|20 6F 66 2C 20 6F 72 20 61 6C 6C 20 6F 66 2C 20 | of, or all of, |
|61 20 77 69 74 63 68 20 65 6C 66 27 73 20 61 72 |a witch elf's ar|
|6D 6F 72 01 01 00 00 03 06 00 00 00 00 00 00 00 |mor.............|
|00 00 00 00 00 00 00 00 00 00 00 00 00 00 00 11 |................|
|02 00 00 00 7D 00 00 01 39 1B 01 9D 00 00 00 00 |....}...9.......|
|00 00 00 00 1A 00 01 01 00 00 00 01 00 00 00 00 |................|
|00 00 00 00 00 00 00 00 00 32 00 01 00 01 00 00 |.........2......|
|00 00 00 00 00 00 00 00 00 00 0B 44 61 72 6B 20 |...........Dark |
|50 6F 6C 69 73 68 00 00 01 00 00 33 90 00 05 00 |Polish.....3....|
|00 00 00 00 2C 44 61 72 6B 2C 20 6D 75 73 74 20 |....,Dark, must |
|6B 65 65 70 20 69 74 20 64 61 72 6B 3B 20 70 72 |keep it dark; pr|
|65 74 74 79 2C 20 70 72 65 74 74 79 20 64 61 72 |etty, pretty dar|
|6B 01 01 00 00 03 06 00 00 00 00 00 00 00 00 00 |k...............|
|00 00 00 00 00 00 00 00 00 00 00 00 00 12 02 00 |................|
|00 00 7D 00 00 01 39 1F 0F D6 00 00 00 00 00 00 |..}...9.........|
|00 00 1A 00 01 01 00 00 00 01 00 00 00 00 00 00 |................|
|00 00 00 00 00 00 00 32 00 01 00 01 00 00 00 00 |.......2........|
|00 00 00 00 00 00 00 00 0B 46 6F 75 6C 20 53 63 |.........Foul Sc|
|72 6F 6C 6C 00 00 01 00 00 33 90 00 05 00 00 00 |roll.....3......|
|00 00 2B 54 68 69 73 20 73 6F 72 63 65 72 6F 72 |..+This sorceror|
|20 73 63 72 6F 6C 6C 20 73 65 65 6D 73 20 76 65 | scroll seems ve|
|72 79 20 66 6F 75 6C 20 69 6E 64 65 65 64 01 01 |ry foul indeed..|
|00 00 03 06 00 00 00 00 00 00 00 00 00 00 00 00 |................|
|00 00 00 00 00 00 00 00 00 00 13 02 00 00 00 7D |...............}|
|00 00 01 39 31 01 BC 00 00 00 00 00 00 00 00 1A |...91...........|
|00 01 01 00 00 00 01 00 00 00 00 00 00 00 00 00 |................|
|00 00 00 00 32 00 01 00 01 00 00 00 00 00 00 00 |....2...........|
|00 00 00 00 00 12 45 6D 65 72 67 65 6E 63 79 20 |......Emergency |
|4D 75 73 68 72 6F 6F 6D 00 00 01 00 00 33 90 00 |Mushroom.....3..|
|05 00 00 00 00 00 24 53 6F 6D 65 74 69 6D 65 73 |......$Sometimes|
|20 65 76 65 6E 20 61 20 53 68 61 6D 61 6E 20 6E | even a Shaman n|
|65 65 64 73 20 62 61 63 6B 75 70 01 01 00 00 03 |eeds backup.....|
|06 00 00 00 00 00 00 00 00 00 00 00 00 00 00 00 |................|
|00 00 00 00 00 00 00 14 02 00 00 00 7D 00 00 01 |............}...|
|39 33 01 8C 00 00 00 00 00 00 00 00 1A 00 01 01 |93..............|
|00 00 00 01 00 00 00 00 00 00 00 00 00 00 00 00 |................|
|00 32 00 01 00 01 00 00 00 00 00 00 00 00 00 00 |.2..............|
|00 00 17 53 75 6D 66 69 6E 6B 20 57 6F 74 20 4C |...Sumfink Wot L|
|6F 6F 6B 73 20 54 61 73 74 79 00 00 01 00 00 33 |ooks Tasty.....3|
|90 00 05 00 00 00 00 00 4B 49 74 20 6C 6F 6F 6B |........KIt look|
|73 20 6C 69 6B 65 20 69 74 20 6D 69 67 68 74 20 |s like it might |
|62 65 20 53 71 75 69 67 20 66 6F 6F 64 2C 20 62 |be Squig food, b|
|75 74 20 79 6F 75 20 64 61 72 65 20 6E 6F 74 20 |ut you dare not |
|74 61 73 74 65 20 69 74 20 74 6F 20 66 69 6E 64 |taste it to find|
|20 6F 75 74 01 01 00 00 03 06 00 00 00 00 00 00 | out............|
|00 00 00 00 00 00 00 00 00 00 00 00 00 00 00 00 |................|
|15 02 00 00 00 7D 00 00 01 39 3D 01 DD 00 00 00 |.....}...9=.....|
|00 00 00 00 00 1A 00 01 01 00 00 00 01 00 00 00 |................|
|00 00 00 00 00 00 00 00 00 00 32 00 01 00 01 00 |..........2.....|
|00 00 00 00 00 00 00 00 00 00 00 12 4C 75 63 6B |............Luck|
|79 20 48 75 6D 69 65 27 73 20 48 61 6E 64 00 00 |y Humie's Hand..|
|01 00 00 33 90 00 05 00 00 00 00 00 26 57 68 61 |...3........&Wha|
|74 27 73 20 74 68 65 20 73 6F 75 6E 64 20 6F 66 |t's the sound of|
|20 6F 6E 65 20 68 61 6E 64 20 63 6C 61 70 70 69 | one hand clappi|
|6E 67 3F 01 01 00 00 03 06 00 00 00 00 00 00 00 |ng?.............|
|00 00 00 00 00 00 00 00 00 00 00 00 00 00 00 16 |................|
|02 00 00 00 7D 00 00 01 39 3F 01 8D 00 00 00 00 |....}...9?......|
|00 00 00 00 1A 00 01 01 00 00 00 01 00 00 00 00 |................|
|00 00 00 00 00 00 00 00 00 32 00 01 00 01 00 00 |.........2......|
|00 00 00 00 00 00 00 00 00 00 09 54 6F 6F 66 20 |...........Toof |
|50 69 63 6B 00 00 01 00 00 33 90 00 05 00 00 00 |Pick.....3......|
|00 00 27 53 6F 6D 65 74 69 6D 65 73 2C 20 74 68 |..'Sometimes, th|
|69 6E 67 73 20 67 65 74 20 63 61 75 67 68 74 20 |ings get caught |
|6F 6E 20 61 20 74 6F 6F 66 21 01 01 00 00 03 06 |on a toof!......|
|00 00 00 00 00 00 00 00 00 00 00 00 00 00 00 00 |................|
|00 00 00 00 00 00 17 02 00 00 00 7D 00 00 01 39 |...........}...9|
|1D 0F B6 00 00 00 00 00 00 00 00 1A 00 01 01 00 |................|
|00 00 01 00 00 00 00 00 00 00 00 00 00 00 00 00 |................|
|32 00 01 00 01 00 00 00 00 00 00 00 00 00 00 00 |2...............|
|00 0F 4B 6F 75 72 61 6E 27 73 20 4F 72 64 65 72 |..Kouran's Order|
|73 00 00 01 00 00 33 90 00 05 00 00 00 00 00 48 |s.....3........H|
|41 20 73 63 72 6F 6C 6C 20 64 65 74 61 69 6C 69 |A scroll detaili|
|6E 67 20 74 68 65 20 6D 65 72 63 69 6C 65 73 73 |ng the merciless|
|20 70 6C 61 6E 73 20 6F 66 20 74 68 65 20 43 61 | plans of the Ca|
|70 74 61 69 6E 20 6F 66 20 74 68 65 20 42 6C 61 |ptain of the Bla|
|63 6B 20 47 75 61 72 64 01 01 00 00 03 06 00 00 |ck Guard........|
|00 00 00 00 00 00 00 00 00 00 00 00 00 00 00 00 |................|
|00 00 00 00 18 02 00 00 00 7D 00 00 01 38 E6 02 |.........}...8..|
|1E 00 00 00 00 00 00 00 00 1A 00 01 01 00 00 00 |................|
|01 00 00 00 00 00 00 00 00 00 00 00 00 00 32 00 |..............2.|
|01 00 01 00 00 00 00 00 00 00 00 00 00 00 00 12 |................|
|43 68 61 6F 73 20 53 74 61 6D 70 20 4C 69 63 6B |Chaos Stamp Lick|
|65 72 00 00 00 00 00 00 15 4C 69 63 6B 27 65 6D |er.......Lick'em|
|20 69 66 20 79 6F 75 20 67 6F 74 27 65 6D 01 01 | if you got'em..|
|00 00 03 06 00 00 00 00 00 00 00 00 00 00 00 00 |................|
|00 00 00 00 00 00 00 00 00 00 00                |...........     |
-------------------------------------------------------------------
[Server] packet : (0xBF) F_INIT_STORE  Size = 2027 
|------------------------------------------------|----------------|
|00 01 02 03 04 05 06 07 08 09 0A 0B 0C 0D 0E 0F |0123456789ABCDEF|
|------------------------------------------------|----------------|
|07 E8 BF 00 00 01 0C 00 01 03 00 03 00 00 00 7D |...............}|
|00 00 01 39 20 0F 27 00 00 00 00 00 00 00 00 1A |...9 .'.........|
|00 01 01 00 00 00 01 00 00 00 00 00 00 00 00 00 |................|
|00 00 00 00 32 00 01 00 01 00 00 00 00 00 00 00 |....2...........|
|00 00 00 00 00 0D 54 72 61 69 6E 20 57 68 69 73 |......Train Whis|
|74 6C 65 00 00 01 00 00 33 90 00 05 00 00 00 00 |tle.....3.......|
|00 0A 43 68 6F 6F 20 43 68 6F 6F 21 01 01 00 00 |..Choo Choo!....|
|03 06 00 00 00 00 00 00 00 00 00 00 00 00 00 00 |................|
|00 00 00 00 00 00 00 00 01 03 00 00 00 7D 00 00 |.............}..|
|01 39 24 14 14 00 00 00 00 00 00 00 00 1A 00 01 |.9$.............|
|01 00 00 00 01 00 00 00 00 00 00 00 00 00 00 00 |................|
|00 00 32 00 01 00 01 00 00 00 00 00 00 00 00 00 |..2.............|
|00 00 00 0E 53 69 78 20 53 69 64 65 64 20 44 69 |....Six Sided Di|
|63 65 00 00 01 00 00 33 90 00 05 00 00 00 00 00 |ce.....3........|
|19 54 68 65 73 65 20 64 69 63 65 20 61 72 65 20 |.These dice are |
|73 69 78 20 73 69 64 65 64 2E 01 01 00 00 03 06 |six sided.......|
|00 00 00 00 00 00 00 00 00 00 00 00 00 00 00 00 |................|
|00 00 00 00 00 00 02 03 00 00 00 7D 00 00 01 39 |...........}...9|
|26 01 D1 00 00 00 00 00 00 00 00 1A 00 01 01 00 |&...............|
|00 00 01 00 00 00 00 00 00 00 00 00 00 00 00 00 |................|
|32 00 01 00 01 00 00 00 00 00 00 00 00 00 00 00 |2...............|
|00 0E 52 75 6E 65 64 20 53 61 6E 64 77 69 63 68 |..Runed Sandwich|
|00 00 01 00 00 33 90 00 05 00 00 00 00 00 0C 4F |.....3.........O|
|69 20 6D 65 20 74 6F 6F 74 68 21 01 01 00 00 03 |i me tooth!.....|
|06 00 00 00 00 00 00 00 00 00 00 00 00 00 00 00 |................|
|00 00 00 00 00 00 00 03 03 00 00 00 7D 00 00 01 |............}...|
|39 28 01 7E 00 00 00 00 00 00 00 00 1A 00 01 01 |9(.~............|
|00 00 00 01 00 00 00 00 00 00 00 00 00 00 00 00 |................|
|00 32 00 01 00 01 00 00 00 00 00 00 00 00 00 00 |.2..............|
|00 00 08 48 61 69 72 20 47 65 6C 00 00 01 00 00 |...Hair Gel.....|
|33 90 00 05 00 00 00 00 00 22 46 6F 72 20 62 65 |3........"For be|
|73 74 20 72 65 73 75 6C 74 73 20 61 70 70 6C 79 |st results apply|
|20 74 77 69 63 65 20 64 61 69 6C 79 01 01 00 00 | twice daily....|
|03 06 00 00 00 00 00 00 00 00 00 00 00 00 00 00 |................|
|00 00 00 00 00 00 00 00 04 03 00 00 00 7D 00 00 |.............}..|
|01 39 2C 03 BD 00 00 00 00 00 00 00 00 1A 00 01 |.9,.............|
|01 00 00 00 01 00 00 00 00 00 00 00 00 00 00 00 |................|
|00 00 32 00 01 00 01 00 00 00 00 00 00 00 00 00 |..2.............|
|00 00 00 0C 50 72 61 79 65 72 20 42 65 61 64 73 |....Prayer Beads|
|00 00 01 00 00 33 90 00 05 00 00 00 00 00 47 54 |.....3........GT|
|68 65 20 62 65 61 64 73 20 61 70 70 65 61 72 20 |he beads appear |
|73 6D 6F 6F 74 68 20 66 72 6F 6D 20 6D 61 6E 79 |smooth from many|
|20 68 6F 75 72 73 20 6F 66 20 63 6F 6E 74 65 6D | hours of contem|
|70 6C 61 74 69 6F 6E 20 61 6E 64 20 6D 65 64 69 |plation and medi|
|74 61 74 69 6F 6E 01 01 00 00 03 06 00 00 00 00 |tation..........|
|00 00 00 00 00 00 00 00 00 00 00 00 00 00 00 00 |................|
|00 00 05 03 00 00 00 7D 00 00 01 39 2E 02 04 00 |.......}...9....|
|00 00 00 00 00 00 00 1A 00 01 01 00 00 00 01 00 |................|
|00 00 00 00 00 00 00 00 00 00 00 00 32 00 01 00 |............2...|
|01 00 00 00 00 00 00 00 00 00 00 00 00 0E 41 20 |..............A |
|42 72 6F 6B 65 6E 20 53 74 61 6B 65 00 00 01 00 |Broken Stake....|
|00 33 90 00 05 00 00 00 00 00 47 59 6F 75 20 77 |.3........GYou w|
|6F 6E 64 65 72 20 77 68 61 74 20 68 61 70 70 65 |onder what happe|
|6E 65 64 20 74 6F 20 74 68 65 20 57 69 74 63 68 |ned to the Witch|
|20 48 75 6E 74 65 72 20 77 68 6F 20 68 61 64 20 | Hunter who had |
|74 68 69 73 20 75 6E 6C 75 63 6B 79 20 73 74 61 |this unlucky sta|
|6B 65 01 01 00 00 03 06 00 00 00 00 00 00 00 00 |ke..............|
|00 00 00 00 00 00 00 00 00 00 00 00 00 00 06 03 |................|
|00 00 00 7D 00 00 01 39 34 01 94 00 00 00 00 00 |...}...94.......|
|00 00 00 1A 00 01 01 00 00 00 01 00 00 00 00 00 |................|
|00 00 00 00 00 00 00 00 32 00 01 00 01 00 00 00 |........2.......|
|00 00 00 00 00 00 00 00 00 0C 47 6C 6F 77 69 6E |..........Glowin|
|67 20 52 75 6E 65 00 00 01 00 00 33 90 00 05 00 |g Rune.....3....|
|00 00 00 00 42 49 74 27 73 20 6A 75 73 74 20 61 |....BIt's just a|
|20 72 75 6E 65 2C 20 69 74 20 67 6C 6F 77 73 2C | rune, it glows,|
|20 77 68 61 74 20 69 74 20 77 61 73 20 75 73 65 | what it was use|
|64 20 66 6F 72 20 69 73 20 61 6E 79 6F 6E 65 27 |d for is anyone'|
|73 20 67 75 65 73 73 01 01 00 00 03 06 00 00 00 |s guess.........|
|00 00 00 00 00 00 00 00 00 00 00 00 00 00 00 00 |................|
|00 00 00 07 03 00 00 00 7D 00 00 01 39 36 0F 31 |........}...96.1|
|00 00 00 00 00 00 00 00 1A 00 01 01 00 00 00 01 |................|
|00 00 00 00 00 00 00 00 00 00 00 00 00 32 00 01 |.............2..|
|00 01 00 00 00 00 00 00 00 00 00 00 00 00 08 48 |...............H|
|61 69 72 62 61 6C 6C 00 00 01 00 00 33 90 00 05 |airball.....3...|
|00 00 00 00 00 35 57 65 74 20 61 6E 64 20 73 71 |.....5Wet and sq|
|75 69 73 68 79 2C 20 74 68 69 73 20 63 61 6D 65 |uishy, this came|
|20 66 72 6F 6D 20 61 20 63 61 70 74 75 72 65 64 | from a captured|
|20 57 68 69 74 65 20 4C 69 6F 6E 01 01 00 00 03 | White Lion.....|
|06 00 00 00 00 00 00 00 00 00 00 00 00 00 00 00 |................|
|00 00 00 00 00 00 00 08 03 00 00 00 7D 00 00 01 |............}...|
|39 38 01 96 00 00 00 00 00 00 00 00 1A 00 01 01 |98..............|
|00 00 00 01 00 00 00 00 00 00 00 00 00 00 00 00 |................|
|00 32 00 01 00 01 00 00 00 00 00 00 00 00 00 00 |.2..............|
|00 00 1C 53 69 6D 70 6C 65 74 6F 6E 27 73 20 47 |...Simpleton's G|
|75 69 64 65 20 74 6F 20 53 69 6C 65 6E 63 65 00 |uide to Silence.|
|00 01 00 00 33 90 00 05 00 00 00 00 00 1C 41 6C |....3.........Al|
|6C 20 69 74 20 73 61 79 73 20 69 73 20 27 53 73 |l it says is 'Ss|
|73 73 68 68 68 68 68 68 2E 27 01 01 00 00 03 06 |sshhhhhh.'......|
|00 00 00 00 00 00 00 00 00 00 00 00 00 00 00 00 |................|
|00 00 00 00 00 00 09 03 00 00 00 7D 00 00 01 39 |...........}...9|
|3A 0F 26 00 00 00 00 00 00 00 00 1A 00 01 01 00 |:.&.............|
|00 00 01 00 00 00 00 00 00 00 00 00 00 00 00 00 |................|
|32 00 01 00 01 00 00 00 00 00 00 00 00 00 00 00 |2...............|
|00 0A 50 6F 6C 69 73 68 20 4B 69 74 00 00 01 00 |..Polish Kit....|
|00 33 90 00 05 00 00 00 00 00 40 50 72 69 7A 65 |.3........@Prize|
|64 20 62 79 20 53 77 6F 72 64 6D 61 73 74 65 72 |d by Swordmaster|
|73 2C 20 74 68 69 73 20 6B 69 74 20 68 65 6C 70 |s, this kit help|
|73 20 6B 65 65 70 20 61 20 73 77 6F 72 64 20 69 |s keep a sword i|
|6E 20 74 6F 70 20 73 68 61 70 65 01 01 00 00 03 |n top shape.....|
|06 00 00 00 00 00 00 00 00 00 00 00 00 00 00 00 |................|
|00 00 00 00 00 00 00 0A 03 00 00 00 7D 00 00 01 |............}...|
|39 22 01 84 00 00 00 00 00 00 00 00 1A 00 01 01 |9"..............|
|00 00 00 01 00 00 00 00 00 00 00 00 00 00 00 00 |................|
|00 32 00 01 00 01 00 00 00 00 00 00 00 00 00 00 |.2..............|
|00 00 0F 44 69 73 63 61 72 64 65 64 20 4C 6F 63 |...Discarded Loc|
|6B 73 00 00 01 00 00 33 90 00 05 00 00 00 00 00 |ks.....3........|
|57 41 20 68 61 6E 64 66 75 6C 20 6F 66 20 64 69 |WA handful of di|
|73 63 61 72 64 65 64 20 44 77 61 72 76 65 6E 20 |scarded Dwarven |
|68 61 69 72 20 74 69 65 64 20 69 6E 20 6C 6F 63 |hair tied in loc|
|6B 73 2E 20 49 74 20 6D 69 67 68 74 20 62 65 20 |ks. It might be |
|67 6F 6F 64 20 66 6F 72 20 73 77 61 74 74 69 6E |good for swattin|
|67 20 66 6C 69 65 73 2E 01 01 00 00 03 06 00 00 |g flies.........|
|00 00 00 00 00 00 00 00 00 00 00 00 00 00 00 00 |................|
|00 00 00 00 0B 03 00 00 00 7D 00 00 01 39 2A 0F |.........}...9*.|
|C4 00 00 00 00 00 00 00 00 1A 00 01 01 00 00 00 |................|
|01 00 00 00 00 00 00 00 00 00 00 00 00 00 32 00 |..............2.|
|01 00 01 00 00 00 00 00 00 00 00 00 00 00 00 14 |................|
|53 74 61 69 6E 65 64 20 47 6C 61 73 73 20 53 68 |Stained Glass Sh|
|61 72 64 73 00 00 01 00 00 33 90 00 05 00 00 00 |ards.....3......|
|00 00 5B 53 74 61 69 6E 65 64 20 67 6C 61 73 73 |..[Stained glass|
|20 66 72 6F 6D 20 74 68 65 20 74 65 6D 70 6C 65 | from the temple|
|20 69 6E 20 4D 61 67 72 69 74 74 61 20 77 68 65 | in Magritta whe|
|72 65 20 74 68 65 20 4D 79 72 6D 69 64 69 61 20 |re the Myrmidia |
|6B 69 6C 6C 65 64 20 74 68 65 20 69 6E 76 61 64 |killed the invad|
|65 72 73 20 66 72 6F 6D 20 41 72 61 62 79 01 01 |ers from Araby..|
|00 00 03 06 00 00 00 00 00 00 00 00 00 00 00 00 |................|
|00 00 00 00 00 00 00 00 00 00 00                |...........     |
-------------------------------------------------------------------
[Server] packet : (0xBF) F_INIT_STORE  Size = 3524 
|------------------------------------------------|----------------|
|00 01 02 03 04 05 06 07 08 09 0A 0B 0C 0D 0E 0F |0123456789ABCDEF|
|------------------------------------------------|----------------|
|0D C1 BF 00 00 02 17 00 01 03 00 02 00 00 0D 02 |................|
|00 00 09 C4 64 03 C4 00 00 00 00 00 00 00 00 1F |....d...........|
|23 23 25 00 00 01 02 00 00 00 00 00 00 00 00 00 |##%.............|
|00 00 00 05 34 00 01 00 01 00 00 0F 3C 00 00 00 |....4.......<...|
|00 00 00 00 00 08 43 79 74 68 65 72 69 6C 05 0F |......Cytheril..|
|00 4A 00 00 00 00 00 0E 00 3D 00 00 00 00 00 10 |.J.......=......|
|00 33 00 00 00 00 00 06 00 11 00 00 00 00 00 04 |.3..............|
|00 11 00 00 00 00 00 00 00 00 00 00 00 01 01 00 |................|
|00 03 06 02 00 00 00 00 00 00 00 00 00 00 00 00 |................|
|00 00 00 00 00 00 00 00 00 01 02 00 00 0D 02 00 |................|
|00 09 C4 65 03 C8 00 00 00 00 00 00 00 00 1F 23 |...e...........#|
|23 25 00 00 01 02 00 00 00 00 00 00 00 00 00 00 |#%..............|
|00 00 05 34 00 01 00 01 00 00 0F 3C 00 00 00 00 |...4.......<....|
|00 00 00 00 08 46 6F 73 65 72 61 69 6E 05 0F 00 |.....Foserain...|
|3D 00 00 00 00 00 0E 00 33 00 00 00 00 00 10 00 |=.......3.......|
|4A 00 00 00 00 00 07 00 11 00 00 00 00 00 05 00 |J...............|
|11 00 00 00 00 00 00 00 00 00 00 00 01 01 00 00 |................|
|03 06 02 00 00 00 00 00 00 00 00 00 00 00 00 00 |................|
|00 00 00 00 00 00 00 00 02 02 00 00 0D 02 00 00 |................|
|09 C4 66 02 2C 00 00 00 00 00 00 00 00 1F 23 23 |..f.,.........##|
|25 00 00 01 02 00 00 00 00 00 00 00 00 00 00 00 |%...............|
|00 05 34 00 01 00 01 00 00 0F 3D 00 00 00 00 00 |..4.......=.....|
|00 00 00 11 54 68 65 20 53 65 65 70 69 6E 67 20 |....The Seeping |
|4C 61 72 76 61 05 0F 00 4D 00 00 00 00 00 0E 00 |Larva...M.......|
|43 00 00 00 00 00 10 00 4F 00 00 00 00 00 04 00 |C.......O.......|
|0F 00 00 00 00 00 06 00 0F 00 00 00 00 00 00 00 |................|
|00 00 00 00 01 01 00 00 03 06 02 00 00 00 00 00 |................|
|00 00 00 00 00 00 00 00 00 00 00 00 00 00 00 00 |................|
|03 02 00 00 0D 02 00 00 09 C4 67 15 BC 00 00 00 |..........g.....|
|00 00 00 00 00 1F 23 23 25 00 00 01 02 00 00 00 |......##%.......|
|00 00 00 00 00 00 00 00 00 05 34 00 01 00 01 00 |..........4.....|
|00 0F 3D 00 00 00 00 00 00 00 00 11 57 72 69 74 |..=.........Writ|
|68 69 6E 67 20 53 68 61 63 6B 6C 65 73 05 0F 00 |hing Shackles...|
|4F 00 00 00 00 00 0E 00 4D 00 00 00 00 00 10 00 |O.......M.......|
|43 00 00 00 00 00 05 00 0F 00 00 00 00 00 07 00 |C...............|
|0F 00 00 00 00 00 00 00 00 00 00 00 01 01 00 00 |................|
|03 06 02 00 00 00 00 00 00 00 00 00 00 00 00 00 |................|
|00 00 00 00 00 00 00 00 04 02 00 00 0D 02 00 00 |................|
|09 C4 68 11 A8 00 00 00 00 00 00 00 00 1F 23 23 |..h...........##|
|25 00 00 01 02 00 00 00 00 00 00 00 00 00 00 00 |%...............|
|00 05 34 00 01 00 01 00 00 0F 3D 00 00 00 00 00 |..4.......=.....|
|00 00 00 0A 46 61 74 65 64 20 56 65 69 6C 05 0F |....Fated Veil..|
|00 43 00 00 00 00 00 0E 00 4F 00 00 00 00 00 10 |.C.......O......|
|00 4D 00 00 00 00 00 06 00 0F 00 00 00 00 00 04 |.M..............|
|00 0F 00 00 00 00 00 00 00 00 00 00 00 01 01 00 |................|
|00 03 06 02 00 00 00 00 00 00 00 00 00 00 00 00 |................|
|00 00 00 00 00 00 00 00 00 05 02 00 00 0D 02 00 |................|
|00 09 C4 69 0F 7D 00 00 00 00 00 00 00 00 1F 23 |...i.}.........#|
|23 25 00 00 01 02 00 00 00 00 00 00 00 00 00 00 |#%..............|
|00 00 05 34 00 01 00 01 00 00 0F 3D 00 00 00 00 |...4.......=....|
|00 00 00 00 11 42 6C 6F 6F 64 69 65 64 20 46 72 |.....Bloodied Fr|
|61 63 74 75 72 65 05 0F 00 48 00 00 00 00 00 0E |acture...H......|
|00 4C 00 00 00 00 00 10 00 48 00 00 00 00 00 07 |.L.......H......|
|00 0F 00 00 00 00 00 05 00 0F 00 00 00 00 00 00 |................|
|00 00 00 00 00 01 01 00 00 03 06 02 00 00 00 00 |................|
|00 00 00 00 00 00 00 00 00 00 00 00 00 00 00 00 |................|
|00 06 02 00 00 0D 02 00 00 09 C4 6A 01 A0 00 00 |...........j....|
|00 00 00 00 00 00 1F 23 23 25 00 00 01 02 00 00 |.......##%......|
|00 00 00 00 00 00 00 00 00 00 05 34 00 01 00 01 |...........4....|
|00 00 0F 3E 00 00 00 00 00 00 00 00 10 48 61 70 |...>.........Hap|
|6C 65 73 73 20 48 61 27 70 65 6E 6E 79 06 0F 00 |less Ha'penny...|
|39 00 00 00 00 00 0E 00 2E 00 00 00 00 00 10 00 |9...............|
|2E 00 00 00 00 00 04 00 11 00 00 00 00 00 06 00 |................|
|08 00 00 00 00 00 1D 00 02 00 00 00 00 00 00 00 |................|
|00 00 00 00 01 01 00 00 03 06 02 00 00 00 00 00 |................|
|00 00 00 00 00 00 00 00 00 00 00 00 00 00 00 00 |................|
|07 02 00 00 0D 02 00 00 09 C4 6B 0F 17 00 00 00 |..........k.....|
|00 00 00 00 00 1F 23 23 25 00 00 01 02 00 00 00 |......##%.......|
|00 00 00 00 00 00 00 00 00 05 34 00 01 00 01 00 |..........4.....|
|00 0F 3E 00 00 00 00 00 00 00 00 09 47 6F 72 6B |..>.........Gork|
|61 6D 6F 72 6B 06 0F 00 2E 00 00 00 00 00 0E 00 |amork...........|
|2E 00 00 00 00 00 10 00 39 00 00 00 00 00 05 00 |........9.......|
|11 00 00 00 00 00 07 00 08 00 00 00 00 00 1E 00 |................|
|02 00 00 00 00 00 00 00 00 00 00 00 01 01 00 00 |................|
|03 06 02 00 00 00 00 00 00 00 00 00 00 00 00 00 |................|
|00 00 00 00 00 00 00 00 08 02 00 00 0D 02 00 00 |................|
|09 C4 6C 06 1A 00 00 00 00 00 00 00 00 1F 23 23 |..l...........##|
|25 00 00 01 02 00 00 00 00 00 00 00 00 00 00 00 |%...............|
|00 05 34 00 01 00 01 00 00 0F 3E 00 00 00 00 00 |..4.......>.....|
|00 00 00 0E 57 69 6E 64 20 6F 66 20 43 68 61 6E |....Wind of Chan|
|67 65 06 0F 00 2E 00 00 00 00 00 0E 00 39 00 00 |ge...........9..|
|00 00 00 10 00 2E 00 00 00 00 00 06 00 11 00 00 |................|
|00 00 00 04 00 08 00 00 00 00 00 1F 00 02 00 00 |................|
|00 00 00 00 00 00 00 00 00 01 01 00 00 03 06 02 |................|
|00 00 00 00 00 00 00 00 00 00 00 00 00 00 00 00 |................|
|00 00 00 00 00 09 02 00 00 0D 02 00 00 09 C4 6D |...............m|
|01 E8 00 00 00 00 00 00 00 00 1F 23 23 25 00 00 |...........##%..|
|01 02 00 00 00 00 00 00 00 00 00 00 00 00 05 34 |...............4|
|00 01 00 01 00 00 0F 3E 00 00 00 00 00 00 00 00 |.......>........|
|16 46 75 6C 6C 62 65 6C 6C 79 27 73 20 4C 75 63 |.Fullbelly's Luc|
|6B 79 20 46 6F 6F 74 06 0F 00 32 00 00 00 00 00 |ky Foot...2.....|
|0E 00 32 00 00 00 00 00 10 00 32 00 00 00 00 00 |..2.......2.....|
|07 00 11 00 00 00 00 00 05 00 08 00 00 00 00 00 |................|
|53 00 02 00 00 00 00 00 00 00 00 00 00 00 01 01 |S...............|
|00 00 03 06 02 00 00 00 00 00 00 00 00 00 00 00 |................|
|00 00 00 00 00 00 00 00 00 00 0A 02 00 00 0D 02 |................|
|00 00 09 C4 6E 01 D7 00 00 00 00 00 00 00 00 1F |....n...........|
|23 23 25 00 00 01 02 00 00 00 00 00 00 00 00 00 |##%.............|
|00 00 00 05 34 00 01 00 01 00 00 0F 3F 00 00 00 |....4.......?...|
|00 00 00 00 00 11 43 72 6F 77 20 43 61 6C 6C 65 |......Crow Calle|
|72 20 43 68 61 69 6E 05 0F 00 59 00 00 00 00 00 |r Chain...Y.....|
|0E 00 68 00 00 00 00 00 10 00 B2 00 00 00 00 00 |..h.............|
|07 00 0C 00 00 00 00 00 04 00 04 00 00 00 00 00 |................|
|00 00 00 00 00 00 01 01 00 00 03 06 02 00 00 00 |................|
|00 00 00 00 00 00 00 00 00 00 00 00 00 00 00 00 |................|
|00 00 0B 02 00 00 0D 02 00 00 09 C4 6F 01 C5 00 |............o...|
|00 00 00 00 00 00 00 1F 23 23 25 00 00 01 02 00 |........##%.....|
|00 00 00 00 00 00 00 00 00 00 00 05 34 00 01 00 |............4...|
|01 00 00 0F 3F 00 00 00 00 00 00 00 00 11 54 68 |....?.........Th|
|65 20 4F 62 64 75 72 61 74 65 20 53 65 61 6C 05 |e Obdurate Seal.|
|0F 00 B2 00 00 00 00 00 0E 00 59 00 00 00 00 00 |..........Y.....|
|10 00 68 00 00 00 00 00 05 00 0C 00 00 00 00 00 |..h.............|
|04 00 04 00 00 00 00 00 00 00 00 00 00 00 01 01 |................|
|00 00 03 06 02 00 00 00 00 00 00 00 00 00 00 00 |................|
|00 00 00 00 00 00 00 00 00 00 0C 03 00 00 0D 02 |................|
|00 00 09 C4 70 03 C7 00 00 00 00 00 00 00 00 1F |....p...........|
|23 23 25 00 00 01 02 00 00 00 00 00 00 00 00 00 |##%.............|
|00 00 00 05 34 00 01 00 01 00 00 0F 3F 00 00 00 |....4.......?...|
|00 00 00 00 00 10 57 6F 72 64 62 72 65 61 6B 65 |......Wordbreake|
|72 20 42 61 6E 64 05 0F 00 68 00 00 00 00 00 0E |r Band...h......|
|00 B2 00 00 00 00 00 10 00 59 00 00 00 00 00 06 |.........Y......|
|00 0C 00 00 00 00 00 04 00 04 00 00 00 00 00 00 |................|
|00 00 00 00 00 01 01 00 00 03 06 02 00 00 00 00 |................|
|00 00 00 00 00 00 00 00 00 00 00 00 00 00 00 00 |................|
|00 0D 02 00 00 0D 02 00 00 09 C4 71 01 95 00 00 |...........q....|
|00 00 00 00 00 00 1F 23 23 25 00 00 01 02 00 00 |.......##%......|
|00 00 00 00 00 00 00 00 00 00 05 34 00 01 00 01 |...........4....|
|00 00 0F 40 00 00 00 00 00 00 00 00 1A 4F 61 74 |...@.........Oat|
|68 73 74 6F 6E 65 20 6F 66 20 4B 61 72 61 7A 2D |hstone of Karaz-|
|61 2D 4B 61 72 61 6B 06 0F 00 29 00 00 00 00 00 |a-Karak...).....|
|0E 00 2F 00 00 00 00 00 10 00 3D 00 00 00 00 00 |../.......=.....|
|07 00 11 00 00 00 00 00 1E 00 02 00 00 00 00 00 |................|
|04 00 04 00 00 00 00 00 00 00 00 00 00 00 01 01 |................|
|00 00 03 06 02 00 00 00 00 00 00 00 00 00 00 00 |................|
|00 00 00 00 00 00 00 00 00 00 0E 02 00 00 0D 02 |................|
|00 00 09 C4 72 10 03 00 00 00 00 00 00 00 00 1F |....r...........|
|23 23 25 00 00 01 02 00 00 00 00 00 00 00 00 00 |##%.............|
|00 00 00 05 34 00 01 00 01 00 00 0F 40 00 00 00 |....4.......@...|
|00 00 00 00 00 1E 4F 61 74 68 73 74 6F 6E 65 20 |......Oathstone |
|6F 66 20 4B 61 72 61 6B 20 45 69 67 68 74 20 50 |of Karak Eight P|
|65 61 6B 73 06 0F 00 3D 00 00 00 00 00 0E 00 29 |eaks...=.......)|
|00 00 00 00 00 10 00 2F 00 00 00 00 00 06 00 11 |......./........|
|00 00 00 00 00 1E 00 02 00 00 00 00 00 05 00 04 |................|
|00 00 00 00 00 00 00 00 00 00 00 01 01 00 00 03 |................|
|06 02 00 00 00 00 00 00 00 00 00 00 00 00 00 00 |................|
|00 00 00 00 00 00 00 0F 02 00 00 0D 02 00 00 09 |................|
|C4 73 0F 13 00 00 00 00 00 00 00 00 1F 23 23 25 |.s...........##%|
|00 00 01 02 00 00 00 00 00 00 00 00 00 00 00 00 |................|
|05 34 00 01 00 01 00 00 0F 41 00 00 00 00 00 00 |.4.......A......|
|00 00 14 54 68 65 20 41 73 63 65 6E 64 61 6E 74 |...The Ascendant|
|20 56 65 72 73 65 73 06 0F 00 30 00 00 00 00 00 | Verses...0.....|
|0E 00 3D 00 00 00 00 00 10 00 28 00 00 00 00 00 |..=.......(.....|
|04 00 11 00 00 00 00 00 1F 00 02 00 00 00 00 00 |................|
|07 00 04 00 00 00 00 00 00 00 00 00 00 00 01 01 |................|
|00 00 03 06 02 00 00 00 00 00 00 00 00 00 00 00 |................|
|00 00 00 00 00 00 00 00 00 00 10 02 00 00 0D 02 |................|
|00 00 09 C4 74 0F 7E 00 00 00 00 00 00 00 00 1F |....t.~.........|
|23 23 25 00 00 01 02 00 00 00 00 00 00 00 00 00 |##%.............|
|00 00 00 05 34 00 01 00 01 00 00 0F 41 00 00 00 |....4.......A...|
|00 00 00 00 00 0E 54 68 65 20 44 65 65 70 20 4F |......The Deep O|
|61 74 68 73 06 0F 00 28 00 00 00 00 00 0E 00 3D |aths...(.......=|
|00 00 00 00 00 10 00 30 00 00 00 00 00 05 00 11 |.......0........|
|00 00 00 00 00 1F 00 02 00 00 00 00 00 06 00 04 |................|
|00 00 00 00 00 00 00 00 00 00 00 01 01 00 00 03 |................|
|06 02 00 00 00 00 00 00 00 00 00 00 00 00 00 00 |................|
|00 00 00 00 00 00 00 11 02 00 00 0D 02 00 00 09 |................|
|C4 75 03 11 00 00 00 00 00 00 00 00 1F 23 23 25 |.u...........##%|
|00 00 01 02 00 00 00 00 00 00 00 00 00 00 00 00 |................|
|05 34 00 01 00 01 00 00 0F 42 00 00 00 00 00 00 |.4.......B......|
|00 00 0A 42 6C 61 63 6B 20 54 6F 6F 66 05 0F 00 |...Black Toof...|
|40 00 00 00 00 00 0E 00 2C 00 00 00 00 00 10 00 |@.......,.......|
|4E 00 00 00 00 00 06 00 11 00 00 00 00 00 05 00 |N...............|
|11 00 00 00 00 00 00 00 00 00 00 00 01 01 00 00 |................|
|03 06 02 00 00 00 00 00 00 00 00 00 00 00 00 00 |................|
|00 00 00 00 00 00 00 00 12 02 00 00 0D 02 00 00 |................|
|09 C4 76 01 77 00 00 00 00 00 00 00 00 1F 23 23 |..v.w.........##|
|25 00 00 01 02 00 00 00 00 00 00 00 00 00 00 00 |%...............|
|00 05 34 00 01 00 01 00 00 0F 42 00 00 00 00 00 |..4.......B.....|
|00 00 00 08 4F 6E 65 20 54 75 73 6B 05 0F 00 21 |....One Tusk...!|
|00 00 00 00 00 0E 00 5D 00 00 00 00 00 10 00 3C |.......].......<|
|00 00 00 00 00 07 00 11 00 00 00 00 00 04 00 11 |................|
|00 00 00 00 00 00 00 00 00 00 00 01 01 00 00 03 |................|
|06 02 00 00 00 00 00 00 00 00 00 00 00 00 00 00 |................|
|00 00 00 00 00 00 00 13 02 00 00 0D 02 00 00 09 |................|
|C4 77 01 6B 00 00 00 00 00 00 00 00 1F 23 23 25 |.w.k.........##%|
|00 00 01 02 00 00 00 00 00 00 00 00 00 00 00 00 |................|
|05 34 00 01 00 01 00 00 0F 42 00 00 00 00 00 00 |.4.......B......|
|00 00 0A 42 72 6F 6B 65 20 54 6F 6F 66 05 0F 00 |...Broke Toof...|
|59 00 00 00 00 00 0E 00 21 00 00 00 00 00 10 00 |Y.......!.......|
|40 00 00 00 00 00 04 00 11 00 00 00 00 00 06 00 |@...............|
|11 00 00 00 00 00 00 00 00 00 00 00 01 01 00 00 |................|
|03 06 02 00 00 00 00 00 00 00 00 00 00 00 00 00 |................|
|00 00 00 00 00 00 00 00 14 02 00 00 0D 02 00 00 |................|
|09 C4 78 01 C7 00 00 00 00 00 00 00 00 1F 23 23 |..x...........##|
|25 00 00 01 02 00 00 00 00 00 00 00 00 00 00 00 |%...............|
|00 05 34 00 01 00 01 00 00 0F 42 00 00 00 00 00 |..4.......B.....|
|00 00 00 09 4D 6F 6F 6E 20 46 61 6E 67 05 0F 00 |....Moon Fang...|
|39 00 00 00 00 00 0E 00 41 00 00 00 00 00 10 00 |9.......A.......|
|41 00 00 00 00 00 05 00 11 00 00 00 00 00 07 00 |A...............|
|11 00 00 00 00 00 00 00 00 00 00 00 01 01 00 00 |................|
|03 06 02 00 00 00 00 00 00 00 00 00 00 00 00 00 |................|
|00 00 00 00 00 00 00 00 15 02 00 00 0D 02 00 00 |................|
|09 C4 79 0F 2C 00 00 00 00 00 00 00 00 1F 23 23 |..y.,.........##|
|25 00 00 01 02 00 00 00 00 00 00 00 00 00 00 00 |%...............|
|00 05 34 00 01 00 01 00 00 0F 43 00 00 00 00 00 |..4.......C.....|
|00 00 00 06 53 74 72 69 66 65 06 0F 00 62 00 00 |....Strife...b..|
|00 00 00 0E 00 17 00 00 00 00 00 10 00 1C 00 00 |................|
|00 00 00 04 00 0C 00 00 00 00 00 1D 00 02 00 00 |................|
|00 00 00 05 00 0A 00 00 00 00 00 00 00 00 00 00 |................|
|00 01 01 00 00 03 06 02 00 00 00 00 00 00 00 00 |................|
|00 00 00 00 00 00 00 00 00 00 00 00 00 16 02 00 |................|
|00 0D 02 00 00 09 C4 7A 0F 2F 00 00 00 00 00 00 |.......z./......|
|00 00 1F 23 23 25 00 00 01 02 00 00 00 00 00 00 |...##%..........|
|00 00 00 00 00 00 05 34 00 01 00 01 00 00 0F 43 |.......4.......C|
|00 00 00 00 00 00 00 00 07 54 6F 72 6D 65 6E 74 |.........Torment|
|06 0F 00 1C 00 00 00 00 00 0E 00 62 00 00 00 00 |...........b....|
|00 10 00 17 00 00 00 00 00 06 00 0C 00 00 00 00 |................|
|00 1D 00 02 00 00 00 00 00 07 00 0A 00 00 00 00 |................|
|00 00 00 00 00 00 00 01 01 00 00 03 06 02 00 00 |................|
|00 00 00 00 00 00 00 00 00 00 00 00 00 00 00 00 |................|
|00 00 00 00                                     |....            |
-------------------------------------------------------------------
[Client] packet : (0xC8) F_INTERFACE_COMMAND  Size = 18 
|------------------------------------------------|----------------|
|00 01 02 03 04 05 06 07 08 09 0A 0B 0C 0D 0E 0F |0123456789ABCDEF|
|------------------------------------------------|----------------|
|00 06 04 92 00 2B FF FF 00 C8 05 00 0F 3C 00 00 |.....+.......<..|
|00 00                                           |..              |
-------------------------------------------------------------------
[Client] packet : (0xC8) F_INTERFACE_COMMAND  Size = 18 
|------------------------------------------------|----------------|
|00 01 02 03 04 05 06 07 08 09 0A 0B 0C 0D 0E 0F |0123456789ABCDEF|
|------------------------------------------------|----------------|
|00 06 04 93 00 2B FF FF 00 C8 05 00 0F 3D 00 00 |.....+.......=..|
|07 15                                           |..              |
-------------------------------------------------------------------
[Client] packet : (0xC8) F_INTERFACE_COMMAND  Size = 18 
|------------------------------------------------|----------------|
|00 01 02 03 04 05 06 07 08 09 0A 0B 0C 0D 0E 0F |0123456789ABCDEF|
|------------------------------------------------|----------------|
|00 06 04 94 00 2B FF FF 00 C8 05 00 0F 3E 00 00 |.....+.......>..|
|5F 53                                           |..              |
-------------------------------------------------------------------
[Client] packet : (0xC8) F_INTERFACE_COMMAND  Size = 18 
|------------------------------------------------|----------------|
|00 01 02 03 04 05 06 07 08 09 0A 0B 0C 0D 0E 0F |0123456789ABCDEF|
|------------------------------------------------|----------------|
|00 06 04 95 00 2B FF FF 00 C8 05 00 0F 3F 00 00 |.....+.......?..|
|2F A8                                           |..              |
-------------------------------------------------------------------
[Client] packet : (0xC8) F_INTERFACE_COMMAND  Size = 18 
|------------------------------------------------|----------------|
|00 01 02 03 04 05 06 07 08 09 0A 0B 0C 0D 0E 0F |0123456789ABCDEF|
|------------------------------------------------|----------------|
|00 06 04 96 00 2B FF FF 00 C8 05 00 0F 40 00 00 |.....+.......@..|
|71 18                                           |..              |
-------------------------------------------------------------------
[Client] packet : (0xC8) F_INTERFACE_COMMAND  Size = 18 
|------------------------------------------------|----------------|
|00 01 02 03 04 05 06 07 08 09 0A 0B 0C 0D 0E 0F |0123456789ABCDEF|
|------------------------------------------------|----------------|
|00 06 04 97 00 2B FF FF 00 C8 05 00 0F 41 00 00 |.....+.......A..|
|9E 4C                                           |..              |
-------------------------------------------------------------------
[Client] packet : (0xC8) F_INTERFACE_COMMAND  Size = 18 
|------------------------------------------------|----------------|
|00 01 02 03 04 05 06 07 08 09 0A 0B 0C 0D 0E 0F |0123456789ABCDEF|
|------------------------------------------------|----------------|
|00 06 04 98 00 2B FF FF 00 C8 05 00 0F 42 00 00 |.....+.......B..|
|1C D2                                           |..              |
-------------------------------------------------------------------
[Client] packet : (0xC8) F_INTERFACE_COMMAND  Size = 18 
|------------------------------------------------|----------------|
|00 01 02 03 04 05 06 07 08 09 0A 0B 0C 0D 0E 0F |0123456789ABCDEF|
|------------------------------------------------|----------------|
|00 06 04 99 00 2B FF FF 00 C8 05 00 0F 43 00 00 |.....+.......C..|
|82 33                                           |..              |
-------------------------------------------------------------------
[Server] packet : (0xBF) F_INIT_STORE  Size = 4311 
|------------------------------------------------|----------------|
|00 01 02 03 04 05 06 07 08 09 0A 0B 0C 0D 0E 0F |0123456789ABCDEF|
|------------------------------------------------|----------------|
|10 D4 BF 00 00 03 1A 00 01 03 00 02 00 00 00 7D |...............}|
|00 00 01 38 E8 01 E8 00 00 00 00 00 00 00 00 1A |...8............|
|00 01 01 00 00 00 01 00 00 00 00 00 00 00 00 00 |................|
|00 00 00 00 32 00 01 00 01 00 00 00 00 00 00 00 |....2...........|
|00 00 00 00 00 10 53 65 6D 69 2D 4C 75 63 6B 79 |......Semi-Lucky|
|20 43 68 61 72 6D 00 00 01 00 00 33 90 00 05 00 | Charm.....3....|
|00 00 00 00 41 49 74 20 6D 75 73 74 20 6E 6F 74 |....AIt must not|
|20 68 61 76 65 20 62 65 65 6E 20 74 68 61 74 20 | have been that |
|6C 75 63 6B 79 20 69 66 20 74 68 65 20 6C 61 73 |lucky if the las|
|74 20 6F 77 6E 65 72 20 70 61 72 74 65 64 20 77 |t owner parted w|
|69 74 68 20 69 74 01 01 00 00 03 06 00 00 00 00 |ith it..........|
|00 00 00 00 00 00 00 00 00 00 00 00 00 00 00 00 |................|
|00 00 01 02 00 00 00 7D 00 00 01 38 E9 01 9C 00 |.......}...8....|
|00 00 00 00 00 00 00 1A 00 01 01 00 00 00 01 00 |................|
|00 00 00 00 00 00 00 00 00 00 00 00 32 00 01 00 |............2...|
|01 00 00 00 00 00 00 00 00 00 00 00 00 13 41 20 |..............A |
|54 72 6F 6C 6C 27 73 20 50 65 74 20 4B 69 74 74 |Troll's Pet Kitt|
|79 00 00 01 00 00 33 90 00 05 00 00 00 00 00 2F |y.....3......../|
|41 20 63 61 74 20 73 6B 65 6C 65 74 6F 6E 20 74 |A cat skeleton t|
|68 61 74 20 77 61 73 20 74 68 65 20 66 6F 6E 64 |hat was the fond|
|20 70 65 74 20 6F 66 20 61 20 74 72 6F 6C 6C 01 | pet of a troll.|
|01 00 00 03 06 00 00 00 00 00 00 00 00 00 00 00 |................|
|00 00 00 00 00 00 00 00 00 00 00 02 02 00 00 00 |................|
|7D 00 00 01 38 EA 0F 5B 00 00 00 00 00 00 00 00 |}...8..[........|
|1A 00 01 01 00 00 00 01 00 00 00 00 00 00 00 00 |................|
|00 00 00 00 00 32 00 01 00 01 00 00 00 00 00 00 |.....2..........|
|00 00 00 00 00 00 1F 43 75 72 73 65 73 2C 20 48 |.......Curses, H|
|65 78 65 73 2C 20 43 61 6E 74 72 69 70 73 20 61 |exes, Cantrips a|
|6E 64 20 59 6F 75 00 00 01 00 00 33 90 00 05 00 |nd You.....3....|
|00 00 00 00 27 45 76 65 72 79 20 70 72 6F 66 65 |....'Every profe|
|73 73 69 6F 6E 20 68 61 73 20 74 6F 20 73 74 61 |ssion has to sta|
|72 74 20 73 6F 6D 65 77 68 65 72 65 01 01 00 00 |rt somewhere....|
|03 06 00 00 00 00 00 00 00 00 00 00 00 00 00 00 |................|
|00 00 00 00 00 00 00 00 03 02 00 00 00 7D 00 00 |.............}..|
|01 38 EB 0F 29 00 00 00 00 00 00 00 00 1A 00 01 |.8..)...........|
|01 00 00 00 01 00 00 00 00 00 00 00 00 00 00 00 |................|
|00 00 32 00 01 00 01 00 00 00 00 00 00 00 00 00 |..2.............|
|00 00 00 10 4D 6F 6C 64 79 20 43 6F 69 6E 20 50 |....Moldy Coin P|
|75 72 73 65 00 00 01 00 00 33 90 00 05 00 00 00 |urse.....3......|
|00 00 2E 41 6E 20 61 6E 69 6D 61 6C 20 66 75 72 |...An animal fur|
|20 63 6F 69 6E 20 70 75 72 73 65 2C 20 6E 6F 77 | coin purse, now|
|20 73 6F 69 6C 65 64 20 61 6E 64 20 6D 6F 6C 64 | soiled and mold|
|79 01 01 00 00 03 06 00 00 00 00 00 00 00 00 00 |y...............|
|00 00 00 00 00 00 00 00 00 00 00 00 00 04 02 00 |................|
|00 00 7D 00 00 01 38 EC 03 B8 00 00 00 00 00 00 |..}...8.........|
|00 00 1A 00 01 01 00 00 00 01 00 00 00 00 00 00 |................|
|00 00 00 00 00 00 00 32 00 01 00 01 00 00 00 00 |.......2........|
|00 00 00 00 00 00 00 00 14 53 71 75 69 67 20 54 |.........Squig T|
|65 65 74 68 20 4E 65 63 6B 6C 61 63 65 00 00 01 |eeth Necklace...|
|00 00 33 90 00 05 00 00 00 00 00 3A 41 20 68 61 |..3........:A ha|
|73 74 69 6C 79 20 66 61 73 68 69 6F 6E 65 64 20 |stily fashioned |
|6E 65 63 6B 6C 61 63 65 20 6D 61 64 65 20 66 72 |necklace made fr|
|6F 6D 20 74 68 65 20 74 65 65 74 68 20 6F 66 20 |om the teeth of |
|53 71 75 69 67 73 01 01 00 00 03 06 00 00 00 00 |Squigs..........|
|00 00 00 00 00 00 00 00 00 00 00 00 00 00 00 00 |................|
|00 00 05 02 00 00 00 7D 00 00 01 38 ED 0F 64 00 |.......}...8..d.|
|00 00 00 00 00 00 00 1A 00 01 01 00 00 00 01 00 |................|
|00 00 00 00 00 00 00 00 00 00 00 00 32 00 01 00 |............2...|
|01 00 00 00 00 00 00 00 00 00 00 00 00 0B 42 61 |..............Ba|
|72 62 65 64 20 57 68 69 70 00 00 01 00 00 33 90 |rbed Whip.....3.|
|00 05 00 00 00 00 00 43 41 20 62 61 72 62 65 64 |.......CA barbed|
|20 77 68 69 70 20 66 61 73 68 69 6F 6E 65 64 20 | whip fashioned |
|66 72 6F 6D 20 6D 75 74 61 74 65 64 20 6C 65 61 |from mutated lea|
|74 68 65 72 3B 20 77 68 69 70 20 69 74 2C 20 77 |ther; whip it, w|
|68 69 70 20 69 74 20 67 6F 6F 64 01 01 00 00 03 |hip it good.....|
|06 00 00 00 00 00 00 00 00 00 00 00 00 00 00 00 |................|
|00 00 00 00 00 00 00 06 02 00 00 00 7D 00 00 01 |............}...|
|38 FD 0F 53 00 00 00 00 00 00 00 00 1A 00 01 01 |8..S............|
|00 00 00 01 00 00 00 00 00 00 00 00 00 00 00 00 |................|
|00 32 00 01 00 01 00 00 00 00 00 00 00 00 00 00 |.2..............|
|00 00 11 4C 69 7A 61 72 64 20 54 61 69 6C 70 6F |...Lizard Tailpo|
|70 70 65 72 00 00 01 00 00 33 90 00 05 00 00 00 |pper.....3......|
|00 00 5B 54 68 69 73 20 4C 69 7A 61 72 64 20 54 |..[This Lizard T|
|61 69 6C 70 6F 70 70 65 72 20 6D 61 6B 65 73 20 |ailpopper makes |
|61 20 6C 6F 75 64 20 70 6F 70 70 69 6E 67 20 73 |a loud popping s|
|6F 75 6E 64 2C 20 74 68 65 6E 20 67 72 6F 77 73 |ound, then grows|
|20 62 61 63 6B 20 73 6F 20 79 6F 75 20 63 61 6E | back so you can|
|20 70 6F 70 20 69 74 20 61 67 61 69 6E 21 01 01 | pop it again!..|
|00 00 03 06 00 00 00 00 00 00 00 00 00 00 00 00 |................|
|00 00 00 00 00 00 00 00 00 00 07 02 00 00 00 7D |...............}|
|00 00 01 38 FE 01 CF 00 00 00 00 00 00 00 00 1A |...8............|
|00 01 01 00 00 00 01 00 00 00 00 00 00 00 00 00 |................|
|00 00 00 00 32 00 01 00 01 00 00 00 00 00 00 00 |....2...........|
|00 00 00 00 00 0C 44 65 61 74 68 6D 61 77 20 50 |......Deathmaw P|
|61 77 00 00 01 00 00 33 90 00 05 00 00 00 00 00 |aw.....3........|
|32 41 20 6C 61 72 67 65 20 70 61 77 2C 20 70 65 |2A large paw, pe|
|72 66 65 63 74 20 66 6F 72 20 67 72 61 6E 64 69 |rfect for grandi|
|6F 73 65 20 73 77 69 70 69 6E 67 20 6D 6F 74 69 |ose swiping moti|
|6F 6E 73 01 01 00 00 03 06 00 00 00 00 00 00 00 |ons.............|
|00 00 00 00 00 00 00 00 00 00 00 00 00 00 00 08 |................|
|02 00 00 00 7D 00 00 01 38 FF 02 FB 00 00 00 00 |....}...8.......|
|00 00 00 00 1A 00 01 01 00 00 00 01 00 00 00 00 |................|
|00 00 00 00 00 00 00 00 00 32 00 01 00 01 00 00 |.........2......|
|00 00 00 00 00 00 00 00 00 00 0A 47 72 61 76 65 |...........Grave|
|20 44 75 73 74 00 00 01 00 00 33 90 00 05 00 00 | Dust.....3.....|
|00 00 00 13 46 72 6F 6D 20 41 73 68 65 73 20 74 |....From Ashes t|
|6F 20 41 73 68 65 73 01 01 00 00 03 06 00 00 00 |o Ashes.........|
|00 00 00 00 00 00 00 00 00 00 00 00 00 00 00 00 |................|
|00 00 00 09 02 00 00 00 7D 00 00 01 39 00 0F 29 |........}...9..)|
|00 00 00 00 00 00 00 00 1A 00 01 01 00 00 00 01 |................|
|00 00 00 00 00 00 00 00 00 00 00 00 00 32 00 01 |.............2..|
|00 01 00 00 00 00 00 00 00 00 00 00 00 00 0C 46 |...............F|
|69 6C 74 68 79 20 48 61 6E 6B 79 00 00 01 00 00 |ilthy Hanky.....|
|33 90 00 05 00 00 00 00 00 2E 49 74 27 73 20 70 |3.........It's p|
|72 6F 62 61 62 6C 79 20 62 65 73 74 20 6E 6F 74 |robably best not|
|20 74 6F 20 75 73 65 20 74 68 69 73 20 68 61 6E | to use this han|
|6B 65 72 63 68 69 65 66 01 01 00 00 03 06 00 00 |kerchief........|
|00 00 00 00 00 00 00 00 00 00 00 00 00 00 00 00 |................|
|00 00 00 00 0A 02 00 00 00 7D 00 00 01 39 01 06 |.........}...9..|
|10 00 00 00 00 00 00 00 00 1A 00 01 01 00 00 00 |................|
|01 00 00 00 00 00 00 00 00 00 00 00 00 00 32 00 |..............2.|
|01 00 01 00 00 00 00 00 00 00 00 00 00 00 00 0D |................|
|42 61 72 72 65 6C 20 6F 66 20 41 6C 65 00 00 01 |Barrel of Ale...|
|00 00 33 90 00 05 00 00 00 00 00 1D 4F 6E 65 20 |..3.........One |
|73 6D 61 6C 6C 20 64 72 69 6E 6B 20 66 6F 72 20 |small drink for |
|67 69 61 6E 74 6B 69 6E 64 01 01 00 00 03 06 00 |giantkind.......|
|00 00 00 00 00 00 00 00 00 00 00 00 00 00 00 00 |................|
|00 00 00 00 00 0B 03 00 00 00 7D 00 00 01 39 02 |..........}...9.|
|01 D6 00 00 00 00 00 00 00 00 1A 00 01 01 00 00 |................|
|00 01 00 00 00 00 00 00 00 00 00 00 00 00 00 32 |...............2|
|00 01 00 01 00 00 00 00 00 00 00 00 00 00 00 00 |................|
|0F 52 65 76 6F 6C 74 69 6E 67 20 43 72 6F 63 6B |.Revolting Crock|
|00 00 01 00 00 33 90 00 05 00 00 00 00 00 4F 41 |.....3........OA|
|20 63 6F 76 65 72 65 64 20 63 6F 6E 74 61 69 6E | covered contain|
|65 72 20 66 75 6C 6C 20 6F 66 20 74 68 65 20 6D |er full of the m|
|6F 73 74 20 70 75 6E 67 65 6E 74 20 73 6D 65 6C |ost pungent smel|
|6C 69 6E 67 20 66 6F 6F 64 20 74 6F 20 68 61 76 |ling food to hav|
|65 20 65 76 65 72 20 69 6E 68 61 6C 65 64 01 01 |e ever inhaled..|
|00 00 03 06 00 00 00 00 00 00 00 00 00 00 00 00 |................|
|00 00 00 00 00 00 00 00 00 00 0C 02 00 00 00 7D |...............}|
|00 00 01 39 03 01 7C 00 00 00 00 00 00 00 00 1A |...9..|.........|
|00 01 01 00 00 00 01 00 00 00 00 00 00 00 00 00 |................|
|00 00 00 00 32 00 01 00 01 00 00 00 00 00 00 00 |....2...........|
|00 00 00 00 00 0F 43 61 72 72 69 6F 6E 20 54 69 |......Carrion Ti|
|63 6B 6C 65 72 00 00 01 00 00 33 90 00 05 00 00 |ckler.....3.....|
|00 00 00 3B 43 68 69 6C 64 72 65 6E 20 6F 66 20 |...;Children of |
|74 68 65 20 45 6D 70 69 72 65 20 6D 75 73 74 20 |the Empire must |
|66 69 6E 64 20 6A 6F 79 20 66 72 6F 6D 20 74 68 |find joy from th|
|65 20 6C 69 74 74 6C 65 20 74 68 69 6E 67 73 01 |e little things.|
|01 00 00 03 06 00 00 00 00 00 00 00 00 00 00 00 |................|
|00 00 00 00 00 00 00 00 00 00 00 0D 02 00 00 00 |................|
|7D 00 00 01 39 04 0F 27 00 00 00 00 00 00 00 00 |}...9..'........|
|1A 00 01 01 00 00 00 01 00 00 00 00 00 00 00 00 |................|
|00 00 00 00 00 32 00 01 00 01 00 00 00 00 00 00 |.....2..........|
|00 00 00 00 00 00 0B 44 6F 67 20 57 68 69 73 74 |.......Dog Whist|
|6C 65 00 00 01 00 00 33 90 00 05 00 00 00 00 00 |le.....3........|
|26 49 66 20 6F 6E 6C 79 20 74 68 69 73 20 77 6F |&If only this wo|
|75 6C 64 20 77 6F 72 6B 20 6F 6E 20 74 68 65 20 |uld work on the |
|64 61 65 6D 6F 6E 73 01 01 00 00 03 06 00 00 00 |daemons.........|
|00 00 00 00 00 00 00 00 00 00 00 00 00 00 00 00 |................|
|00 00 00 0E 02 00 00 00 7D 00 00 01 39 05 0F 2A |........}...9..*|
|00 00 00 00 00 00 00 00 1A 00 01 01 00 00 00 01 |................|
|00 00 00 00 00 00 00 00 00 00 00 00 00 32 00 01 |.............2..|
|00 01 00 00 00 00 00 00 00 00 00 00 00 00 09 42 |...............B|
|69 72 64 20 53 65 65 64 00 00 01 00 00 33 90 00 |ird Seed.....3..|
|05 00 00 00 00 00 36 53 61 64 6C 79 20 74 68 65 |......6Sadly the|
|20 70 75 72 63 68 61 73 65 72 20 64 69 64 20 6E | purchaser did n|
|6F 74 20 61 73 6B 20 68 6F 77 20 6C 61 72 67 65 |ot ask how large|
|20 74 68 65 20 62 69 72 64 20 77 61 73 01 01 00 | the bird was...|
|00 03 06 00 00 00 00 00 00 00 00 00 00 00 00 00 |................|
|00 00 00 00 00 00 00 00 00 0F 03 00 00 00 7D 00 |..............}.|
|00 01 39 06 03 C0 00 00 00 00 00 00 00 00 1A 00 |..9.............|
|01 01 00 00 00 01 00 00 00 00 00 00 00 00 00 00 |................|
|00 00 00 32 00 01 00 01 00 00 00 00 00 00 00 00 |...2............|
|00 00 00 00 09 44 61 72 6B 6C 69 67 68 74 00 00 |.....Darklight..|
|01 00 00 33 90 00 05 00 00 00 00 00 33 44 65 73 |...3........3Des|
|69 67 6E 65 64 20 74 6F 20 68 65 6C 70 20 6E 69 |igned to help ni|
|67 68 74 20 67 6F 62 6C 69 6E 73 20 73 6C 65 65 |ght goblins slee|
|70 20 64 75 72 69 6E 67 20 74 68 65 20 64 61 79 |p during the day|
|01 01 00 00 03 06 00 00 00 00 00 00 00 00 00 00 |................|
|00 00 00 00 00 00 00 00 00 00 00 00 10 02 00 00 |................|
|00 7D 00 00 01 39 09 01 8C 00 00 00 00 00 00 00 |.}...9..........|
|00 1A 00 01 01 00 00 00 01 00 00 00 00 00 00 00 |................|
|00 00 00 00 00 00 32 00 01 00 01 00 00 00 00 00 |......2.........|
|00 00 00 00 00 00 00 0D 4D 6F 72 70 68 69 6E 67 |........Morphing|
|20 4F 6F 7A 65 00 00 01 00 00 33 90 00 05 00 00 | Ooze.....3.....|
|00 00 00 23 55 6E 64 75 6C 61 74 69 6E 67 2C 20 |...#Undulating, |
|6D 65 73 6D 65 72 69 7A 69 6E 67 2C 20 64 69 73 |mesmerizing, dis|
|67 75 73 74 69 6E 67 01 01 00 00 03 06 00 00 00 |gusting.........|
|00 00 00 00 00 00 00 00 00 00 00 00 00 00 00 00 |................|
|00 00 00 11 02 00 00 00 7D 00 00 01 39 0A 01 DB |........}...9...|
|00 00 00 00 00 00 00 00 1A 00 01 01 00 00 00 01 |................|
|00 00 00 00 00 00 00 00 00 00 00 00 00 32 00 01 |.............2..|
|00 01 00 00 00 00 00 00 00 00 00 00 00 00 14 52 |...............R|
|65 67 75 72 67 69 74 61 74 65 64 20 54 72 69 6E |egurgitated Trin|
|6B 65 74 00 00 01 00 00 33 90 00 05 00 00 00 00 |ket.....3.......|
|00 34 59 6F 75 20 63 6C 65 61 6E 20 61 6E 64 20 |.4You clean and |
|63 6C 65 61 6E 20 61 6E 64 20 69 74 20 6E 65 76 |clean and it nev|
|65 72 20 67 65 74 73 20 65 76 65 72 79 74 68 69 |er gets everythi|
|6E 67 20 6F 66 66 01 01 00 00 03 06 00 00 00 00 |ng off..........|
|00 00 00 00 00 00 00 00 00 00 00 00 00 00 00 00 |................|
|00 00 12 02 00 00 00 7D 00 00 01 39 0B 03 0F 00 |.......}...9....|
|00 00 00 00 00 00 00 1A 00 01 01 00 00 00 01 00 |................|
|00 00 00 00 00 00 00 00 00 00 00 00 32 00 01 00 |............2...|
|01 00 00 00 00 00 00 00 00 00 00 00 00 10 53 74 |..............St|
|65 61 6D 74 72 61 69 6E 20 74 6F 6B 65 6E 00 00 |eamtrain token..|
|01 00 00 33 90 00 05 00 00 00 00 00 1A 59 6F 75 |...3.........You|
|27 76 65 20 67 6F 74 20 61 20 74 6F 6B 65 6E 20 |'ve got a token |
|74 6F 20 72 69 64 65 01 01 00 00 03 06 00 00 00 |to ride.........|
|00 00 00 00 00 00 00 00 00 00 00 00 00 00 00 00 |................|
|00 00 00 13 02 00 00 00 7D 00 00 01 39 0C 01 66 |........}...9..f|
|00 00 00 00 00 00 00 00 1A 00 01 01 00 00 00 01 |................|
|00 00 00 00 00 00 00 00 00 00 00 00 00 32 00 01 |.............2..|
|00 01 00 00 00 00 00 00 00 00 00 00 00 00 09 53 |...............S|
|70 69 74 65 20 41 6C 65 00 00 01 00 00 33 90 00 |pite Ale.....3..|
|05 00 00 00 00 00 21 41 20 6C 69 67 68 74 20 62 |......!A light b|
|75 62 62 6C 79 20 61 6C 65 2C 20 74 68 65 20 75 |ubbly ale, the u|
|6E 2D 6C 61 67 65 72 21 01 01 00 00 03 06 00 00 |n-lager!........|
|00 00 00 00 00 00 00 00 00 00 00 00 00 00 00 00 |................|
|00 00 00 00 14 02 00 00 00 7D 00 00 01 39 0D 0F |.........}...9..|
|D2 00 00 00 00 00 00 00 00 1A 00 01 01 00 00 00 |................|
|01 00 00 00 00 00 00 00 00 00 00 00 00 00 32 00 |..............2.|
|01 00 01 00 00 00 00 00 00 00 00 00 00 00 00 09 |................|
|47 6F 72 64 75 63 6B 65 6E 00 00 01 00 00 33 90 |Gorducken.....3.|
|00 05 00 00 00 00 00 30 54 75 73 6B 67 6F 72 2C |.......0Tuskgor,|
|20 73 74 75 66 66 65 64 20 77 69 74 68 20 6D 65 | stuffed with me|
|61 74 73 2E 20 20 44 65 6C 69 63 69 6F 75 73 6C |ats.  Deliciousl|
|79 20 6D 65 61 74 79 2E 01 01 00 00 03 06 00 00 |y meaty.........|
|00 00 00 00 00 00 00 00 00 00 00 00 00 00 00 00 |................|
|00 00 00 00 15 02 00 00 00 7D 00 00 01 39 0E 01 |.........}...9..|
|D7 00 00 00 00 00 00 00 00 1A 00 01 01 00 00 00 |................|
|01 00 00 00 00 00 00 00 00 00 00 00 00 00 32 00 |..............2.|
|01 00 01 00 00 00 00 00 00 00 00 00 00 00 00 0E |................|
|54 75 73 6B 67 6F 72 20 53 61 64 64 6C 65 00 00 |Tuskgor Saddle..|
|01 00 00 33 90 00 05 00 00 00 00 00 26 57 68 61 |...3........&Wha|
|74 20 65 6C 73 65 20 77 6F 75 6C 64 20 6B 65 65 |t else would kee|
|70 20 79 6F 75 20 6F 6E 20 61 20 54 75 73 6B 67 |p you on a Tuskg|
|6F 72 3F 01 01 00 00 03 06 00 00 00 00 00 00 00 |or?.............|
|00 00 00 00 00 00 00 00 00 00 00 00 00 00 00 16 |................|
|02 00 00 00 7D 00 00 01 39 0F 0F 31 00 00 00 00 |....}...9..1....|
|00 00 00 00 1A 00 01 01 00 00 00 01 00 00 00 00 |................|
|00 00 00 00 00 00 00 00 00 32 00 01 00 01 00 00 |.........2......|
|00 00 00 00 00 00 00 00 00 00 0D 50 75 74 72 69 |...........Putri|
|64 20 66 6C 6F 77 65 72 00 00 01 00 00 33 90 00 |d flower.....3..|
|05 00 00 00 00 00 23 41 20 70 65 72 66 65 63 74 |......#A perfect|
|20 67 69 66 74 20 66 6F 72 20 70 65 6F 70 6C 65 | gift for people|
|20 79 6F 75 20 68 61 74 65 2E 01 01 00 00 03 06 | you hate.......|
|00 00 00 00 00 00 00 00 00 00 00 00 00 00 00 00 |................|
|00 00 00 00 00 00 17 02 00 00 00 7D 00 00 01 39 |...........}...9|
|40 01 E4 00 00 00 00 00 00 00 00 1A 00 01 01 00 |@...............|
|00 00 01 00 00 00 00 00 00 00 00 00 00 00 00 00 |................|
|32 00 01 00 01 00 00 00 00 00 00 00 00 00 00 00 |2...............|
|00 15 41 6C 65 20 42 61 72 72 65 6C 20 4C 69 64 |..Ale Barrel Lid|
|20 53 68 69 65 6C 64 00 00 01 00 00 33 90 00 05 | Shield.....3...|
|00 00 00 00 00 34 49 74 27 73 20 6E 6F 74 20 71 |.....4It's not q|
|75 69 74 65 20 61 20 73 68 69 65 6C 64 2C 20 62 |uite a shield, b|
|75 74 20 69 74 20 6D 61 6B 65 73 20 61 20 67 6F |ut it makes a go|
|6F 64 20 6D 65 6D 65 6E 74 6F 01 01 00 00 03 06 |od memento......|
|00 00 00 00 00 00 00 00 00 00 00 00 00 00 00 00 |................|
|00 00 00 00 00 00 18 02 00 00 00 7D 00 00 01 39 |...........}...9|
|41 03 BF 00 00 00 00 00 00 00 00 1A 00 01 01 00 |A...............|
|00 00 01 00 00 00 00 00 00 00 00 00 00 00 00 00 |................|
|32 00 01 00 01 00 00 00 00 00 00 00 00 00 00 00 |2...............|
|00 12 46 69 65 6E 64 73 68 69 70 20 42 72 61 63 |..Fiendship Brac|
|65 6C 65 74 00 00 01 00 00 33 90 00 05 00 00 00 |elet.....3......|
|00 00 3A 41 20 62 72 61 63 65 6C 65 74 20 6F 66 |..:A bracelet of|
|20 62 6F 6E 65 73 20 74 6F 20 73 68 6F 77 20 79 | bones to show y|
|6F 75 72 20 73 6B 69 6C 6C 20 61 74 20 64 65 66 |our skill at def|
|65 61 74 69 6E 67 20 66 69 65 6E 64 73 01 01 00 |eating fiends...|
|00 03 06 00 00 00 00 00 00 00 00 00 00 00 00 00 |................|
|00 00 00 00 00 00 00 00 00 19 02 00 00 00 7D 00 |..............}.|
|00 01 39 42 10 0F 00 00 00 00 00 00 00 00 1A 00 |..9B............|
|01 01 00 00 00 01 00 00 00 00 00 00 00 00 00 00 |................|
|00 00 00 32 00 01 00 01 00 00 00 00 00 00 00 00 |...2............|
|00 00 00 00 0B 44 61 65 6D 6F 6E 20 48 6F 72 6E |.....Daemon Horn|
|00 00 01 00 00 33 90 00 05 00 00 00 00 00 1B 41 |.....3.........A|
|20 68 6F 72 6E 20 66 72 6F 6D 20 61 20 44 61 65 | horn from a Dae|
|6D 6F 6E 20 50 72 69 6E 63 65 01 01 00 00 03 06 |mon Prince......|
|00 00 00 00 00 00 00 00 00 00 00 00 00 00 00 00 |................|
|00 00 00 00 00 00 00                            |.......         |
-------------------------------------------------------------------
[Server] packet : (0xBF) F_INIT_STORE  Size = 1710 
|------------------------------------------------|----------------|
|00 01 02 03 04 05 06 07 08 09 0A 0B 0C 0D 0E 0F |0123456789ABCDEF|
|------------------------------------------------|----------------|
|06 AB BF 00 00 04 0A 00 01 03 00 02 00 00 00 00 |................|
|00 00 02 EF 2F 1A A5 00 00 00 00 00 00 00 00 1B |..../...........|
|00 00 00 00 00 00 01 00 00 00 00 00 00 00 00 00 |................|
|00 00 00 00 00 00 01 00 01 00 00 00 00 00 00 00 |................|
|00 00 00 00 00 14 48 75 6E 74 65 72 20 4D 61 73 |......Hunter Mas|
|74 65 72 27 73 20 50 65 6C 74 00 00 00 00 00 00 |ter's Pelt......|
|2E 52 65 77 61 72 64 20 66 6F 72 20 63 6F 6D 70 |.Reward for comp|
|6C 65 74 69 6E 67 20 73 70 65 63 69 66 69 63 20 |leting specific |
|62 65 73 74 69 61 72 79 20 75 6E 6C 6F 63 6B 01 |bestiary unlock.|
|01 00 00 03 06 01 00 00 00 00 00 00 00 00 00 00 |................|
|00 00 00 01 02 15 01 6C C8 01 01 01 02 00 00 00 |.......l........|
|00 00 00 00 01 02 00 00 00 00 00 00 02 EF 30 1A |..............0.|
|A6 00 00 00 00 00 00 00 00 1B 00 00 00 00 00 00 |................|
|01 00 00 00 00 00 00 00 00 00 00 00 00 00 00 00 |................|
|01 00 01 00 00 00 00 00 00 00 00 00 00 00 00 16 |................|
|50 65 6C 74 20 6F 66 20 74 68 65 20 44 61 72 6B |Pelt of the Dark|
|20 59 6F 75 6E 67 00 00 00 00 00 00 2E 52 65 77 | Young.......Rew|
|61 72 64 20 66 6F 72 20 63 6F 6D 70 6C 65 74 69 |ard for completi|
|6E 67 20 73 70 65 63 69 66 69 63 20 62 65 73 74 |ng specific best|
|69 61 72 79 20 75 6E 6C 6F 63 6B 01 01 00 00 03 |iary unlock.....|
|06 01 00 00 00 00 00 00 00 00 00 00 00 00 00 01 |................|
|02 15 01 6C C8 01 01 01 02 00 00 00 00 00 00 00 |...l............|
|02 02 00 00 00 00 00 00 02 EF 31 1A A7 00 00 00 |..........1.....|
|00 00 00 00 00 1B 00 00 00 00 00 00 01 00 00 00 |................|
|00 00 00 00 00 00 00 00 00 00 00 00 01 00 01 00 |................|
|00 00 00 00 00 00 00 00 00 00 00 16 4D 61 6E 74 |............Mant|
|6C 65 20 6F 66 20 74 68 65 20 46 69 72 65 62 6F |le of the Firebo|
|72 6E 00 00 00 00 00 00 2E 52 65 77 61 72 64 20 |rn.......Reward |
|66 6F 72 20 63 6F 6D 70 6C 65 74 69 6E 67 20 73 |for completing s|
|70 65 63 69 66 69 63 20 62 65 73 74 69 61 72 79 |pecific bestiary|
|20 75 6E 6C 6F 63 6B 01 01 00 00 03 06 01 00 00 | unlock.........|
|00 00 00 00 00 00 00 00 00 00 00 01 02 15 01 6C |...............l|
|C8 01 01 01 02 00 00 00 00 00 00 00 03 02 00 00 |................|
|00 00 00 00 02 EF 32 1A A8 00 00 00 00 00 00 00 |......2.........|
|00 1B 00 00 00 00 00 00 01 00 00 00 00 00 00 00 |................|
|00 00 00 00 00 00 00 00 01 00 01 00 00 00 00 00 |................|
|00 00 00 00 00 00 00 14 43 6C 6F 61 6B 20 6F 66 |........Cloak of|
|20 74 68 65 20 50 65 67 61 73 75 73 00 00 00 00 | the Pegasus....|
|00 00 2E 52 65 77 61 72 64 20 66 6F 72 20 63 6F |...Reward for co|
|6D 70 6C 65 74 69 6E 67 20 73 70 65 63 69 66 69 |mpleting specifi|
|63 20 62 65 73 74 69 61 72 79 20 75 6E 6C 6F 63 |c bestiary unloc|
|6B 01 01 00 00 03 06 01 00 00 00 00 00 00 00 00 |k...............|
|00 00 00 00 00 01 02 15 01 6C C8 01 01 01 02 00 |.........l......|
|00 00 00 00 00 00 04 02 00 00 00 00 00 00 02 EF |................|
|33 1A A9 00 00 00 00 00 00 00 00 1B 00 00 00 00 |3...............|
|00 00 01 00 00 00 00 00 00 00 00 00 00 00 00 00 |................|
|00 00 01 00 01 00 00 00 00 00 00 00 00 00 00 00 |................|
|00 11 44 65 61 74 68 20 53 68 72 6F 75 64 20 43 |..Death Shroud C|
|61 70 65 00 00 00 00 00 00 2E 52 65 77 61 72 64 |ape.......Reward|
|20 66 6F 72 20 63 6F 6D 70 6C 65 74 69 6E 67 20 | for completing |
|73 70 65 63 69 66 69 63 20 62 65 73 74 69 61 72 |specific bestiar|
|79 20 75 6E 6C 6F 63 6B 01 01 00 00 03 06 01 00 |y unlock........|
|00 00 00 00 00 00 00 00 00 00 00 00 01 02 15 01 |................|
|6C C8 01 01 01 02 00 00 00 00 00 00 00 05 02 00 |l...............|
|00 00 00 00 00 02 EF 3B 1A B7 00 00 00 00 00 00 |.......;........|
|00 00 1B 00 00 00 00 00 00 01 00 00 00 00 00 00 |................|
|00 00 00 00 00 00 00 00 00 01 00 01 00 00 00 00 |................|
|00 00 00 00 00 00 00 00 18 50 6C 75 6D 65 73 20 |.........Plumes |
|6F 66 20 74 68 65 20 45 79 65 20 4B 69 6C 6C 65 |of the Eye Kille|
|72 00 00 00 00 00 00 2E 52 65 77 61 72 64 20 66 |r.......Reward f|
|6F 72 20 63 6F 6D 70 6C 65 74 69 6E 67 20 73 70 |or completing sp|
|65 63 69 66 69 63 20 62 65 73 74 69 61 72 79 20 |ecific bestiary |
|75 6E 6C 6F 63 6B 01 01 00 00 03 06 01 00 00 00 |unlock..........|
|00 00 00 00 00 00 00 00 00 00 01 02 15 01 6C C8 |..............l.|
|01 01 01 02 00 00 00 00 00 00 00 06 02 00 00 00 |................|
|00 00 00 02 EF 3C 1A B8 00 00 00 00 00 00 00 00 |.....<..........|
|1B 00 00 00 00 00 00 01 00 00 00 00 00 00 00 00 |................|
|00 00 00 00 00 00 00 01 00 01 00 00 00 00 00 00 |................|
|00 00 00 00 00 00 0F 53 68 61 77 6C 20 6F 66 20 |.......Shawl of |
|53 70 72 69 6E 67 00 00 00 00 00 00 2E 52 65 77 |Spring.......Rew|
|61 72 64 20 66 6F 72 20 63 6F 6D 70 6C 65 74 69 |ard for completi|
|6E 67 20 73 70 65 63 69 66 69 63 20 62 65 73 74 |ng specific best|
|69 61 72 79 20 75 6E 6C 6F 63 6B 01 01 00 00 03 |iary unlock.....|
|06 01 00 00 00 00 00 00 00 00 00 00 00 00 00 01 |................|
|02 15 01 6C C8 01 01 01 02 00 00 00 00 00 00 00 |...l............|
|07 03 00 00 00 00 00 00 02 EF 3D 1A B9 00 00 00 |..........=.....|
|00 00 00 00 00 1B 00 00 00 00 00 00 01 00 00 00 |................|
|00 00 00 00 00 00 00 00 00 00 00 00 01 00 01 00 |................|
|00 00 00 00 00 00 00 00 00 00 00 14 43 61 70 65 |............Cape|
|20 6F 66 20 74 68 65 20 53 63 72 65 61 6D 65 72 | of the Screamer|
|00 00 00 00 00 00 2E 52 65 77 61 72 64 20 66 6F |.......Reward fo|
|72 20 63 6F 6D 70 6C 65 74 69 6E 67 20 73 70 65 |r completing spe|
|63 69 66 69 63 20 62 65 73 74 69 61 72 79 20 75 |cific bestiary u|
|6E 6C 6F 63 6B 01 01 00 00 03 06 01 00 00 00 00 |nlock...........|
|00 00 00 00 00 00 00 00 00 01 02 15 01 6C C8 01 |.............l..|
|01 01 02 00 00 00 00 00 00 00 08 02 00 00 00 00 |................|
|00 00 02 EF 3E 1A BA 00 00 00 00 00 00 00 00 1B |....>...........|
|00 00 00 00 00 00 01 00 00 00 00 00 00 00 00 00 |................|
|00 00 00 00 00 00 01 00 01 00 00 00 00 00 00 00 |................|
|00 00 00 00 00 12 46 61 6E 67 20 48 6F 70 70 65 |......Fang Hoppe|
|72 27 73 20 48 69 64 65 00 00 00 00 00 00 2E 52 |r's Hide.......R|
|65 77 61 72 64 20 66 6F 72 20 63 6F 6D 70 6C 65 |eward for comple|
|74 69 6E 67 20 73 70 65 63 69 66 69 63 20 62 65 |ting specific be|
|73 74 69 61 72 79 20 75 6E 6C 6F 63 6B 01 01 00 |stiary unlock...|
|00 03 06 01 00 00 00 00 00 00 00 00 00 00 00 00 |................|
|00 01 02 15 01 6C C8 01 01 01 02 00 00 00 00 00 |.....l..........|
|00 00 09 02 00 00 00 00 00 00 02 EF 3F 1A BB 00 |............?...|
|00 00 00 00 00 00 00 1B 00 00 00 00 00 00 01 00 |................|
|00 00 00 00 00 00 00 00 00 00 00 00 00 00 01 00 |................|
|01 00 00 00 00 00 00 00 00 00 00 00 00 15 48 69 |..............Hi|
|64 65 20 6F 66 20 4B 69 6C 6C 69 6E 67 20 46 72 |de of Killing Fr|
|6F 73 74 00 00 00 00 00 00 2E 52 65 77 61 72 64 |ost.......Reward|
|20 66 6F 72 20 63 6F 6D 70 6C 65 74 69 6E 67 20 | for completing |
|73 70 65 63 69 66 69 63 20 62 65 73 74 69 61 72 |specific bestiar|
|79 20 75 6E 6C 6F 63 6B 01 01 00 00 03 06 01 00 |y unlock........|
|00 00 00 00 00 00 00 00 00 00 00 00 01 02 15 01 |................|
|6C C8 01 01 01 02 00 00 00 00 00 00 00 00       |..............  |
-------------------------------------------------------------------
[Server] packet : (0xC0) F_STORE_BUY_BACK  Size = 5 
|------------------------------------------------|----------------|
|00 01 02 03 04 05 06 07 08 09 0A 0B 0C 0D 0E 0F |0123456789ABCDEF|
|------------------------------------------------|----------------|
|00 02 C0 00 00                                  |.....           |
-------------------------------------------------------------------
[Server] packet : (0xD1) F_ITEM_SET_DATA  Size = 58 
|------------------------------------------------|----------------|
|00 01 02 03 04 05 06 07 08 09 0A 0B 0C 0D 0E 0F |0123456789ABCDEF|
|------------------------------------------------|----------------|
|00 37 D1 00 00 0F 3C 12 54 68 65 20 53 75 6E 64 |.7....<.The Sund|
|65 72 65 64 20 52 69 6E 67 73 25 02 00 09 C4 64 |ered Rings%....d|
|08 43 79 74 68 65 72 69 6C 00 09 C4 65 08 46 6F |.Cytheril...e.Fo|
|73 65 72 61 69 6E 01 52 2A 00                   |..........      |
-------------------------------------------------------------------
[Server] packet : (0xD1) F_ITEM_SET_DATA  Size = 118 
|------------------------------------------------|----------------|
|00 01 02 03 04 05 06 07 08 09 0A 0B 0C 0D 0E 0F |0123456789ABCDEF|
|------------------------------------------------|----------------|
|00 73 D1 00 00 0F 3D 0B 54 68 65 20 44 69 76 69 |.s....=.The Divi|
|64 65 64 25 04 00 09 C4 66 11 54 68 65 20 53 65 |ded%....f.The Se|
|65 70 69 6E 67 20 4C 61 72 76 61 00 09 C4 67 11 |eping Larva...g.|
|57 72 69 74 68 69 6E 67 20 53 68 61 63 6B 6C 65 |Writhing Shackle|
|73 00 09 C4 68 0A 46 61 74 65 64 20 56 65 69 6C |s...h.Fated Veil|
|00 09 C4 69 11 42 6C 6F 6F 64 69 65 64 20 46 72 |...i.Bloodied Fr|
|61 63 74 75 72 65 03 22 56 00 02 00 23 57 00 02 |acture."V...#W..|
|00 24 58 00 02 00                               |......          |
-------------------------------------------------------------------
[Server] packet : (0xD1) F_ITEM_SET_DATA  Size = 124 
|------------------------------------------------|----------------|
|00 01 02 03 04 05 06 07 08 09 0A 0B 0C 0D 0E 0F |0123456789ABCDEF|
|------------------------------------------------|----------------|
|00 79 D1 00 00 0F 3E 11 46 6F 72 74 75 6E 65 27 |.y....>.Fortune'|
|73 20 42 61 75 62 6C 65 73 25 04 00 09 C4 6A 10 |s Baubles%....j.|
|48 61 70 6C 65 73 73 20 48 61 27 70 65 6E 6E 79 |Hapless Ha'penny|
|00 09 C4 6B 09 47 6F 72 6B 61 6D 6F 72 6B 00 09 |...k.Gorkamork..|
|C4 6C 0E 57 69 6E 64 20 6F 66 20 43 68 61 6E 67 |.l.Wind of Chang|
|65 00 09 C4 6D 16 46 75 6C 6C 62 65 6C 6C 79 27 |e...m.Fullbelly'|
|73 20 4C 75 63 6B 79 20 46 6F 6F 74 03 22 21 00 |s Lucky Foot."!.|
|02 00 23 20 00 02 00 24 4F 00 0D 00             |............    |
-------------------------------------------------------------------
[Server] packet : (0xD1) F_ITEM_SET_DATA  Size = 102 
|------------------------------------------------|----------------|
|00 01 02 03 04 05 06 07 08 09 0A 0B 0C 0D 0E 0F |0123456789ABCDEF|
|------------------------------------------------|----------------|
|00 63 D1 00 00 0F 3F 14 54 68 65 20 57 69 6E 64 |.c....?.The Wind|
|73 20 49 6D 70 65 72 76 69 6F 75 73 25 03 00 09 |s Impervious%...|
|C4 6E 11 43 72 6F 77 20 43 61 6C 6C 65 72 20 43 |.n.Crow Caller C|
|68 61 69 6E 00 09 C4 6F 11 54 68 65 20 4F 62 64 |hain...o.The Obd|
|75 72 61 74 65 20 53 65 61 6C 00 09 C4 70 10 57 |urate Seal...p.W|
|6F 72 64 62 72 65 61 6B 65 72 20 42 61 6E 64 02 |ordbreaker Band.|
|52 28 92 53 28 00                               |......          |
-------------------------------------------------------------------
[Server] packet : (0xD1) F_ITEM_SET_DATA  Size = 100 
|------------------------------------------------|----------------|
|00 01 02 03 04 05 06 07 08 09 0A 0B 0C 0D 0E 0F |0123456789ABCDEF|
|------------------------------------------------|----------------|
|00 61 D1 00 00 0F 40 14 54 68 65 20 47 72 65 61 |.a....@.The Grea|
|74 20 4F 61 74 68 73 74 6F 6E 65 73 25 02 00 09 |t Oathstones%...|
|C4 71 1A 4F 61 74 68 73 74 6F 6E 65 20 6F 66 20 |.q.Oathstone of |
|4B 61 72 61 7A 2D 61 2D 4B 61 72 61 6B 00 09 C4 |Karaz-a-Karak...|
|72 1E 4F 61 74 68 73 74 6F 6E 65 20 6F 66 20 4B |r.Oathstone of K|
|61 72 61 6B 20 45 69 67 68 74 20 50 65 61 6B 73 |arak Eight Peaks|
|01 52 2A 00                                     |....            |
-------------------------------------------------------------------
[Server] packet : (0xD1) F_ITEM_SET_DATA  Size = 77 
|------------------------------------------------|----------------|
|00 01 02 03 04 05 06 07 08 09 0A 0B 0C 0D 0E 0F |0123456789ABCDEF|
|------------------------------------------------|----------------|
|00 4A D1 00 00 0F 41 13 54 68 65 20 42 72 6F 6B |.J....A.The Brok|
|65 6E 20 43 6F 76 65 6E 61 6E 74 25 02 00 09 C4 |en Covenant%....|
|73 14 54 68 65 20 41 73 63 65 6E 64 61 6E 74 20 |s.The Ascendant |
|56 65 72 73 65 73 00 09 C4 74 0E 54 68 65 20 44 |Verses...t.The D|
|65 65 70 20 4F 61 74 68 73 01 52 2A 00          |.............   |
-------------------------------------------------------------------
[Server] packet : (0xD1) F_ITEM_SET_DATA  Size = 98 
|------------------------------------------------|----------------|
|00 01 02 03 04 05 06 07 08 09 0A 0B 0C 0D 0E 0F |0123456789ABCDEF|
|------------------------------------------------|----------------|
|00 5F D1 00 00 0F 42 0F 44 61 20 57 61 61 61 67 |._....B.Da Waaag|
|68 21 20 54 65 65 66 25 04 00 09 C4 75 0A 42 6C |h! Teef%....u.Bl|
|61 63 6B 20 54 6F 6F 66 00 09 C4 76 08 4F 6E 65 |ack Toof...v.One|
|20 54 75 73 6B 00 09 C4 77 0A 42 72 6F 6B 65 20 | Tusk...w.Broke |
|54 6F 6F 66 00 09 C4 78 09 4D 6F 6F 6E 20 46 61 |Toof...x.Moon Fa|
|6E 67 03 22 54 00 02 00 23 53 00 02 00 24 5A 00 |ng."T...#S...$Z.|
|14 00                                           |..              |
-------------------------------------------------------------------
[Server] packet : (0xD1) F_ITEM_SET_DATA  Size = 60 
|------------------------------------------------|----------------|
|00 01 02 03 04 05 06 07 08 09 0A 0B 0C 0D 0E 0F |0123456789ABCDEF|
|------------------------------------------------|----------------|
|00 39 D1 00 00 0F 43 17 54 68 65 20 42 6C 6F 6F |.9....C.The Bloo|
|64 2D 73 6F 61 6B 65 64 20 53 69 67 69 6C 73 25 |d-soaked Sigils%|
|02 00 09 C4 79 06 53 74 72 69 66 65 00 09 C4 7A |....y.Strife...z|
|07 54 6F 72 6D 65 6E 74 01 52 2A 00             |............    |
-------------------------------------------------------------------
[Client] packet : (0x0B) F_PING  Size = 32 
|------------------------------------------------|----------------|
|00 01 02 03 04 05 06 07 08 09 0A 0B 0C 0D 0E 0F |0123456789ABCDEF|
|------------------------------------------------|----------------|
|00 14 04 A1 00 2B 00 00 00 0B 00 04 D5 6F E9 AF |.....+.......o..|
|6B EC B5 39 5C 86 00 00 00 00 00 00 00 00 20 83 |k..9\......... .|                                                
-------------------------------------------------------------------
[Server] packet : (0x81) S_PONG  Size = 23 
|------------------------------------------------|----------------|
|00 01 02 03 04 05 06 07 08 09 0A 0B 0C 0D 0E 0F |0123456789ABCDEF|
|------------------------------------------------|----------------|
|00 14 81 00 04 D5 6F 52 75 8A A4 00 00 00 00 00 |......oRu.......|
|00 04 A2 00 00 00 00                            |.......         |
-------------------------------------------------------------------
[Client] packet : (0x86) F_MAIL  Size = 16 
|------------------------------------------------|----------------|
|00 01 02 03 04 05 06 07 08 09 0A 0B 0C 0D 0E 0F |0123456789ABCDEF|
|------------------------------------------------|----------------|
|00 04 04 A2 00 2B FF FF 00 86 00 00 00 00 00 00 |.....+..........|                                                
-------------------------------------------------------------------
[Server] packet : (0x86) F_MAIL  Size = 7 
|------------------------------------------------|----------------|
|00 01 02 03 04 05 06 07 08 09 0A 0B 0C 0D 0E 0F |0123456789ABCDEF|
|------------------------------------------------|----------------|
|00 04 86 09 00 00 00                            |.......         |
-------------------------------------------------------------------
[Client] packet : (0x16) F_REQUEST_INIT_OBJECT  Size = 16 
|------------------------------------------------|----------------|
|00 01 02 03 04 05 06 07 08 09 0A 0B 0C 0D 0E 0F |0123456789ABCDEF|
|------------------------------------------------|----------------|
|00 04 04 A6 00 2B 00 00 00 16 0E 99 00 00 A4 DC |.....+..........|                                                
-------------------------------------------------------------------
[Server] packet : (0x72) F_CREATE_MONSTER  Size = 109 
|------------------------------------------------|----------------|
|00 01 02 03 04 05 06 07 08 09 0A 0B 0C 0D 0E 0F |0123456789ABCDEF|
|------------------------------------------------|----------------|
|00 6A 72 0E 99 00 EB 00 44 0E 38 00 06 78 E3 00 |.jr.....D.8..x..|
|02 0E F6 00 00 06 89 32 0A 00 00 00 00 00 00 00 |.......2........|
|00 00 00 03 E8 00 00 00 00 B7 CA 00 01 00 00 02 |................|
|18 19 00 48 6F 72 72 69 66 69 65 64 20 53 6F 75 |...Horrified Sou|
|6C 5E 66 00 04 CD 01 0A 00 00 00 1A 05 00 0E 99 |l^f.............|
|38 E3 8E F6 0E 38 64 01 A1 00 00 00 00 00 EB 00 |8....8d.........|
|00 03 7E F3 A4 70 17 A1 0E 99 00 00 00          |.............   |
-------------------------------------------------------------------
[Server] packet : (0xDE) F_OBJECT_EFFECT_STATE  Size = 9 
|------------------------------------------------|----------------|
|00 01 02 03 04 05 06 07 08 09 0A 0B 0C 0D 0E 0F |0123456789ABCDEF|
|------------------------------------------------|----------------|
|00 06 DE 0E 99 01 0C 01 00                      |.........       |
-------------------------------------------------------------------
[Server] packet : (0xA3) F_ACTIVE_EFFECTS  Size = 18 
|------------------------------------------------|----------------|
|00 01 02 03 04 05 06 07 08 09 0A 0B 0C 0D 0E 0F |0123456789ABCDEF|
|------------------------------------------------|----------------|
|00 0F A3 0E 99 01 0C 17 99 0E 01 00 03 01 BD A3 |................|
|FF 00                                           |..              |
-------------------------------------------------------------------