
[Client] packet : (0x0B) F_PING  Size = 32 
|------------------------------------------------|----------------|
|00 01 02 03 04 05 06 07 08 09 0A 0B 0C 0D 0E 0F |0123456789ABCDEF|
|------------------------------------------------|----------------|
|00 14 03 ED 00 2B 00 00 00 0B 00 03 C0 C2 8B 63 |.....+.........c|
|79 F8 1A DD E0 7A 00 00 00 00 00 00 00 00 20 83 |y....z........ .|                                                
-------------------------------------------------------------------
[Server] packet : (0x81) S_PONG  Size = 23 
|------------------------------------------------|----------------|
|00 01 02 03 04 05 06 07 08 09 0A 0B 0C 0D 0E 0F |0123456789ABCDEF|
|------------------------------------------------|----------------|
|00 14 81 00 03 C0 C2 52 75 8A 5E 00 00 00 00 00 |.......Ru.^.....|
|00 03 EE 00 00 00 00                            |.......         |
-------------------------------------------------------------------
[Client] packet : (0xD2) F_INTERACT  Size = 24 
|------------------------------------------------|----------------|
|00 01 02 03 04 05 06 07 08 09 0A 0B 0C 0D 0E 0F |0123456789ABCDEF|
|------------------------------------------------|----------------|
|00 0C 03 F0 00 2B 00 00 00 D2 00 00 00 1C 00 00 |.....+..........|
|00 00 00 00 00 00 00 00                         |........        |
-------------------------------------------------------------------
[Server] packet : (0x7E) F_SET_ABILITY_TIMER  Size = 15 
|------------------------------------------------|----------------|
|00 01 02 03 04 05 06 07 08 09 0A 0B 0C 0D 0E 0F |0123456789ABCDEF|
|------------------------------------------------|----------------|
|00 0C 7E 00 01 01 00 00 00 00 00 00 00 00 00    |............... |
-------------------------------------------------------------------
[Server] packet : (0xE9) F_INTERACT_RESPONSE  Size = 11 
|------------------------------------------------|----------------|
|00 01 02 03 04 05 06 07 08 09 0A 0B 0C 0D 0E 0F |0123456789ABCDEF|
|------------------------------------------------|----------------|
|00 08 E9 00 00 1C 00 00 00 02 00                |...........     |
-------------------------------------------------------------------
[Client] packet : (0xD2) F_INTERACT  Size = 24 
|------------------------------------------------|----------------|
|00 01 02 03 04 05 06 07 08 09 0A 0B 0C 0D 0E 0F |0123456789ABCDEF|
|------------------------------------------------|----------------|
|00 0C 03 F2 00 2B 00 00 00 D2 00 00 00 1C 00 09 |.....+..........|
|00 00 00 00 00 00 9D FB                         |........        |
-------------------------------------------------------------------
[Server] packet : (0xBF) F_INIT_STORE  Size = 1795 
|------------------------------------------------|----------------|
|00 01 02 03 04 05 06 07 08 09 0A 0B 0C 0D 0E 0F |0123456789ABCDEF|
|------------------------------------------------|----------------|
|07 00 BF 00 00 00 0F 01 01 04 00 00 02 00 00 00 |................|
|00 00 00 02 F0 F4 1E 84 00 00 00 00 00 00 00 00 |................|
|0F 18 00 01 00 00 01 02 00 00 00 00 00 00 00 00 |................|
|00 00 00 00 00 00 00 00 00 00 00 00 00 01 00 01 |................|
|00 00 00 00 00 00 00 00 00 00 00 00 12 41 73 70 |.............Asp|
|20 42 6F 6E 65 20 43 6F 6E 73 74 72 75 63 74 00 | Bone Construct.|
|00 00 00 00 00 00 00 01 00 00 03 02 00 08 00 00 |................|
|00 00 00 00 00 00 00 00 00 00 00 00 00 00 00 00 |................|
|00 00 01 02 00 00 00 00 00 00 02 F1 95 1F 60 00 |..............`.|
|00 00 00 00 00 00 00 0F 18 00 01 00 00 01 02 00 |................|
|00 00 00 00 00 00 00 00 00 00 00 00 00 00 00 00 |................|
|00 00 00 00 01 00 01 00 00 00 00 00 00 00 00 00 |................|
|00 00 00 15 53 63 61 72 61 62 20 42 6F 6E 65 20 |....Scarab Bone |
|43 6F 6E 73 74 72 75 63 74 00 00 00 00 00 00 00 |Construct.......|
|00 01 00 00 03 02 00 08 00 00 00 00 00 00 00 00 |................|
|00 00 00 00 00 00 00 00 00 00 00 00 02 02 00 00 |................|
|00 00 00 00 02 F0 FC 1E 8C 00 00 00 00 00 00 00 |................|
|00 0F 18 00 01 00 00 01 02 00 00 00 00 00 00 00 |................|
|00 00 00 00 00 00 00 00 00 00 00 00 00 00 01 00 |................|
|01 00 00 00 00 00 00 00 00 00 00 00 00 0D 54 6F |..............To|
|6D 62 20 53 63 6F 72 70 69 6F 6E 00 00 00 00 00 |mb Scorpion.....|
|00 00 00 01 00 00 03 02 00 08 00 00 00 00 00 00 |................|
|00 00 00 00 00 00 00 00 00 00 00 00 00 00 03 02 |................|
|00 00 00 00 00 00 02 F1 06 1E 96 00 00 00 00 00 |................|
|00 00 00 0F 18 00 01 00 00 01 02 00 00 00 00 00 |................|
|00 00 00 00 00 00 00 00 00 00 00 00 00 00 00 00 |................|
|01 00 01 00 00 00 00 00 00 00 00 00 00 00 00 07 |................|
|55 73 68 61 62 74 69 00 00 00 00 00 00 00 00 01 |Ushabti.........|
|00 00 03 02 00 08 00 00 00 00 00 00 00 00 00 00 |................|
|00 00 00 00 00 00 00 00 00 00 04 02 00 00 00 00 |................|
|00 00 02 F1 01 1E 91 00 00 00 00 00 00 00 00 0F |................|
|18 00 01 00 00 01 02 00 00 00 00 00 00 00 00 00 |................|
|00 00 00 00 00 00 00 00 00 00 00 00 01 00 01 00 |................|
|00 00 00 00 00 00 00 00 00 00 00 0A 54 6F 6D 62 |............Tomb|
|20 47 75 61 72 64 00 00 00 00 00 00 00 00 01 00 | Guard..........|
|00 03 02 00 08 00 00 00 00 00 00 00 00 00 00 00 |................|
|00 00 00 00 00 00 00 00 00 05 02 00 00 00 00 00 |................|
|00 02 F1 02 1E 92 00 00 00 00 00 00 00 00 0F 18 |................|
|00 01 00 00 01 02 00 00 00 00 00 00 00 00 00 00 |................|
|00 00 00 00 00 00 00 00 00 00 00 01 00 01 00 00 |................|
|00 00 00 00 00 00 00 00 00 00 0C 47 69 61 6E 74 |...........Giant|
|20 53 63 61 72 61 62 00 00 00 00 00 00 00 00 01 | Scarab.........|
|00 00 03 02 00 08 00 00 00 00 00 00 00 00 00 00 |................|
|00 00 00 00 00 00 00 00 00 00 06 02 00 00 00 00 |................|
|00 00 02 F1 05 1E 95 00 00 00 00 00 00 00 00 0F |................|
|18 00 01 00 00 01 02 00 00 00 00 00 00 00 00 00 |................|
|00 00 00 00 00 00 00 00 00 00 00 00 01 00 01 00 |................|
|00 00 00 00 00 00 00 00 00 00 00 0A 54 6F 6D 62 |............Tomb|
|20 53 77 61 72 6D 00 00 00 00 00 00 00 01 01 00 | Swarm..........|
|00 03 06 00 08 00 00 00 00 00 00 00 00 00 00 00 |................|
|00 00 00 00 00 00 00 00 00 07 02 00 00 00 00 00 |................|
|00 02 F1 03 1E 93 00 00 00 00 00 00 00 00 0F 18 |................|
|00 01 00 00 01 02 00 00 00 00 00 00 00 00 00 00 |................|
|00 00 00 00 00 00 00 00 00 00 00 01 00 01 00 00 |................|
|00 00 00 00 00 00 00 00 00 00 07 43 61 72 72 69 |...........Carri|
|6F 6E 00 00 00 00 00 00 00 00 01 00 00 03 02 00 |on..............|
|08 00 00 00 00 00 00 00 00 00 00 00 00 00 00 00 |................|
|00 00 00 00 00 08 03 00 00 00 00 00 00 03 2A 45 |..............*E|
|1E 81 00 00 00 00 00 00 00 00 0F 18 00 00 00 00 |................|
|01 01 00 00 00 00 00 00 00 00 00 00 00 00 00 00 |................|
|00 00 00 00 00 00 00 01 00 01 00 00 00 00 00 00 |................|
|00 00 00 00 00 00 1F 43 61 6E 6F 70 69 63 20 4A |.......Canopic J|
|61 72 20 6F 66 20 74 68 65 20 56 75 6C 74 75 72 |ar of the Vultur|
|65 20 4C 6F 72 64 00 00 00 00 00 00 00 00 01 00 |e Lord..........|
|00 03 02 00 00 00 00 00 00 00 00 00 00 00 00 00 |................|
|00 00 00 00 00 00 00 00 00 09 02 00 00 00 00 00 |................|
|00 03 2A 46 1E 82 00 00 00 00 00 00 00 00 0F 18 |..*F............|
|00 00 00 00 01 01 00 00 00 00 00 00 00 00 00 00 |................|
|00 00 00 00 00 00 00 00 00 00 00 01 00 01 00 00 |................|
|00 00 00 00 00 00 00 00 00 00 19 43 61 6E 6F 70 |...........Canop|
|69 63 20 4A 61 72 20 6F 66 20 74 68 65 20 4A 61 |ic Jar of the Ja|
|63 6B 61 6C 00 00 00 00 00 00 00 00 01 00 00 03 |ckal............|
|02 00 00 00 00 00 00 00 00 00 00 00 00 00 00 00 |................|
|00 00 00 00 00 00 00 0A 03 00 00 00 00 00 00 03 |................|
|2A 47 1E 83 00 00 00 00 00 00 00 00 0F 18 00 00 |*G..............|
|00 00 01 01 00 00 00 00 00 00 00 00 00 00 00 00 |................|
|00 00 00 00 00 00 00 00 00 01 00 01 00 00 00 00 |................|
|00 00 00 00 00 00 00 00 1B 43 61 6E 6F 70 69 63 |.........Canopic|
|20 4A 61 72 20 6F 66 20 74 68 65 20 53 6B 65 6C | Jar of the Skel|
|65 74 6F 6E 00 00 00 00 00 00 00 00 01 00 00 03 |eton............|
|02 00 00 00 00 00 00 00 00 00 00 00 00 00 00 00 |................|
|00 00 00 00 00 00 00 0B 03 00 00 00 00 00 00 03 |................|
|2A 49 1E 85 00 00 00 00 00 00 00 00 0F 18 00 00 |*I..............|
|00 00 01 01 00 00 00 00 00 00 00 00 00 00 00 00 |................|
|00 00 00 00 00 00 00 00 00 01 00 01 00 00 00 00 |................|
|00 00 00 00 00 00 00 00 25 43 61 6E 6F 70 69 63 |........%Canopic|
|20 4A 61 72 20 6F 66 20 74 68 65 20 42 6F 6E 65 | Jar of the Bone|
|20 41 73 70 20 43 6F 6E 73 74 72 75 63 74 00 00 | Asp Construct..|
|00 00 00 00 00 00 01 00 00 03 02 00 00 00 00 00 |................|
|00 00 00 00 00 00 00 00 00 00 00 00 00 00 00 00 |................|
|00 0C 02 00 00 00 00 00 00 03 2A 51 1E 8D 00 00 |..........*Q....|
|00 00 00 00 00 00 0F 18 00 00 00 00 01 01 00 00 |................|
|00 00 00 00 00 00 00 00 00 00 00 00 00 00 00 00 |................|
|00 00 00 01 00 01 00 00 00 00 00 00 00 00 00 00 |................|
|00 00 0F 53 63 6F 72 70 69 6F 6E 20 44 61 67 67 |...Scorpion Dagg|
|65 72 00 00 00 00 00 00 00 00 01 00 00 03 02 00 |er..............|
|00 00 00 00 00 00 00 00 00 00 00 00 00 00 00 00 |................|
|00 00 00 00 00 0D 02 00 00 00 00 00 00 03 2A 52 |..............*R|
|1E 8E 00 00 00 00 00 00 00 00 0F 18 00 00 00 00 |................|
|01 01 00 00 00 00 00 00 00 00 00 00 00 00 00 00 |................|
|00 00 00 00 00 00 00 01 00 01 00 00 00 00 00 00 |................|
|00 00 00 00 00 00 0B 49 6E 63 65 6E 73 65 20 42 |.......Incense B|
|6F 78 00 00 00 00 00 00 00 00 01 00 00 03 02 00 |ox..............|
|00 00 00 00 00 00 00 00 00 00 00 00 00 00 00 00 |................|
|00 00 00 00 00 0E 02 00 00 00 00 00 00 03 2A 58 |..............*X|
|1E 94 00 00 00 00 00 00 00 00 0F 18 00 00 00 00 |................|
|01 01 00 00 00 00 00 00 00 00 00 00 00 00 00 00 |................|
|00 00 00 00 00 00 00 01 00 01 00 00 00 00 00 00 |................|
|00 00 00 00 00 00 18 5A 65 70 70 65 6C 69 6E 20 |.......Zeppelin |
|44 65 73 74 72 6F 79 65 72 20 4D 65 64 61 6C 00 |Destroyer Medal.|
|00 00 00 00 00 00 01 01 00 00 03 06 00 00 00 00 |................|
|00 00 00 00 00 00 00 00 00 00 00 00 00 00 00 00 |................|
|00 00 00                                        |...             |
-------------------------------------------------------------------
[Server] packet : (0xBF) F_INIT_STORE  Size = 2396 
|------------------------------------------------|----------------|
|00 01 02 03 04 05 06 07 08 09 0A 0B 0C 0D 0E 0F |0123456789ABCDEF|
|------------------------------------------------|----------------|
|09 59 BF 00 00 01 12 00 01 04 00 03 00 00 00 00 |.Y..............|
|00 00 03 22 35 19 9C 00 00 00 00 00 00 00 00 0F |..."5...........|
|18 00 00 00 00 01 01 00 56 00 00 00 00 08 80 00 |........V.......|
|00 00 00 00 00 00 00 00 00 00 00 00 01 00 01 00 |................|
|00 00 00 00 00 00 00 00 00 00 00 1A 44 77 61 72 |............Dwar|
|76 65 6E 20 44 65 73 74 72 6F 79 65 72 2C 20 4F |ven Destroyer, O|
|6E 65 20 50 69 70 00 00 00 00 00 00 00 01 01 00 |ne Pip..........|
|00 03 06 00 00 00 00 00 00 00 00 00 00 00 00 00 |................|
|00 00 00 00 00 00 00 00 00 01 02 00 00 00 00 00 |................|
|00 03 22 36 19 9D 00 00 00 00 00 00 00 00 0F 18 |.."6............|
|00 00 00 00 01 01 00 56 00 00 00 00 08 80 00 00 |.......V........|
|00 00 00 00 00 00 00 00 00 00 00 01 00 01 00 00 |................|
|00 00 00 00 00 00 00 00 00 00 1B 44 77 61 72 76 |...........Dwarv|
|65 6E 20 44 65 73 74 72 6F 79 65 72 2C 20 54 77 |en Destroyer, Tw|
|6F 20 50 69 70 73 00 00 00 00 00 00 00 01 01 00 |o Pips..........|
|00 03 06 00 00 00 00 00 00 00 00 00 00 00 00 00 |................|
|00 00 00 00 00 00 00 00 00 02 02 00 00 00 00 00 |................|
|00 03 22 37 19 9E 00 00 00 00 00 00 00 00 0F 18 |.."7............|
|00 00 00 00 01 01 00 56 00 00 00 00 08 80 00 00 |.......V........|
|00 00 00 00 00 00 00 00 00 00 00 01 00 01 00 00 |................|
|00 00 00 00 00 00 00 00 00 00 1D 44 77 61 72 76 |...........Dwarv|
|65 6E 20 44 65 73 74 72 6F 79 65 72 2C 20 54 68 |en Destroyer, Th|
|72 65 65 20 50 69 70 73 00 00 00 00 00 00 00 01 |ree Pips........|
|01 00 00 03 06 00 00 00 00 00 00 00 00 00 00 00 |................|
|00 00 00 00 00 00 00 00 00 00 00 03 02 00 00 00 |................|
|00 00 00 03 22 38 19 9F 00 00 00 00 00 00 00 00 |...."8..........|
|0F 18 00 00 00 00 01 01 00 56 00 00 00 00 08 80 |.........V......|
|00 00 00 00 00 00 00 00 00 00 00 00 00 01 00 01 |................|
|00 00 00 00 00 00 00 00 00 00 00 00 21 47 6F 6C |............!Gol|
|64 65 6E 20 44 77 61 72 76 65 6E 20 44 65 73 74 |den Dwarven Dest|
|72 6F 79 65 72 2C 20 4F 6E 65 20 50 69 70 00 00 |royer, One Pip..|
|00 00 00 00 00 01 01 00 00 03 06 00 00 00 00 00 |................|
|00 00 00 00 00 00 00 00 00 00 00 00 00 00 00 00 |................|
|00 04 02 00 00 00 00 00 00 03 22 39 19 A0 00 00 |.........."9....|
|00 00 00 00 00 00 0F 18 00 00 00 00 01 01 00 56 |...............V|
|00 00 00 00 08 80 00 00 00 00 00 00 00 00 00 00 |................|
|00 00 00 01 00 01 00 00 00 00 00 00 00 00 00 00 |................|
|00 00 22 47 6F 6C 64 65 6E 20 44 77 61 72 76 65 |.."Golden Dwarve|
|6E 20 44 65 73 74 72 6F 79 65 72 2C 20 54 77 6F |n Destroyer, Two|
|20 50 69 70 73 00 00 00 00 00 00 00 01 01 00 00 | Pips...........|
|03 06 00 00 00 00 00 00 00 00 00 00 00 00 00 00 |................|
|00 00 00 00 00 00 00 00 05 02 00 00 00 00 00 00 |................|
|03 22 3A 19 A1 00 00 00 00 00 00 00 00 0F 18 00 |.":.............|
|00 00 00 01 01 00 56 00 00 00 00 08 80 00 00 00 |......V.........|
|00 00 00 00 00 00 00 00 00 00 01 00 01 00 00 00 |................|
|00 00 00 00 00 00 00 00 00 24 47 6F 6C 64 65 6E |.........$Golden|
|20 44 77 61 72 76 65 6E 20 44 65 73 74 72 6F 79 | Dwarven Destroy|
|65 72 2C 20 54 68 72 65 65 20 50 69 70 73 00 00 |er, Three Pips..|
|00 00 00 00 00 01 01 00 00 03 06 00 00 00 00 00 |................|
|00 00 00 00 00 00 00 00 00 00 00 00 00 00 00 00 |................|
|00 07 03 00 00 00 00 00 00 03 22 3B 19 A2 00 00 |..........";....|
|00 00 00 00 00 00 0F 18 00 00 00 00 01 01 00 56 |...............V|
|00 00 00 00 08 80 00 00 00 00 00 00 00 00 00 00 |................|
|00 00 00 01 00 01 00 00 00 00 00 00 00 00 00 00 |................|
|00 00 1A 45 6D 70 69 72 65 20 45 72 61 64 69 63 |...Empire Eradic|
|61 74 6F 72 2C 20 4F 6E 65 20 50 69 70 00 00 00 |ator, One Pip...|
|00 00 00 00 01 01 00 00 03 06 00 00 00 00 00 00 |................|
|00 00 00 00 00 00 00 00 00 00 00 00 00 00 00 00 |................|
|08 02 00 00 00 00 00 00 03 22 3C 19 A3 00 00 00 |........."<.....|
|00 00 00 00 00 0F 18 00 00 00 00 01 01 00 56 00 |..............V.|
|00 00 00 08 80 00 00 00 00 00 00 00 00 00 00 00 |................|
|00 00 01 00 01 00 00 00 00 00 00 00 00 00 00 00 |................|
|00 1B 45 6D 70 69 72 65 20 45 72 61 64 69 63 61 |..Empire Eradica|
|74 6F 72 2C 20 54 77 6F 20 50 69 70 73 00 00 00 |tor, Two Pips...|
|00 00 00 00 01 01 00 00 03 06 00 00 00 00 00 00 |................|
|00 00 00 00 00 00 00 00 00 00 00 00 00 00 00 00 |................|
|09 02 00 00 00 00 00 00 03 22 3D 19 A4 00 00 00 |........."=.....|
|00 00 00 00 00 0F 18 00 00 00 00 01 01 00 56 00 |..............V.|
|00 00 00 08 80 00 00 00 00 00 00 00 00 00 00 00 |................|
|00 00 01 00 01 00 00 00 00 00 00 00 00 00 00 00 |................|
|00 1D 45 6D 70 69 72 65 20 45 72 61 64 69 63 61 |..Empire Eradica|
|74 6F 72 2C 20 54 68 72 65 65 20 50 69 70 73 00 |tor, Three Pips.|
|00 00 00 00 00 00 01 01 00 00 03 06 00 00 00 00 |................|
|00 00 00 00 00 00 00 00 00 00 00 00 00 00 00 00 |................|
|00 00 0A 02 00 00 00 00 00 00 03 22 3E 19 A5 00 |...........">...|
|00 00 00 00 00 00 00 0F 18 00 00 00 00 01 01 00 |................|
|56 00 00 00 00 08 80 00 00 00 00 00 00 00 00 00 |V...............|
|00 00 00 00 01 00 01 00 00 00 00 00 00 00 00 00 |................|
|00 00 00 21 47 6F 6C 64 65 6E 20 45 6D 70 69 72 |...!Golden Empir|
|65 20 45 72 61 64 69 63 61 74 6F 72 2C 20 4F 6E |e Eradicator, On|
|65 20 50 69 70 00 00 00 00 00 00 00 01 01 00 00 |e Pip...........|
|03 06 00 00 00 00 00 00 00 00 00 00 00 00 00 00 |................|
|00 00 00 00 00 00 00 00 0B 02 00 00 00 00 00 00 |................|
|03 22 3F 19 A6 00 00 00 00 00 00 00 00 0F 18 00 |."?.............|
|00 00 00 01 01 00 56 00 00 00 00 08 80 00 00 00 |......V.........|
|00 00 00 00 00 00 00 00 00 00 01 00 01 00 00 00 |................|
|00 00 00 00 00 00 00 00 00 22 47 6F 6C 64 65 6E |........."Golden|
|20 45 6D 70 69 72 65 20 45 72 61 64 69 63 61 74 | Empire Eradicat|
|6F 72 2C 20 54 77 6F 20 50 69 70 73 00 00 00 00 |or, Two Pips....|
|00 00 00 01 01 00 00 03 06 00 00 00 00 00 00 00 |................|
|00 00 00 00 00 00 00 00 00 00 00 00 00 00 00 0C |................|
|02 00 00 00 00 00 00 03 22 40 19 A7 00 00 00 00 |........"@......|
|00 00 00 00 0F 18 00 00 00 00 01 01 00 56 00 00 |.............V..|
|00 00 08 80 00 00 00 00 00 00 00 00 00 00 00 00 |................|
|00 01 00 01 00 00 00 00 00 00 00 00 00 00 00 00 |................|
|24 47 6F 6C 64 65 6E 20 45 6D 70 69 72 65 20 45 |$Golden Empire E|
|72 61 64 69 63 61 74 6F 72 2C 20 54 68 72 65 65 |radicator, Three|
|20 50 69 70 73 00 00 00 00 00 00 00 01 01 00 00 | Pips...........|
|03 06 00 00 00 00 00 00 00 00 00 00 00 00 00 00 |................|
|00 00 00 00 00 00 00 00 0E 03 00 00 00 00 00 00 |................|
|03 22 41 19 A8 00 00 00 00 00 00 00 00 0F 18 00 |."A.............|
|00 00 00 01 01 00 56 00 00 00 00 08 80 00 00 00 |......V.........|
|00 00 00 00 00 00 00 00 00 00 01 00 01 00 00 00 |................|
|00 00 00 00 00 00 00 00 00 1C 48 69 67 68 20 45 |..........High E|
|6C 66 20 45 6C 69 6D 69 6E 61 74 6F 72 2C 20 4F |lf Eliminator, O|
|6E 65 20 50 69 70 00 00 00 00 00 00 00 01 01 00 |ne Pip..........|
|00 03 06 00 00 00 00 00 00 00 00 00 00 00 00 00 |................|
|00 00 00 00 00 00 00 00 00 0F 03 00 00 00 00 00 |................|
|00 03 22 42 19 A9 00 00 00 00 00 00 00 00 0F 18 |.."B............|
|00 00 00 00 01 01 00 56 00 00 00 00 08 80 00 00 |.......V........|
|00 00 00 00 00 00 00 00 00 00 00 01 00 01 00 00 |................|
|00 00 00 00 00 00 00 00 00 00 1D 48 69 67 68 20 |...........High |
|45 6C 66 20 45 6C 69 6D 69 6E 61 74 6F 72 2C 20 |Elf Eliminator, |
|54 77 6F 20 50 69 70 73 00 00 00 00 00 00 00 01 |Two Pips........|
|01 00 00 03 06 00 00 00 00 00 00 00 00 00 00 00 |................|
|00 00 00 00 00 00 00 00 00 00 00 10 02 00 00 00 |................|
|00 00 00 03 22 43 19 AA 00 00 00 00 00 00 00 00 |...."C..........|
|0F 18 00 00 00 00 01 01 00 56 00 00 00 00 08 80 |.........V......|
|00 00 00 00 00 00 00 00 00 00 00 00 00 01 00 01 |................|
|00 00 00 00 00 00 00 00 00 00 00 00 1F 48 69 67 |.............Hig|
|68 20 45 6C 66 20 45 6C 69 6D 69 6E 61 74 6F 72 |h Elf Eliminator|
|2C 20 54 68 72 65 65 20 50 69 70 73 00 00 00 00 |, Three Pips....|
|00 00 00 01 01 00 00 03 06 00 00 00 00 00 00 00 |................|
|00 00 00 00 00 00 00 00 00 00 00 00 00 00 00 11 |................|
|02 00 00 00 00 00 00 03 22 44 19 AB 00 00 00 00 |........"D......|
|00 00 00 00 0F 18 00 00 00 00 01 01 00 56 00 00 |.............V..|
|00 00 08 80 00 00 00 00 00 00 00 00 00 00 00 00 |................|
|00 01 00 01 00 00 00 00 00 00 00 00 00 00 00 00 |................|
|23 47 6F 6C 64 65 6E 20 48 69 67 68 20 45 6C 66 |#Golden High Elf|
|20 45 6C 69 6D 69 6E 61 74 6F 72 2C 20 4F 6E 65 | Eliminator, One|
|20 50 69 70 00 00 00 00 00 00 00 01 01 00 00 03 | Pip............|
|06 00 00 00 00 00 00 00 00 00 00 00 00 00 00 00 |................|
|00 00 00 00 00 00 00 12 02 00 00 00 00 00 00 03 |................|
|22 45 19 AC 00 00 00 00 00 00 00 00 0F 18 00 00 |"E..............|
|00 00 01 01 00 56 00 00 00 00 08 80 00 00 00 00 |.....V..........|
|00 00 00 00 00 00 00 00 00 01 00 01 00 00 00 00 |................|
|00 00 00 00 00 00 00 00 24 47 6F 6C 64 65 6E 20 |........$Golden |
|48 69 67 68 20 45 6C 66 20 45 6C 69 6D 69 6E 61 |High Elf Elimina|
|74 6F 72 2C 20 54 77 6F 20 50 69 70 73 00 00 00 |tor, Two Pips...|
|00 00 00 00 01 01 00 00 03 06 00 00 00 00 00 00 |................|
|00 00 00 00 00 00 00 00 00 00 00 00 00 00 00 00 |................|
|13 02 00 00 00 00 00 00 03 22 46 19 AD 00 00 00 |........."F.....|
|00 00 00 00 00 0F 18 00 00 00 00 01 01 00 56 00 |..............V.|
|00 00 00 08 80 00 00 00 00 00 00 00 00 00 00 00 |................|
|00 00 01 00 01 00 00 00 00 00 00 00 00 00 00 00 |................|
|00 26 47 6F 6C 64 65 6E 20 48 69 67 68 20 45 6C |.&Golden High El|
|66 20 45 6C 69 6D 69 6E 61 74 6F 72 2C 20 54 68 |f Eliminator, Th|
|72 65 65 20 50 69 70 73 00 00 00 00 00 00 00 01 |ree Pips........|
|01 00 00 03 06 00 00 00 00 00 00 00 00 00 00 00 |................|
|00 00 00 00 00 00 00 00 00 00 00 00             |............    |
-------------------------------------------------------------------
[Server] packet : (0xBF) F_INIT_STORE  Size = 2155 
|------------------------------------------------|----------------|
|00 01 02 03 04 05 06 07 08 09 0A 0B 0C 0D 0E 0F |0123456789ABCDEF|
|------------------------------------------------|----------------|
|08 68 BF 00 00 02 12 00 01 04 00 02 00 00 00 00 |.h..............|
|00 00 03 21 FE 19 65 00 00 00 00 00 00 00 00 0F |...!..e.........|
|18 00 00 00 00 01 01 00 56 00 00 00 00 08 00 00 |........V.......|
|00 00 00 00 00 00 00 00 00 00 00 00 01 00 01 00 |................|
|00 00 00 00 00 00 00 00 00 00 00 15 43 68 69 63 |............Chic|
|6B 65 6E 20 54 69 65 72 20 31 20 52 61 6E 6B 20 |ken Tier 1 Rank |
|31 00 00 00 00 00 00 00 01 01 00 00 03 06 00 00 |1...............|
|00 00 00 00 00 00 00 00 00 00 00 00 00 00 00 00 |................|
|00 00 00 00 01 02 00 00 00 00 00 00 03 21 FF 19 |.............!..|
|66 00 00 00 00 00 00 00 00 0F 18 00 00 00 00 01 |f...............|
|01 00 56 00 00 00 00 08 00 00 00 00 00 00 00 00 |..V.............|
|00 00 00 00 00 00 01 00 01 00 00 00 00 00 00 00 |................|
|00 00 00 00 00 15 43 68 69 63 6B 65 6E 20 54 69 |......Chicken Ti|
|65 72 20 31 20 52 61 6E 6B 20 32 00 00 00 00 00 |er 1 Rank 2.....|
|00 00 01 01 00 00 03 06 00 00 00 00 00 00 00 00 |................|
|00 00 00 00 00 00 00 00 00 00 00 00 00 00 02 02 |................|
|00 00 00 00 00 00 03 22 00 19 67 00 00 00 00 00 |......."..g.....|
|00 00 00 0F 18 00 00 00 00 01 01 00 56 00 00 00 |............V...|
|00 08 00 00 00 00 00 00 00 00 00 00 00 00 00 00 |................|
|01 00 01 00 00 00 00 00 00 00 00 00 00 00 00 15 |................|
|43 68 69 63 6B 65 6E 20 54 69 65 72 20 31 20 52 |Chicken Tier 1 R|
|61 6E 6B 20 33 00 00 00 00 00 00 00 01 01 00 00 |ank 3...........|
|03 06 00 00 00 00 00 00 00 00 00 00 00 00 00 00 |................|
|00 00 00 00 00 00 00 00 03 02 00 00 00 00 00 00 |................|
|03 22 01 19 68 00 00 00 00 00 00 00 00 0F 18 00 |."..h...........|
|00 00 00 01 01 00 56 00 00 00 00 08 00 00 00 00 |......V.........|
|00 00 00 00 00 00 00 00 00 00 01 00 01 00 00 00 |................|
|00 00 00 00 00 00 00 00 00 15 43 68 69 63 6B 65 |..........Chicke|
|6E 20 54 69 65 72 20 32 20 52 61 6E 6B 20 31 00 |n Tier 2 Rank 1.|
|00 00 00 00 00 00 01 01 00 00 03 06 00 00 00 00 |................|
|00 00 00 00 00 00 00 00 00 00 00 00 00 00 00 00 |................|
|00 00 04 02 00 00 00 00 00 00 03 22 02 19 69 00 |..........."..i.|
|00 00 00 00 00 00 00 0F 18 00 00 00 00 01 01 00 |................|
|56 00 00 00 00 08 00 00 00 00 00 00 00 00 00 00 |V...............|
|00 00 00 00 01 00 01 00 00 00 00 00 00 00 00 00 |................|
|00 00 00 15 43 68 69 63 6B 65 6E 20 54 69 65 72 |....Chicken Tier|
|20 32 20 52 61 6E 6B 20 32 00 00 00 00 00 00 00 | 2 Rank 2.......|
|01 01 00 00 03 06 00 00 00 00 00 00 00 00 00 00 |................|
|00 00 00 00 00 00 00 00 00 00 00 00 05 02 00 00 |................|
|00 00 00 00 03 22 03 19 6A 00 00 00 00 00 00 00 |....."..j.......|
|00 0F 18 00 00 00 00 01 01 00 56 00 00 00 00 08 |..........V.....|
|00 00 00 00 00 00 00 00 00 00 00 00 00 00 01 00 |................|
|01 00 00 00 00 00 00 00 00 00 00 00 00 15 43 68 |..............Ch|
|69 63 6B 65 6E 20 54 69 65 72 20 32 20 52 61 6E |icken Tier 2 Ran|
|6B 20 33 00 00 00 00 00 00 00 01 01 00 00 03 06 |k 3.............|
|00 00 00 00 00 00 00 00 00 00 00 00 00 00 00 00 |................|
|00 00 00 00 00 00 06 02 00 00 00 00 00 00 03 22 |..............."|
|04 19 6B 00 00 00 00 00 00 00 00 0F 18 00 00 00 |..k.............|
|00 01 01 00 56 00 00 00 00 08 00 00 00 00 00 00 |....V...........|
|00 00 00 00 00 00 00 00 01 00 01 00 00 00 00 00 |................|
|00 00 00 00 00 00 00 15 43 68 69 63 6B 65 6E 20 |........Chicken |
|54 69 65 72 20 33 20 52 61 6E 6B 20 31 00 00 00 |Tier 3 Rank 1...|
|00 00 00 00 01 01 00 00 03 06 00 00 00 00 00 00 |................|
|00 00 00 00 00 00 00 00 00 00 00 00 00 00 00 00 |................|
|07 02 00 00 00 00 00 00 03 22 05 19 6C 00 00 00 |........."..l...|
|00 00 00 00 00 0F 18 00 00 00 00 01 01 00 56 00 |..............V.|
|00 00 00 08 00 00 00 00 00 00 00 00 00 00 00 00 |................|
|00 00 01 00 01 00 00 00 00 00 00 00 00 00 00 00 |................|
|00 15 43 68 69 63 6B 65 6E 20 54 69 65 72 20 33 |..Chicken Tier 3|
|20 52 61 6E 6B 20 32 00 00 00 00 00 00 00 01 01 | Rank 2.........|
|00 00 03 06 00 00 00 00 00 00 00 00 00 00 00 00 |................|
|00 00 00 00 00 00 00 00 00 00 08 02 00 00 00 00 |................|
|00 00 03 22 06 19 6D 00 00 00 00 00 00 00 00 0F |..."..m.........|
|18 00 00 00 00 01 01 00 56 00 00 00 00 08 00 00 |........V.......|
|00 00 00 00 00 00 00 00 00 00 00 00 01 00 01 00 |................|
|00 00 00 00 00 00 00 00 00 00 00 15 43 68 69 63 |............Chic|
|6B 65 6E 20 54 69 65 72 20 33 20 52 61 6E 6B 20 |ken Tier 3 Rank |
|33 00 00 00 00 00 00 00 01 01 00 00 03 06 00 00 |3...............|
|00 00 00 00 00 00 00 00 00 00 00 00 00 00 00 00 |................|
|00 00 00 00 0A 02 00 00 00 00 00 00 03 22 9A 1A |............."..|
|01 00 00 00 00 00 00 00 00 0F 18 00 00 00 00 01 |................|
|01 00 00 00 00 00 00 08 80 00 00 00 00 00 00 00 |................|
|00 00 00 00 00 00 01 00 01 00 00 00 00 00 00 00 |................|
|00 00 00 00 00 0D 54 68 65 20 49 72 6F 6E 20 52 |......The Iron R|
|61 6E 6B 00 00 00 00 00 00 00 01 01 00 00 03 06 |ank.............|
|00 00 00 00 00 00 00 00 00 00 00 00 00 00 00 00 |................|
|00 00 00 00 00 00 0B 02 00 00 00 00 00 00 03 22 |..............."|
|9D 1A 04 00 00 00 00 00 00 00 00 0F 18 00 00 00 |................|
|00 01 01 00 00 00 00 00 00 08 80 00 00 00 00 00 |................|
|00 00 00 00 00 00 00 00 01 00 01 00 00 00 00 00 |................|
|00 00 00 00 00 00 00 0F 54 68 65 20 53 69 6C 76 |........The Silv|
|65 72 20 52 61 6E 6B 00 00 00 00 00 00 00 01 01 |er Rank.........|
|00 00 03 06 00 00 00 00 00 00 00 00 00 00 00 00 |................|
|00 00 00 00 00 00 00 00 00 00 0C 02 00 00 00 00 |................|
|00 00 03 22 A0 1A 07 00 00 00 00 00 00 00 00 0F |..."............|
|18 00 00 00 00 01 01 00 00 00 00 00 00 08 80 00 |................|
|00 00 00 00 00 00 00 00 00 00 00 00 01 00 01 00 |................|
|00 00 00 00 00 00 00 00 00 00 00 0D 54 68 65 20 |............The |
|47 6F 6C 64 20 52 61 6E 6B 00 00 00 00 00 00 00 |Gold Rank.......|
|01 01 00 00 03 06 00 00 00 00 00 00 00 00 00 00 |................|
|00 00 00 00 00 00 00 00 00 00 00 00 0E 02 00 00 |................|
|00 00 00 00 03 22 A3 1A 0A 00 00 00 00 00 00 00 |....."..........|
|00 0F 18 00 00 00 00 01 01 00 00 00 00 00 00 08 |................|
|80 00 00 00 00 00 00 00 00 00 00 00 00 00 01 00 |................|
|01 00 00 00 00 00 00 00 00 00 00 00 00 0F 49 72 |..............Ir|
|6F 6E 20 48 65 61 72 74 20 52 61 6E 6B 00 00 00 |on Heart Rank...|
|00 00 00 00 01 01 00 00 03 06 00 00 00 00 00 00 |................|
|00 00 00 00 00 00 00 00 00 00 00 00 00 00 00 00 |................|
|0F 02 00 00 00 00 00 00 03 22 A4 1A 0B 00 00 00 |........."......|
|00 00 00 00 00 0F 18 00 00 00 00 01 01 00 00 00 |................|
|00 00 00 08 80 00 00 00 00 00 00 00 00 00 00 00 |................|
|00 00 01 00 01 00 00 00 00 00 00 00 00 00 00 00 |................|
|00 0F 49 72 6F 6E 20 48 65 61 72 74 20 52 61 6E |..Iron Heart Ran|
|6B 00 00 00 00 00 00 00 01 01 00 00 03 06 00 00 |k...............|
|00 00 00 00 00 00 00 00 00 00 00 00 00 00 00 00 |................|
|00 00 00 00 10 02 00 00 00 00 00 00 03 22 A5 1A |............."..|
|0C 00 00 00 00 00 00 00 00 0F 18 00 00 00 00 01 |................|
|01 00 00 00 00 00 00 08 80 00 00 00 00 00 00 00 |................|
|00 00 00 00 00 00 01 00 01 00 00 00 00 00 00 00 |................|
|00 00 00 00 00 0F 49 72 6F 6E 20 48 65 61 72 74 |......Iron Heart|
|20 52 61 6E 6B 00 00 00 00 00 00 00 01 01 00 00 | Rank...........|
|03 06 00 00 00 00 00 00 00 00 00 00 00 00 00 00 |................|
|00 00 00 00 00 00 00 00 11 03 00 00 00 00 00 00 |................|
|03 22 A6 1A 0D 00 00 00 00 00 00 00 00 0F 18 00 |."..............|
|00 00 00 01 01 00 00 00 00 00 00 08 80 00 00 00 |................|
|00 00 00 00 00 00 00 00 00 00 01 00 01 00 00 00 |................|
|00 00 00 00 00 00 00 00 00 11 53 69 6C 76 65 72 |..........Silver|
|20 48 65 61 72 74 20 52 61 6E 6B 00 00 00 00 00 | Heart Rank.....|
|00 00 01 01 00 00 03 06 00 00 00 00 00 00 00 00 |................|
|00 00 00 00 00 00 00 00 00 00 00 00 00 00 12 02 |................|
|00 00 00 00 00 00 03 22 A7 1A 0E 00 00 00 00 00 |......."........|
|00 00 00 0F 18 00 00 00 00 01 01 00 00 00 00 00 |................|
|00 08 80 00 00 00 00 00 00 00 00 00 00 00 00 00 |................|
|01 00 01 00 00 00 00 00 00 00 00 00 00 00 00 11 |................|
|53 69 6C 76 65 72 20 48 65 61 72 74 20 52 61 6E |Silver Heart Ran|
|6B 00 00 00 00 00 00 00 01 01 00 00 03 06 00 00 |k...............|
|00 00 00 00 00 00 00 00 00 00 00 00 00 00 00 00 |................|
|00 00 00 00 13 02 00 00 00 00 00 00 03 22 A8 1A |............."..|
|0F 00 00 00 00 00 00 00 00 0F 18 00 00 00 00 01 |................|
|01 00 00 00 00 00 00 08 80 00 00 00 00 00 00 00 |................|
|00 00 00 00 00 00 01 00 01 00 00 00 00 00 00 00 |................|
|00 00 00 00 00 11 53 69 6C 76 65 72 20 48 65 61 |......Silver Hea|
|72 74 20 52 61 6E 6B 00 00 00 00 00 00 00 01 01 |rt Rank.........|
|00 00 03 06 00 00 00 00 00 00 00 00 00 00 00 00 |................|
|00 00 00 00 00 00 00 00 00 00 00                |...........     |
-------------------------------------------------------------------
[Server] packet : (0xC0) F_STORE_BUY_BACK  Size = 5 
|------------------------------------------------|----------------|
|00 01 02 03 04 05 06 07 08 09 0A 0B 0C 0D 0E 0F |0123456789ABCDEF|
|------------------------------------------------|----------------|
|00 02 C0 00 00                                  |.....           |
-------------------------------------------------------------------
[Client] packet : (0x0B) F_PING  Size = 32 
|------------------------------------------------|----------------|
|00 01 02 03 04 05 06 07 08 09 0A 0B 0C 0D 0E 0F |0123456789ABCDEF|
|------------------------------------------------|----------------|
|00 14 03 FB 00 2B 00 00 00 0B 00 03 D3 D1 8F 38 |.....+.........8|
|11 17 29 41 35 BB 00 00 00 00 00 00 00 00 20 83 |..)A5......... .|                                                
-------------------------------------------------------------------
[Server] packet : (0x81) S_PONG  Size = 23 
|------------------------------------------------|----------------|
|00 01 02 03 04 05 06 07 08 09 0A 0B 0C 0D 0E 0F |0123456789ABCDEF|
|------------------------------------------------|----------------|
|00 14 81 00 03 D3 D1 52 75 8A 62 00 00 00 00 00 |.......Ru.b.....|
|00 03 FC 00 00 00 00                            |.......         |
-------------------------------------------------------------------
[Client] packet : (0x01) UNKNOWN  Size = 32 
|------------------------------------------------|----------------|
|00 01 02 03 04 05 06 07 08 09 0A 0B 0C 0D 0E 0F |0123456789ABCDEF|
|------------------------------------------------|----------------|
|00 14 03 FD 00 2B 00 00 00 01 00 03 D3 90 00 00 |.....+..........|
|00 00 00 00 00 00 00 00 44 09 00 00 2C B0 F6 76 |........D...,..v|                                                
-------------------------------------------------------------------
[Server] packet : (0x00) UNKNOWN  Size = 23 
|------------------------------------------------|----------------|
|00 01 02 03 04 05 06 07 08 09 0A 0B 0C 0D 0E 0F |0123456789ABCDEF|
|------------------------------------------------|----------------|
|00 14 00 00 03 D3 90 7C A4 A4 CF 00 00 00 00 00 |.......|........|
|00 44 09 00 00 2C 00                            |.......         |
-------------------------------------------------------------------
[Client] packet : (0x16) F_REQUEST_INIT_OBJECT  Size = 16 
|------------------------------------------------|----------------|
|00 01 02 03 04 05 06 07 08 09 0A 0B 0C 0D 0E 0F |0123456789ABCDEF|
|------------------------------------------------|----------------|
|00 04 03 FF 00 2B 00 00 00 16 01 0C 00 00 39 04 |.....+........9.|                                                
-------------------------------------------------------------------
[Server] packet : (0x72) F_CREATE_MONSTER  Size = 126 
|------------------------------------------------|----------------|
|00 01 02 03 04 05 06 07 08 09 0A 0B 0C 0D 0E 0F |0123456789ABCDEF|
|------------------------------------------------|----------------|
|00 7B 72 01 0C 00 00 00 4F 42 A6 00 06 9F 5D 00 |.{r.....OB....].|
|02 1D 14 00 00 06 06 32 18 80 00 00 00 00 72 00 |.......2......r.|
|00 01 00 03 E8 00 00 00 00 B7 F3 00 08 00 00 01 |................|
|19 00 41 6E 63 69 65 6E 74 20 57 61 6C 6B 65 72 |..Ancient Walker|
|5E 6D 00 00 00 00 08 01 0A 00 00 00 12 1D 00 01 |^m..............|
|0C 5F 5D 9D 14 42 A6 64 00 A1 00 00 00 00 08 4F |._]..B.d.......O|
|00 01 0C 00 06 00 14 11 5A 00 15 11 5C 00 16 11 |........Z...\...|
|5B 00 17 11 5E 00 18 11 5D 00 1C 11 59 00       |..............  |
-------------------------------------------------------------------
[Client] packet : (0x5A) F_PING_DATAGRAM  Size = 13 
|------------------------------------------------|----------------|
|00 01 02 03 04 05 06 07 08 09 0A 0B 0C 0D 0E 0F |0123456789ABCDEF|
|------------------------------------------------|----------------|
|00 01 04 00 00 2B FF FF 00 5A 00 A9 7A          |.............   |
-------------------------------------------------------------------
[Client] packet : (0x86) F_MAIL  Size = 16 
|------------------------------------------------|----------------|
|00 01 02 03 04 05 06 07 08 09 0A 0B 0C 0D 0E 0F |0123456789ABCDEF|
|------------------------------------------------|----------------|
|00 04 04 02 00 2B FF FF 00 86 00 00 00 00 00 00 |.....+..........|                                                
-------------------------------------------------------------------