
[Client] packet : (0x0B) F_PING  Size = 32 
|------------------------------------------------|----------------|
|00 01 02 03 04 05 06 07 08 09 0A 0B 0C 0D 0E 0F |0123456789ABCDEF|
|------------------------------------------------|----------------|
|00 14 D3 67 00 1F 00 00 00 0B 00 B6 E1 42 6D FB |...g.........Bm.|
|3F F7 BE 9A F9 FB 00 00 00 00 00 00 00 00 C0 88 |?...............|                                                
-------------------------------------------------------------------
[Client] packet : (0xD2) F_INTERACT  Size = 24 
|------------------------------------------------|----------------|
|00 01 02 03 04 05 06 07 08 09 0A 0B 0C 0D 0E 0F |0123456789ABCDEF|
|------------------------------------------------|----------------|
|00 0C D3 6A 00 1F 00 00 00 D2 00 00 04 39 00 00 |...j.........9..|
|00 00 00 00 00 00 00 00                         |........        |
-------------------------------------------------------------------
[Client] packet : (0xE8) F_CLIENT_DATA  Size = 20 
|------------------------------------------------|----------------|
|00 01 02 03 04 05 06 07 08 09 0A 0B 0C 0D 0E 0F |0123456789ABCDEF|
|------------------------------------------------|----------------|
|00 08 D3 6C 00 1F 00 00 00 E8 00 A4 00 04 4E 38 |...l..........N8|
|01 00 00 00                                     |....            |
-------------------------------------------------------------------
[Client] packet : (0xE8) F_CLIENT_DATA  Size = 20 
|------------------------------------------------|----------------|
|00 01 02 03 04 05 06 07 08 09 0A 0B 0C 0D 0E 0F |0123456789ABCDEF|
|------------------------------------------------|----------------|
|00 08 D3 6D 00 1F 00 00 00 E8 00 24 00 04 74 21 |...m.......$..t!|
|01 00 91 62                                     |....            |
-------------------------------------------------------------------
[Server] packet : (0x72) F_CREATE_MONSTER  Size = 103 
|------------------------------------------------|----------------|
|00 01 02 03 04 05 06 07 08 09 0A 0B 0C 0D 0E 0F |0123456789ABCDEF|
|------------------------------------------------|----------------|
|00 64 72 23 54 00 00 0B E9 51 B5 00 05 63 56 00 |.dr#T....Q...cV.|
|03 DC 53 00 00 04 8F 32 28 A1 00 00 00 00 00 00 |..S....2(.......|
|00 05 00 03 E8 00 00 00 01 40 83 00 00 00 00 01 |.........@......|
|19 00 52 69 64 69 6E 67 20 57 79 76 65 72 6E 5E |..Riding Wyvern^|
|6D 00 00 00 00 0C 00 96 01 0A 00 00 00 12 05 00 |m...............|
|23 54 63 56 5C 53 51 B5 64 20 B2 00 00 00 00 0C |#TcV\SQ.d ......|
|E9 0B 23 54 00 00 00                            |.......         |
-------------------------------------------------------------------
[Server] packet : (0x81) S_PONG  Size = 23 
|------------------------------------------------|----------------|
|00 01 02 03 04 05 06 07 08 09 0A 0B 0C 0D 0E 0F |0123456789ABCDEF|
|------------------------------------------------|----------------|
|00 14 81 00 B6 CD B1 52 75 88 19 00 00 00 00 00 |.......Ru.......|
|00 D3 5D 00 00 00 00                            |.......         |
-------------------------------------------------------------------
[Server] packet : (0x0A) F_OBJECT_DEATH  Size = 15 
|------------------------------------------------|----------------|
|00 01 02 03 04 05 06 07 08 09 0A 0B 0C 0D 0E 0F |0123456789ABCDEF|
|------------------------------------------------|----------------|
|00 0C 0A 21 50 00 00 00 00 00 00 00 00 00 00    |............... |
-------------------------------------------------------------------
[Server] packet : (0x81) S_PONG  Size = 23 
|------------------------------------------------|----------------|
|00 01 02 03 04 05 06 07 08 09 0A 0B 0C 0D 0E 0F |0123456789ABCDEF|
|------------------------------------------------|----------------|
|00 14 81 00 B6 E1 42 52 75 88 1E 00 00 00 00 00 |......BRu.......|
|00 D3 68 00 00 00 00                            |.......         |
-------------------------------------------------------------------
[Server] packet : (0x7E) F_SET_ABILITY_TIMER  Size = 15 
|------------------------------------------------|----------------|
|00 01 02 03 04 05 06 07 08 09 0A 0B 0C 0D 0E 0F |0123456789ABCDEF|
|------------------------------------------------|----------------|
|00 0C 7E 00 01 01 00 00 00 00 00 00 00 00 00    |............... |
-------------------------------------------------------------------
[Server] packet : (0xE9) F_INTERACT_RESPONSE  Size = 86 
|------------------------------------------------|----------------|
|00 01 02 03 04 05 06 07 08 09 0A 0B 0C 0D 0E 0F |0123456789ABCDEF|
|------------------------------------------------|----------------|
|00 53 E9 00 04 39 00 00 00 22 00 49 41 72 6D 6F |.S...9...".IArmo|
|72 20 61 6E 64 20 73 77 6F 72 64 20 62 65 6E 64 |r and sword bend|
|20 74 6F 20 6D 79 20 77 69 6C 6C 2E 20 20 42 65 | to my will.  Be|
|68 6F 6C 64 21 20 20 54 68 65 20 66 72 75 69 74 |hold!  The fruit|
|73 20 6F 66 20 6D 79 20 67 69 66 74 65 64 20 77 |s of my gifted w|
|6F 72 6B 73 2E 00                               |......          |
-------------------------------------------------------------------
[Server] packet : (0xD7) F_INIT_EFFECTS  Size = 26 
|------------------------------------------------|----------------|
|00 01 02 03 04 05 06 07 08 09 0A 0B 0C 0D 0E 0F |0123456789ABCDEF|
|------------------------------------------------|----------------|
|00 17 D7 01 00 3F 39 04 39 01 00 5C 17 BC 8B 8D |.....?9.9..\....|
|02 39 04 02 00 90 03 01 02 00                   |..........      |
-------------------------------------------------------------------
[Client] packet : (0x5A) F_PING_DATAGRAM  Size = 13 
|------------------------------------------------|----------------|
|00 01 02 03 04 05 06 07 08 09 0A 0B 0C 0D 0E 0F |0123456789ABCDEF|
|------------------------------------------------|----------------|
|00 01 D3 70 00 1F FF FF 00 5A 00 A1 62          |.............   |
-------------------------------------------------------------------
[Client] packet : (0xD2) F_INTERACT  Size = 24 
|------------------------------------------------|----------------|
|00 01 02 03 04 05 06 07 08 09 0A 0B 0C 0D 0E 0F |0123456789ABCDEF|
|------------------------------------------------|----------------|
|00 0C D3 71 00 1F 00 00 00 D2 00 00 04 39 00 09 |...q.........9..|
|00 00 00 00 00 00 00 00                         |........        |
-------------------------------------------------------------------
[Server] packet : (0xBF) F_INIT_STORE  Size = 12 
|------------------------------------------------|----------------|
|00 01 02 03 04 05 06 07 08 09 0A 0B 0C 0D 0E 0F |0123456789ABCDEF|
|------------------------------------------------|----------------|
|00 09 BF 00 00 00 00 01 01 00 00 00             |............    |
-------------------------------------------------------------------
[Server] packet : (0xBF) F_INIT_STORE  Size = 726 
|------------------------------------------------|----------------|
|00 01 02 03 04 05 06 07 08 09 0A 0B 0C 0D 0E 0F |0123456789ABCDEF|
|------------------------------------------------|----------------|
|02 D3 BF 00 00 01 03 00 01 00 00 03 00 00 4E 20 |..............N |
|00 00 02 DD 38 18 2C 00 00 00 00 00 00 00 00 0E |....8.,.........|
|1A 00 01 00 00 00 01 00 56 00 00 00 00 00 00 00 |........V.......|
|00 00 00 1F 40 00 01 00 01 00 00 00 00 00 00 00 |....@...........|
|00 00 00 00 00 16 57 61 72 70 65 64 20 42 61 74 |......Warped Bat|
|74 6C 65 20 53 74 61 6E 64 61 72 64 00 00 02 00 |tle Standard....|
|00 38 A4 00 00 00 00 00 00 38 A7 00 00 00 00 00 |.8.......8......|
|00 00 5F 54 6F 20 61 63 74 69 76 61 74 65 20 74 |.._To activate t|
|68 69 73 20 53 74 61 6E 64 61 72 64 2C 20 65 71 |his Standard, eq|
|75 69 70 20 69 74 20 61 6E 64 20 74 68 65 6E 20 |uip it and then |
|64 72 61 67 20 69 74 20 66 72 6F 6D 20 79 6F 75 |drag it from you|
|72 20 43 68 61 72 61 63 74 65 72 20 57 69 6E 64 |r Character Wind|
|6F 77 20 74 6F 20 79 6F 75 72 20 68 6F 74 62 61 |ow to your hotba|
|72 2E 01 01 00 00 03 06 00 08 00 00 00 00 00 00 |r...............|
|00 00 00 00 00 00 01 02 15 01 6C C8 01 01 01 02 |..........l.....|
|00 00 00 00 00 00 00 01 03 00 00 4E 20 00 00 02 |...........N ...|
|DD 39 18 2D 00 00 00 00 00 00 00 00 0E 1A 00 01 |.9.-............|
|00 00 00 01 00 56 00 00 00 00 00 00 00 00 00 00 |.....V..........|
|1F 40 00 01 00 01 00 00 00 00 00 00 00 00 00 00 |.@..............|
|00 00 18 42 6C 6F 6F 64 69 65 64 20 42 61 74 74 |...Bloodied Batt|
|6C 65 20 53 74 61 6E 64 61 72 64 00 00 02 00 00 |le Standard.....|
|38 A5 00 00 00 00 00 00 38 A8 00 00 00 00 00 00 |8.......8.......|
|00 5F 54 6F 20 61 63 74 69 76 61 74 65 20 74 68 |._To activate th|
|69 73 20 53 74 61 6E 64 61 72 64 2C 20 65 71 75 |is Standard, equ|
|69 70 20 69 74 20 61 6E 64 20 74 68 65 6E 20 64 |ip it and then d|
|72 61 67 20 69 74 20 66 72 6F 6D 20 79 6F 75 72 |rag it from your|
|20 43 68 61 72 61 63 74 65 72 20 57 69 6E 64 6F | Character Windo|
|77 20 74 6F 20 79 6F 75 72 20 68 6F 74 62 61 72 |w to your hotbar|
|2E 01 01 00 00 03 06 00 08 00 00 00 00 00 00 00 |................|
|00 00 00 00 00 01 02 15 01 6C C8 01 01 01 02 00 |.........l......|
|00 00 00 00 00 00 02 03 00 00 4E 20 00 00 02 DD |..........N ....|
|3A 18 2E 00 00 00 00 00 00 00 00 0E 1A 00 01 00 |:...............|
|00 00 01 00 56 00 00 00 00 00 00 00 00 00 00 1F |....V...........|
|40 00 01 00 01 00 00 00 00 00 00 00 00 00 00 00 |@...............|
|00 18 43 6F 72 72 75 70 74 65 72 27 73 20 57 61 |..Corrupter's Wa|
|72 20 53 74 61 6E 64 61 72 64 00 00 02 00 00 38 |r Standard.....8|
|A6 00 00 00 00 00 00 38 A9 00 00 00 00 00 00 00 |.......8........|
|5F 54 6F 20 61 63 74 69 76 61 74 65 20 74 68 69 |_To activate thi|
|73 20 53 74 61 6E 64 61 72 64 2C 20 65 71 75 69 |s Standard, equi|
|70 20 69 74 20 61 6E 64 20 74 68 65 6E 20 64 72 |p it and then dr|
|61 67 20 69 74 20 66 72 6F 6D 20 79 6F 75 72 20 |ag it from your |
|43 68 61 72 61 63 74 65 72 20 57 69 6E 64 6F 77 |Character Window|
|20 74 6F 20 79 6F 75 72 20 68 6F 74 62 61 72 2E | to your hotbar.|
|01 01 00 00 03 06 00 08 00 00 00 00 00 00 00 00 |................|
|00 00 00 00 01 02 15 01 6C C8 01 01 01 02 00 00 |........l.......|
|00 00 00 00 00 00                               |......          |
-------------------------------------------------------------------
[Server] packet : (0xBF) F_INIT_STORE  Size = 689 
|------------------------------------------------|----------------|
|00 01 02 03 04 05 06 07 08 09 0A 0B 0C 0D 0E 0F |0123456789ABCDEF|
|------------------------------------------------|----------------|
|02 AE BF 00 00 02 04 00 01 00 00 03 00 00 00 1E |................|
|00 00 01 01 21 01 A9 00 00 00 00 00 00 00 00 00 |....!...........|
|00 00 01 00 00 00 01 00 56 00 00 00 00 00 00 00 |........V.......|
|00 00 00 00 0C 00 05 00 01 00 00 00 00 00 00 00 |................|
|00 00 00 00 00 13 47 75 69 6C 64 20 52 65 63 61 |......Guild Reca|
|6C 6C 20 53 63 72 6F 6C 6C 00 00 01 00 01 10 55 |ll Scroll......U|
|00 00 00 00 00 00 00 3E 52 65 61 64 20 74 68 69 |.......>Read thi|
|73 20 73 63 72 6F 6C 6C 20 74 6F 20 72 65 74 75 |s scroll to retu|
|72 6E 20 74 6F 20 74 68 65 20 67 75 69 6C 64 20 |rn to the guild |
|68 61 6C 6C 2E 20 28 47 75 69 6C 64 20 52 61 6E |hall. (Guild Ran|
|6B 20 31 37 2B 29 01 01 00 01 03 06 00 08 00 00 |k 17+)..........|
|00 00 00 00 00 00 00 00 00 00 00 00 00 00 00 00 |................|
|00 00 01 03 00 00 03 0C 00 00 01 01 22 01 A9 00 |............"...|
|00 00 00 00 00 00 00 00 00 00 19 00 00 00 01 00 |................|
|00 00 00 00 00 00 00 00 00 00 00 01 38 00 05 00 |............8...|
|01 00 00 00 00 00 00 00 00 00 00 00 00 0D 47 75 |..............Gu|
|6E 62 61 64 20 53 63 72 6F 6C 6C 00 00 01 00 00 |nbad Scroll.....|
|10 56 01 2C 00 00 00 00 00 27 52 65 61 64 20 74 |.V.,.....'Read t|
|68 69 73 20 73 63 72 6F 6C 6C 20 74 6F 20 62 65 |his scroll to be|
|20 74 61 6B 65 6E 20 74 6F 20 47 75 6E 62 61 64 | taken to Gunbad|
|2E 01 01 00 00 03 06 00 08 00 00 00 00 00 00 00 |................|
|00 00 00 00 00 00 00 00 00 00 00 00 00 02 03 00 |................|
|00 04 44 00 00 01 01 23 01 A9 00 00 00 00 00 00 |..D....#........|
|00 00 00 00 00 23 00 00 00 01 00 00 00 00 00 00 |.....#..........|
|00 00 00 00 00 00 01 B5 00 05 00 01 00 00 00 00 |................|
|00 00 00 00 00 00 00 00 14 42 61 73 74 69 6F 6E |.........Bastion|
|20 53 74 61 69 72 20 53 63 72 6F 6C 6C 00 00 01 | Stair Scroll...|
|00 00 10 57 01 2C 00 00 00 00 00 2E 52 65 61 64 |...W.,......Read|
|20 74 68 69 73 20 73 63 72 6F 6C 6C 20 74 6F 20 | this scroll to |
|62 65 20 74 61 6B 65 6E 20 74 6F 20 42 61 73 74 |be taken to Bast|
|69 6F 6E 20 53 74 61 69 72 2E 01 01 00 00 03 06 |ion Stair.......|
|00 08 00 00 00 00 00 00 00 00 00 00 00 00 00 00 |................|
|00 00 00 00 00 00 03 02 00 00 05 7D 00 00 01 01 |...........}....|
|24 01 A9 00 00 00 00 00 00 00 00 00 00 00 2D 00 |$.............-.|
|00 00 01 00 00 00 00 00 00 00 00 00 00 00 00 02 |................|
|32 00 05 00 01 00 00 00 00 00 00 00 00 00 00 00 |2...............|
|00 10 4C 6F 73 74 20 56 61 6C 65 20 53 63 72 6F |..Lost Vale Scro|
|6C 6C 00 00 01 00 00 10 58 01 2C 00 00 00 00 00 |ll......X.,.....|
|33 52 65 61 64 20 74 68 69 73 20 73 63 72 6F 6C |3Read this scrol|
|6C 20 74 6F 20 62 65 20 74 61 6B 65 6E 20 74 6F |l to be taken to|
|20 4C 6F 73 74 20 56 61 6C 65 20 65 6E 74 72 61 | Lost Vale entra|
|6E 63 65 2E 01 01 00 00 03 06 00 08 00 00 00 00 |nce.............|
|00 00 00 00 00 00 00 00 00 00 00 00 00 00 00 00 |................|
|00                                              |.               |
-------------------------------------------------------------------
[Server] packet : (0xBF) F_INIT_STORE  Size = 3423 
|------------------------------------------------|----------------|
|00 01 02 03 04 05 06 07 08 09 0A 0B 0C 0D 0E 0F |0123456789ABCDEF|
|------------------------------------------------|----------------|
|0D 5C BF 00 00 03 11 00 01 00 00 03 00 00 08 C0 |.\..............|
|00 00 02 E8 25 13 F1 00 00 00 00 00 00 00 00 00 |....%...........|
|22 00 09 00 00 00 01 00 00 00 00 00 00 00 00 00 |"...............|
|00 00 00 00 70 00 32 00 01 00 00 00 00 00 00 00 |....p.2.........|
|00 00 00 00 00 21 42 69 74 74 65 72 20 45 6C 76 |.....!Bitter Elv|
|69 73 68 20 50 61 72 73 6C 65 79 20 53 65 65 64 |ish Parsley Seed|
|20 50 61 63 6B 65 74 00 00 00 05 09 00 19 0E 00 | Packet.........|
|09 0D 00 10 05 00 03 09 00 0F 00 00 32 47 72 6F |............2Gro|
|77 73 20 69 6E 74 6F 20 61 20 6D 65 61 67 65 72 |ws into a meager|
|20 72 65 73 74 6F 72 61 74 69 6F 6E 20 70 6F 74 | restoration pot|
|69 6F 6E 20 69 6E 67 72 65 64 69 65 6E 74 2E 01 |ion ingredient..|
|01 00 00 03 06 20 08 00 00 00 00 00 00 19 01 00 |..... ..........|
|00 00 00 00 00 00 00 00 00 00 00 01 03 00 00 08 |................|
|C0 00 00 02 E8 26 13 F5 00 00 00 00 00 00 00 00 |.....&..........|
|00 22 00 09 00 00 00 01 00 00 00 00 00 00 00 00 |."..............|
|00 00 00 00 00 70 00 32 00 01 00 00 00 00 00 00 |.....p.2........|
|00 00 00 00 00 00 20 43 61 70 65 72 69 6E 67 20 |...... Capering |
|44 61 6E 64 65 64 72 61 67 6F 6E 20 53 65 65 64 |Dandedragon Seed|
|20 50 61 63 6B 65 74 00 00 00 05 09 00 19 0E 00 | Packet.........|
|09 0D 00 10 05 00 03 09 00 0F 00 00 33 47 72 6F |............3Gro|
|77 73 20 69 6E 74 6F 20 61 20 6D 65 61 67 65 72 |ws into a meager|
|20 69 6E 76 69 67 6F 72 61 74 69 6F 6E 20 70 6F | invigoration po|
|74 69 6F 6E 20 69 6E 67 72 65 64 69 65 6E 74 2E |tion ingredient.|
|01 01 00 00 03 06 20 08 00 00 00 00 00 00 19 01 |...... .........|
|00 00 00 00 00 00 00 00 00 00 00 00 02 03 00 00 |................|
|08 C0 00 00 02 E8 27 13 F8 00 00 00 00 00 00 00 |......'.........|
|00 00 22 00 09 00 00 00 01 00 00 00 00 00 00 00 |..".............|
|00 00 00 00 00 00 70 00 32 00 01 00 00 00 00 00 |......p.2.......|
|00 00 00 00 00 00 00 1C 43 68 61 72 72 65 64 20 |........Charred |
|50 79 72 65 20 69 76 79 20 53 65 65 64 20 50 61 |Pyre ivy Seed Pa|
|63 6B 65 74 00 00 00 05 09 00 19 0E 00 09 0D 00 |cket............|
|10 05 00 03 09 00 0F 00 00 2E 47 72 6F 77 73 20 |..........Grows |
|69 6E 74 6F 20 61 20 6D 65 61 67 65 72 20 6D 6F |into a meager mo|
|6C 6F 74 6F 76 20 70 6F 74 69 6F 6E 20 69 6E 67 |lotov potion ing|
|72 65 64 69 65 6E 74 2E 01 01 00 00 03 06 20 08 |redient....... .|
|00 00 00 00 00 00 19 01 00 00 00 00 00 00 00 00 |................|
|00 00 00 00 03 03 00 00 08 C0 00 00 02 E8 28 13 |..............(.|
|F9 00 00 00 00 00 00 00 00 00 22 00 09 00 00 00 |..........".....|
|01 00 00 00 00 00 00 00 00 00 00 00 00 00 70 00 |..............p.|
|32 00 01 00 00 00 00 00 00 00 00 00 00 00 00 20 |2.............. |
|43 68 61 72 72 65 64 20 41 72 67 6F 73 74 20 43 |Charred Argost C|
|72 65 65 70 20 53 65 65 64 20 50 61 63 6B 65 74 |reep Seed Packet|
|00 00 00 05 09 00 19 0E 00 09 0D 00 10 05 00 03 |................|
|09 00 0F 00 00 33 47 72 6F 77 73 20 69 6E 74 6F |.....3Grows into|
|20 61 20 6D 65 61 67 65 72 20 66 6C 61 6D 65 20 | a meager flame |
|62 72 65 61 74 68 20 70 6F 74 69 6F 6E 20 69 6E |breath potion in|
|67 72 65 64 69 65 6E 74 2E 01 01 00 00 03 06 20 |gredient....... |
|08 00 00 00 00 00 00 19 01 00 00 00 00 00 00 00 |................|
|00 00 00 00 00 04 03 00 00 08 C0 00 00 02 E8 29 |...............)|
|14 02 00 00 00 00 00 00 00 00 00 22 00 09 00 00 |..........."....|
|00 01 00 00 00 00 00 00 00 00 00 00 00 00 00 70 |...............p|
|00 32 00 01 00 00 00 00 00 00 00 00 00 00 00 00 |.2..............|
|1E 46 65 73 74 65 72 69 6E 67 20 41 73 68 62 65 |.Festering Ashbe|
|72 72 79 20 53 65 65 64 20 50 61 63 6B 65 74 00 |rry Seed Packet.|
|00 00 04 09 00 19 0E 00 09 0D 00 10 05 00 03 00 |................|
|00 2D 47 72 6F 77 73 20 69 6E 74 6F 20 61 20 6D |.-Grows into a m|
|65 61 67 65 72 20 6E 61 70 61 6C 6D 20 70 6F 74 |eager napalm pot|
|69 6F 6E 20 69 6E 67 72 65 64 69 65 6E 74 2E 01 |ion ingredient..|
|01 00 00 03 06 20 08 00 00 00 00 00 00 19 01 00 |..... ..........|
|00 00 00 00 00 00 00 00 00 00 00 05 03 00 00 08 |................|
|C0 00 00 02 E8 2A 01 83 00 00 00 00 00 00 00 00 |.....*..........|
|00 22 00 09 00 00 00 01 00 00 00 00 00 00 00 00 |."..............|
|00 00 00 00 00 70 00 32 00 01 00 00 00 00 00 00 |.....p.2........|
|00 00 00 00 00 00 1E 50 72 65 73 65 72 76 65 64 |.......Preserved|
|20 42 72 69 74 74 6C 65 20 43 68 69 74 69 6E 20 | Brittle Chitin |
|53 68 61 72 64 00 00 00 06 05 00 04 08 00 02 09 |Shard...........|
|00 19 06 00 0D 02 00 03 01 FF FC 00 00 3B 54 68 |.............;Th|
|69 73 20 6D 65 61 67 65 72 20 69 6E 67 72 65 64 |is meager ingred|
|69 65 6E 74 20 63 61 6E 20 62 65 20 75 73 65 64 |ient can be used|
|20 74 6F 20 63 72 65 61 74 65 20 61 72 6D 6F 72 | to create armor|
|20 70 6F 74 69 6F 6E 73 2E 01 01 00 00 03 06 00 | potions........|
|08 00 00 00 00 00 00 19 00 00 00 00 00 00 00 00 |................|
|00 00 00 00 00 06 03 00 00 08 C0 00 00 02 E8 2B |...............+|
|01 E9 00 00 00 00 00 00 00 00 00 22 00 09 00 00 |..........."....|
|00 01 00 00 00 00 00 00 00 00 00 00 00 00 00 70 |...............p|
|00 32 00 01 00 00 00 00 00 00 00 00 00 00 00 00 |.2..............|
|21 50 72 65 73 65 72 76 65 64 20 43 61 72 69 6F |!Preserved Cario|
|75 73 20 43 68 69 6D 65 72 69 63 61 6C 20 43 6C |us Chimerical Cl|
|61 77 00 00 00 07 05 00 04 08 00 02 09 00 19 06 |aw..............|
|00 0E 02 00 03 01 FF FC 0F 00 01 00 00 3C 54 68 |.............<Th|
|69 73 20 6D 65 61 67 65 72 20 69 6E 67 72 65 64 |is meager ingred|
|69 65 6E 74 20 63 61 6E 20 62 65 20 75 73 65 64 |ient can be used|
|20 74 6F 20 63 72 65 61 74 65 20 74 68 6F 72 6E | to create thorn|
|73 20 70 6F 74 69 6F 6E 73 2E 01 01 00 00 03 06 |s potions.......|
|80 08 00 00 00 00 00 00 19 00 00 00 00 00 00 00 |................|
|00 00 00 00 00 00 07 03 00 00 08 C0 00 00 02 E8 |................|
|2C 01 85 00 00 00 00 00 00 00 00 00 22 00 09 00 |,..........."...|
|00 00 01 00 00 00 00 00 00 00 00 00 00 00 00 00 |................|
|70 00 32 00 01 00 00 00 00 00 00 00 00 00 00 00 |p.2.............|
|00 1B 50 72 65 73 65 72 76 65 64 20 41 6E 6F 72 |..Preserved Anor|
|65 78 69 63 20 42 61 74 20 57 69 6E 67 00 00 00 |exic Bat Wing...|
|07 05 00 04 08 00 02 09 00 19 06 00 09 02 00 03 |................|
|01 FF FC 0F 00 01 00 00 42 54 68 69 73 20 6D 65 |........BThis me|
|61 67 65 72 20 69 6E 67 72 65 64 69 65 6E 74 20 |ager ingredient |
|63 61 6E 20 62 65 20 75 73 65 64 20 74 6F 20 63 |can be used to c|
|72 65 61 74 65 20 66 6F 72 63 65 20 73 68 69 65 |reate force shie|
|6C 64 20 70 6F 74 69 6F 6E 73 2E 01 01 00 00 03 |ld potions......|
|06 80 08 00 00 00 00 00 00 19 00 00 00 00 00 00 |................|
|00 00 00 00 00 00 00 08 03 00 00 08 C0 00 00 02 |................|
|E8 2D 01 8C 00 00 00 00 00 00 00 00 00 22 00 09 |.-..........."..|
|00 00 00 01 00 00 00 00 00 00 00 00 00 00 00 00 |................|
|00 70 00 32 00 01 00 00 00 00 00 00 00 00 00 00 |.p.2............|
|00 00 19 42 6F 74 74 6C 65 64 20 52 75 6E 6E 79 |...Bottled Runny|
|20 52 61 74 20 53 70 69 74 74 6C 65 00 00 00 06 | Rat Spittle....|
|05 00 04 08 00 02 09 00 19 06 00 12 02 00 03 01 |................|
|FF FC 00 00 3F 54 68 69 73 20 6D 65 61 67 65 72 |....?This meager|
|20 69 6E 67 72 65 64 69 65 6E 74 20 63 61 6E 20 | ingredient can |
|62 65 20 75 73 65 64 20 74 6F 20 63 72 65 61 74 |be used to creat|
|65 20 67 6C 75 65 20 62 6F 6D 62 20 70 6F 74 69 |e glue bomb poti|
|6F 6E 73 2E 01 01 00 00 03 06 00 08 00 00 00 00 |ons.............|
|00 00 19 00 00 00 00 00 00 00 00 00 00 00 00 00 |................|
|09 03 00 00 07 D0 00 00 02 E8 32 01 7E 00 00 00 |..........2.~...|
|00 00 00 00 00 00 22 00 08 00 00 00 01 00 00 00 |......".........|
|00 00 00 00 00 00 00 00 00 00 64 00 32 00 01 00 |..........d.2...|
|00 00 00 00 00 00 00 00 00 00 00 0E 46 69 7A 7A |............Fizz|
|6C 69 6E 67 20 57 61 74 65 72 00 00 00 04 05 00 |ling Water......|
|04 08 00 01 09 00 19 01 00 03 00 00 38 54 68 69 |............8Thi|
|73 20 6D 65 61 67 65 72 20 69 6E 67 72 65 64 69 |s meager ingredi|
|65 6E 74 20 63 61 6E 20 62 65 20 75 73 65 64 20 |ent can be used |
|74 6F 20 73 74 61 62 69 6C 69 7A 65 20 70 6F 74 |to stabilize pot|
|69 6F 6E 73 2E 01 01 00 00 03 06 00 08 00 00 00 |ions............|
|00 00 00 19 00 00 00 00 00 00 00 00 00 00 00 00 |................|
|00 0A 03 00 00 00 60 00 00 02 E8 35 1A 61 00 00 |......`....5.a..|
|00 00 00 00 00 00 00 22 00 00 00 00 00 01 00 00 |......."........|
|00 00 00 00 00 00 00 00 00 00 00 05 00 32 00 01 |.............2..|
|00 00 00 00 00 00 00 00 00 00 00 00 18 53 74 6F |.............Sto|
|63 6B 70 69 6C 65 64 20 52 61 62 62 69 74 27 73 |ckpiled Rabbit's|
|20 46 6F 6F 74 00 00 00 05 05 00 05 08 00 10 09 | Foot...........|
|00 19 02 00 02 0C 00 01 00 00 34 54 68 69 73 20 |..........4This |
|63 75 72 69 6F 75 73 20 6F 62 6A 65 63 74 20 63 |curious object c|
|61 6E 20 62 65 20 75 73 65 64 20 74 6F 20 63 72 |an be used to cr|
|65 61 74 65 20 74 61 6C 69 73 6D 61 6E 73 2E 01 |eate talismans..|
|01 00 00 03 06 00 00 00 00 00 00 00 00 19 00 00 |................|
|00 00 00 00 00 00 00 00 00 00 00 0B 03 00 00 27 |...............'|
|10 00 00 02 E8 2E 12 51 00 00 00 00 00 00 00 00 |.......Q........|
|00 22 00 0A 00 00 00 02 00 00 00 00 00 00 00 00 |."..............|
|00 00 00 00 01 F4 00 32 00 01 00 00 00 00 00 00 |.......2........|
|00 00 00 00 00 00 13 41 6C 63 68 65 6D 69 63 61 |.......Alchemica|
|6C 20 43 6F 6D 70 6F 75 6E 64 00 00 00 07 05 00 |l Compound......|
|04 08 00 02 09 00 32 06 00 29 01 FF F9 0C FF F6 |......2..)......|
|0E FF F6 00 00 54 54 68 69 73 20 63 75 72 69 6F |.....TThis curio|
|75 73 20 6D 61 74 65 72 69 61 6C 20 69 73 20 61 |us material is a|
|76 61 69 6C 61 62 6C 65 20 6F 6E 6C 79 20 74 6F |vailable only to|
|20 67 75 69 6C 64 20 6A 6F 75 72 6E 65 79 6D 65 | guild journeyme|
|6E 20 6F 66 20 74 68 65 20 41 70 6F 74 68 65 63 |n of the Apothec|
|61 72 79 20 74 72 61 64 65 2E 01 01 00 00 03 06 |ary trade.......|
|20 08 00 00 00 00 00 00 32 00 00 00 00 00 00 00 | .......2.......|
|00 00 00 00 00 00 0C 03 00 00 27 10 00 00 02 E8 |..........'.....|
|2F 12 52 00 00 00 00 00 00 00 00 00 22 00 0A 00 |/.R........."...|
|00 00 02 00 00 00 00 00 00 00 00 00 00 00 00 01 |................|
|F4 00 32 00 01 00 00 00 00 00 00 00 00 00 00 00 |..2.............|
|00 14 54 65 72 72 65 73 74 72 69 61 6C 20 43 6F |..Terrestrial Co|
|6D 70 6F 75 6E 64 00 00 00 07 05 00 04 08 00 02 |mpound..........|
|09 00 32 06 00 2A 01 FF F9 0C FF F6 0E FF F6 00 |..2..*..........|
|00 54 54 68 69 73 20 63 75 72 69 6F 75 73 20 6D |.TThis curious m|
|61 74 65 72 69 61 6C 20 69 73 20 61 76 61 69 6C |aterial is avail|
|61 62 6C 65 20 6F 6E 6C 79 20 74 6F 20 67 75 69 |able only to gui|
|6C 64 20 6A 6F 75 72 6E 65 79 6D 65 6E 20 6F 66 |ld journeymen of|
|20 74 68 65 20 41 70 6F 74 68 65 63 61 72 79 20 | the Apothecary |
|74 72 61 64 65 2E 01 01 00 00 03 06 20 08 00 00 |trade....... ...|
|00 00 00 00 32 00 00 00 00 00 00 00 00 00 00 00 |....2...........|
|00 00 0D 03 00 00 27 10 00 00 02 E8 30 12 53 00 |......'.....0.S.|
|00 00 00 00 00 00 00 00 22 00 0A 00 00 00 02 00 |........".......|
|00 00 00 00 00 00 00 00 00 00 00 01 F4 00 32 00 |..............2.|
|01 00 00 00 00 00 00 00 00 00 00 00 00 12 45 6C |..............El|
|65 6D 65 6E 74 61 6C 20 43 6F 6D 70 6F 75 6E 64 |emental Compound|
|00 00 00 07 05 00 04 08 00 02 09 00 32 06 00 2B |............2..+|
|01 FF F9 0C FF F6 0E FF F6 00 00 54 54 68 69 73 |...........TThis|
|20 63 75 72 69 6F 75 73 20 6D 61 74 65 72 69 61 | curious materia|
|6C 20 69 73 20 61 76 61 69 6C 61 62 6C 65 20 6F |l is available o|
|6E 6C 79 20 74 6F 20 67 75 69 6C 64 20 6A 6F 75 |nly to guild jou|
|72 6E 65 79 6D 65 6E 20 6F 66 20 74 68 65 20 41 |rneymen of the A|
|70 6F 74 68 65 63 61 72 79 20 74 72 61 64 65 2E |pothecary trade.|
|01 01 00 00 03 06 20 08 00 00 00 00 00 00 32 00 |...... .......2.|
|00 00 00 00 00 00 00 00 00 00 00 00 0E 03 00 00 |................|
|27 10 00 00 02 E8 31 12 54 00 00 00 00 00 00 00 |'.....1.T.......|
|00 00 22 00 0A 00 00 00 02 00 00 00 00 00 00 00 |..".............|
|00 00 00 00 00 01 F4 00 32 00 01 00 00 00 00 00 |........2.......|
|00 00 00 00 00 00 00 12 41 67 67 72 65 67 61 74 |........Aggregat|
|65 20 43 6F 6D 70 6F 75 6E 64 00 00 00 07 05 00 |e Compound......|
|04 08 00 02 09 00 32 06 00 2C 01 FF F9 0C FF F6 |......2..,......|
|0E FF F6 00 00 54 54 68 69 73 20 63 75 72 69 6F |.....TThis curio|
|75 73 20 6D 61 74 65 72 69 61 6C 20 69 73 20 61 |us material is a|
|76 61 69 6C 61 62 6C 65 20 6F 6E 6C 79 20 74 6F |vailable only to|
|20 67 75 69 6C 64 20 6A 6F 75 72 6E 65 79 6D 65 | guild journeyme|
|6E 20 6F 66 20 74 68 65 20 41 70 6F 74 68 65 63 |n of the Apothec|
|61 72 79 20 74 72 61 64 65 2E 01 01 00 00 03 06 |ary trade.......|
|20 08 00 00 00 00 00 00 32 00 00 00 00 00 00 00 | .......2.......|
|00 00 00 00 00 00 0F 03 00 00 00 A0 00 00 02 E8 |................|
|33 02 3A 00 00 00 00 00 00 00 00 00 22 00 05 00 |3.:........."...|
|00 00 01 00 00 00 00 00 00 00 00 00 00 00 00 00 |................|
|08 00 14 00 01 00 00 00 00 00 00 00 00 00 00 00 |................|
|00 22 46 61 62 72 69 63 61 74 65 64 20 4A 6F 75 |."Fabricated Jou|
|72 6E 65 79 6D 61 6E 27 73 20 47 6C 61 73 73 20 |rneyman's Glass |
|56 69 61 6C 00 00 00 07 05 00 04 08 00 05 09 00 |Vial............|
|32 07 00 04 01 00 01 02 00 00 0F 00 00 00 00 34 |2..............4|
|41 20 76 69 61 6C 20 75 73 65 64 20 62 79 20 61 |A vial used by a|
|20 6A 6F 75 72 6E 65 79 6D 61 6E 20 6F 66 20 74 | journeyman of t|
|68 65 20 41 70 6F 74 68 65 63 61 72 79 20 74 72 |he Apothecary tr|
|61 64 65 2E 01 01 00 00 03 06 00 08 00 00 00 00 |ade.............|
|00 00 32 00 00 00 00 00 00 00 00 00 00 00 00 00 |..2.............|
|10 03 00 00 00 A0 00 00 02 E8 34 1D 34 00 00 00 |..........4.4...|
|00 00 00 00 00 00 22 00 05 00 00 00 01 00 00 00 |......".........|
|00 00 00 00 00 00 00 00 00 00 08 00 14 00 01 00 |................|
|00 00 00 00 00 00 00 00 00 00 00 21 46 61 62 72 |...........!Fabr|
|69 63 61 74 65 64 20 4A 6F 75 72 6E 65 79 6D 61 |icated Journeyma|
|6E 27 73 20 52 65 6C 69 63 20 42 6F 78 00 00 00 |n's Relic Box...|
|07 05 00 05 08 00 0D 09 00 32 02 00 00 0E 00 02 |.........2......|
|07 00 04 0F 00 00 00 00 39 41 20 76 69 61 6C 20 |........9A vial |
|75 73 65 64 20 62 79 20 61 20 6A 6F 75 72 6E 65 |used by a journe|
|79 6D 61 6E 20 6F 66 20 74 68 65 20 54 61 6C 69 |yman of the Tali|
|73 6D 61 6E 2D 4D 61 6B 69 6E 67 20 74 72 61 64 |sman-Making trad|
|65 2E 00 01 00 00 03 02 00 08 00 00 00 00 00 00 |e...............|
|32 00 00 00 00 00 00 00 00 00 00 00 00 00 00    |............... |
-------------------------------------------------------------------
[Server] packet : (0xBF) F_INIT_STORE  Size = 2772 
|------------------------------------------------|----------------|
|00 01 02 03 04 05 06 07 08 09 0A 0B 0C 0D 0E 0F |0123456789ABCDEF|
|------------------------------------------------|----------------|
|0A D1 BF 00 00 04 0E 00 01 00 00 03 00 00 12 80 |................|
|00 00 02 E8 36 13 F1 00 00 00 00 00 00 00 00 00 |....6...........|
|22 00 13 00 00 00 01 00 00 00 00 00 00 00 00 00 |"...............|
|00 00 00 00 ED 00 32 00 01 00 00 00 00 00 00 00 |......2.........|
|00 00 00 00 00 22 4D 6F 72 64 61 6E 74 20 45 6C |....."Mordant El|
|76 69 73 68 20 50 61 72 73 6C 65 79 20 53 65 65 |vish Parsley See|
|64 20 50 61 63 6B 65 74 00 00 00 05 09 00 4B 0E |d Packet......K.|
|00 07 0D 00 11 05 00 03 09 00 4B 00 00 33 47 72 |..........K..3Gr|
|6F 77 73 20 69 6E 74 6F 20 61 20 61 76 65 72 61 |ows into a avera|
|67 65 20 72 65 73 74 6F 72 61 74 69 6F 6E 20 70 |ge restoration p|
|6F 74 69 6F 6E 20 69 6E 67 72 65 64 69 65 6E 74 |otion ingredient|
|2E 01 01 00 00 03 06 20 08 00 00 00 00 00 00 4B |....... .......K|
|01 00 00 00 00 00 00 00 00 00 00 00 00 01 03 00 |................|
|00 12 80 00 00 02 E8 37 13 F5 00 00 00 00 00 00 |.......7........|
|00 00 00 22 00 13 00 00 00 01 00 00 00 00 00 00 |..."............|
|00 00 00 00 00 00 00 ED 00 32 00 01 00 00 00 00 |.........2......|
|00 00 00 00 00 00 00 00 1D 57 69 73 70 79 20 44 |.........Wispy D|
|61 6E 64 65 64 72 61 67 6F 6E 20 53 65 65 64 20 |andedragon Seed |
|50 61 63 6B 65 74 00 00 00 05 09 00 4B 0E 00 07 |Packet......K...|
|0D 00 11 05 00 03 09 00 37 00 00 34 47 72 6F 77 |........7..4Grow|
|73 20 69 6E 74 6F 20 61 20 61 76 65 72 61 67 65 |s into a average|
|20 69 6E 76 69 67 6F 72 61 74 69 6F 6E 20 70 6F | invigoration po|
|74 69 6F 6E 20 69 6E 67 72 65 64 69 65 6E 74 2E |tion ingredient.|
|01 01 00 00 03 06 20 08 00 00 00 00 00 00 4B 01 |...... .......K.|
|00 00 00 00 00 00 00 00 00 00 00 00 02 03 00 00 |................|
|12 80 00 00 02 E8 38 13 F8 00 00 00 00 00 00 00 |......8.........|
|00 00 22 00 13 00 00 00 01 00 00 00 00 00 00 00 |..".............|
|00 00 00 00 00 00 ED 00 32 00 01 00 00 00 00 00 |........2.......|
|00 00 00 00 00 00 00 1B 50 61 74 63 68 79 20 50 |........Patchy P|
|79 72 65 20 69 76 79 20 53 65 65 64 20 50 61 63 |yre ivy Seed Pac|
|6B 65 74 00 00 00 04 09 00 4B 0E 00 07 0D 00 11 |ket......K......|
|05 00 03 00 00 2F 47 72 6F 77 73 20 69 6E 74 6F |...../Grows into|
|20 61 20 61 76 65 72 61 67 65 20 6D 6F 6C 6F 74 | a average molot|
|6F 76 20 70 6F 74 69 6F 6E 20 69 6E 67 72 65 64 |ov potion ingred|
|69 65 6E 74 2E 01 01 00 00 03 06 20 08 00 00 00 |ient....... ....|
|00 00 00 4B 01 00 00 00 00 00 00 00 00 00 00 00 |...K............|
|00 03 03 00 00 12 80 00 00 02 E8 39 13 F9 00 00 |...........9....|
|00 00 00 00 00 00 00 22 00 13 00 00 00 01 00 00 |......."........|
|00 00 00 00 00 00 00 00 00 00 00 ED 00 32 00 01 |.............2..|
|00 00 00 00 00 00 00 00 00 00 00 00 20 43 6C 61 |............ Cla|
|77 69 6E 67 20 41 72 67 6F 73 74 20 43 72 65 65 |wing Argost Cree|
|70 20 53 65 65 64 20 50 61 63 6B 65 74 00 00 00 |p Seed Packet...|
|05 09 00 4B 0E 00 07 0D 00 11 05 00 03 09 00 37 |...K...........7|
|00 00 34 47 72 6F 77 73 20 69 6E 74 6F 20 61 20 |..4Grows into a |
|61 76 65 72 61 67 65 20 66 6C 61 6D 65 20 62 72 |average flame br|
|65 61 74 68 20 70 6F 74 69 6F 6E 20 69 6E 67 72 |eath potion ingr|
|65 64 69 65 6E 74 2E 01 01 00 00 03 06 20 08 00 |edient....... ..|
|00 00 00 00 00 4B 01 00 00 00 00 00 00 00 00 00 |.....K..........|
|00 00 00 04 03 00 00 12 80 00 00 02 E8 3A 14 02 |.............:..|
|00 00 00 00 00 00 00 00 00 22 00 13 00 00 00 01 |........."......|
|00 00 00 00 00 00 00 00 00 00 00 00 00 ED 00 32 |...............2|
|00 01 00 00 00 00 00 00 00 00 00 00 00 00 20 46 |.............. F|
|75 6C 6D 69 6E 61 74 69 6E 67 20 41 73 68 62 65 |ulminating Ashbe|
|72 72 79 20 53 65 65 64 20 50 61 63 6B 65 74 00 |rry Seed Packet.|
|00 00 04 09 00 4B 0E 00 07 0D 00 11 05 00 03 00 |.....K..........|
|00 2E 47 72 6F 77 73 20 69 6E 74 6F 20 61 20 61 |..Grows into a a|
|76 65 72 61 67 65 20 6E 61 70 61 6C 6D 20 70 6F |verage napalm po|
|74 69 6F 6E 20 69 6E 67 72 65 64 69 65 6E 74 2E |tion ingredient.|
|01 01 00 00 03 06 20 08 00 00 00 00 00 00 4B 01 |...... .......K.|
|00 00 00 00 00 00 00 00 00 00 00 00 05 03 00 00 |................|
|12 80 00 00 02 E8 3B 01 83 00 00 00 00 00 00 00 |......;.........|
|00 00 22 00 13 00 00 00 01 00 00 00 00 00 00 00 |..".............|
|00 00 00 00 00 00 ED 00 32 00 01 00 00 00 00 00 |........2.......|
|00 00 00 00 00 00 00 1B 50 72 65 73 65 72 76 65 |........Preserve|
|64 20 57 6F 72 6E 20 43 68 69 74 69 6E 20 53 68 |d Worn Chitin Sh|
|61 72 64 00 00 00 06 05 00 04 08 00 02 09 00 4B |ard............K|
|06 00 0D 02 00 07 01 FF F7 00 00 3C 54 68 69 73 |...........<This|
|20 61 76 65 72 61 67 65 20 69 6E 67 72 65 64 69 | average ingredi|
|65 6E 74 20 63 61 6E 20 62 65 20 75 73 65 64 20 |ent can be used |
|74 6F 20 63 72 65 61 74 65 20 61 72 6D 6F 72 20 |to create armor |
|70 6F 74 69 6F 6E 73 2E 01 01 00 00 03 06 00 08 |potions.........|
|00 00 00 00 00 00 4B 00 00 00 00 00 00 00 00 00 |......K.........|
|00 00 00 00 06 03 00 00 12 80 00 00 02 E8 3C 01 |..............<.|
|E9 00 00 00 00 00 00 00 00 00 22 00 13 00 00 00 |..........".....|
|01 00 00 00 00 00 00 00 00 00 00 00 00 00 ED 00 |................|
|32 00 01 00 00 00 00 00 00 00 00 00 00 00 00 23 |2..............#|
|50 72 65 73 65 72 76 65 64 20 46 72 61 63 74 75 |Preserved Fractu|
|72 65 64 20 43 68 69 6D 65 72 69 63 61 6C 20 43 |red Chimerical C|
|6C 61 77 00 00 00 07 05 00 04 08 00 02 09 00 4B |law............K|
|06 00 0E 02 00 07 01 FF F7 0F 00 01 00 00 3D 54 |..............=T|
|68 69 73 20 61 76 65 72 61 67 65 20 69 6E 67 72 |his average ingr|
|65 64 69 65 6E 74 20 63 61 6E 20 62 65 20 75 73 |edient can be us|
|65 64 20 74 6F 20 63 72 65 61 74 65 20 74 68 6F |ed to create tho|
|72 6E 73 20 70 6F 74 69 6F 6E 73 2E 01 01 00 00 |rns potions.....|
|03 06 80 08 00 00 00 00 00 00 4B 00 00 00 00 00 |..........K.....|
|00 00 00 00 00 00 00 00 07 03 00 00 12 80 00 00 |................|
|02 E8 3D 01 85 00 00 00 00 00 00 00 00 00 22 00 |..=...........".|
|13 00 00 00 01 00 00 00 00 00 00 00 00 00 00 00 |................|
|00 00 ED 00 32 00 01 00 00 00 00 00 00 00 00 00 |....2...........|
|00 00 00 1A 50 72 65 73 65 72 76 65 64 20 57 69 |....Preserved Wi|
|7A 65 6E 65 64 20 42 61 74 20 57 69 6E 67 00 00 |zened Bat Wing..|
|00 07 05 00 04 08 00 02 09 00 4B 06 00 09 02 00 |..........K.....|
|07 01 FF F7 0F 00 01 00 00 43 54 68 69 73 20 61 |.........CThis a|
|76 65 72 61 67 65 20 69 6E 67 72 65 64 69 65 6E |verage ingredien|
|74 20 63 61 6E 20 62 65 20 75 73 65 64 20 74 6F |t can be used to|
|20 63 72 65 61 74 65 20 66 6F 72 63 65 20 73 68 | create force sh|
|69 65 6C 64 20 70 6F 74 69 6F 6E 73 2E 01 01 00 |ield potions....|
|00 03 06 80 08 00 00 00 00 00 00 4B 00 00 00 00 |...........K....|
|00 00 00 00 00 00 00 00 00 08 03 00 00 12 80 00 |................|
|00 02 E8 3E 01 8C 00 00 00 00 00 00 00 00 00 22 |...>..........."|
|00 13 00 00 00 01 00 00 00 00 00 00 00 00 00 00 |................|
|00 00 00 ED 00 32 00 01 00 00 00 00 00 00 00 00 |.....2..........|
|00 00 00 00 1B 42 6F 74 74 6C 65 64 20 53 65 72 |.....Bottled Ser|
|69 6F 75 73 20 52 61 74 20 53 70 69 74 74 6C 65 |ious Rat Spittle|
|00 00 00 06 05 00 04 08 00 02 09 00 4B 06 00 12 |............K...|
|02 00 07 01 FF F7 00 00 40 54 68 69 73 20 61 76 |........@This av|
|65 72 61 67 65 20 69 6E 67 72 65 64 69 65 6E 74 |erage ingredient|
|20 63 61 6E 20 62 65 20 75 73 65 64 20 74 6F 20 | can be used to |
|63 72 65 61 74 65 20 67 6C 75 65 20 62 6F 6D 62 |create glue bomb|
|20 70 6F 74 69 6F 6E 73 2E 01 01 00 00 03 06 00 | potions........|
|08 00 00 00 00 00 00 4B 00 00 00 00 00 00 00 00 |.......K........|
|00 00 00 00 00 09 03 00 00 1B 58 00 00 02 E8 40 |..........X....@|
|01 7E 00 00 00 00 00 00 00 00 00 22 00 1C 00 00 |.~........."....|
|00 01 00 00 00 00 00 00 00 00 00 00 00 00 01 5E |...............^|
|00 32 00 01 00 00 00 00 00 00 00 00 00 00 00 00 |.2..............|
|0D 47 6C 61 63 69 65 72 20 57 61 74 65 72 00 00 |.Glacier Water..|
|00 04 05 00 04 08 00 01 09 00 7D 01 00 07 00 00 |..........}.....|
|38 54 68 69 73 20 70 6F 74 65 6E 74 20 69 6E 67 |8This potent ing|
|72 65 64 69 65 6E 74 20 63 61 6E 20 62 65 20 75 |redient can be u|
|73 65 64 20 74 6F 20 73 74 61 62 69 6C 69 7A 65 |sed to stabilize|
|20 70 6F 74 69 6F 6E 73 2E 01 01 00 00 03 06 00 | potions........|
|08 00 00 00 00 00 00 7D 00 00 00 00 00 00 00 00 |.......}........|
|00 00 00 00 00 0A 03 00 00 01 90 00 00 02 E8 43 |...............C|
|03 12 00 00 00 00 00 00 00 00 00 22 00 00 00 00 |..........."....|
|00 01 00 00 00 00 00 00 00 00 00 00 00 00 00 14 |................|
|00 32 00 01 00 00 00 00 00 00 00 00 00 00 00 00 |.2..............|
|1A 53 74 6F 63 6B 70 69 6C 65 64 20 42 69 7A 61 |.Stockpiled Biza|
|72 72 65 20 50 65 6E 64 61 6E 74 00 00 00 05 05 |rre Pendant.....|
|00 05 08 00 10 09 00 4B 02 00 04 0C 00 01 00 00 |.......K........|
|34 54 68 69 73 20 63 75 72 69 6F 75 73 20 6F 62 |4This curious ob|
|6A 65 63 74 20 63 61 6E 20 62 65 20 75 73 65 64 |ject can be used|
|20 74 6F 20 63 72 65 61 74 65 20 74 61 6C 69 73 | to create talis|
|6D 61 6E 73 2E 01 01 00 00 03 06 00 00 00 00 00 |mans............|
|00 00 00 4B 00 00 00 00 00 00 00 00 00 00 00 00 |...K............|
|00 0B 03 00 02 49 F0 00 00 02 E8 3F 12 55 00 00 |.....I.....?.U..|
|00 00 00 00 00 00 00 22 00 14 00 00 00 03 00 00 |......."........|
|00 00 00 00 00 00 00 00 00 00 1D 4C 00 32 00 01 |...........L.2..|
|00 00 00 00 00 00 00 00 00 00 00 00 17 52 65 76 |.............Rev|
|69 76 69 66 69 63 61 74 69 6F 6E 20 43 6F 6D 70 |ivification Comp|
|6F 75 6E 64 00 00 00 07 05 00 04 08 00 02 09 00 |ound............|
|64 06 00 2D 01 FF F4 0C FF F6 0E FF F6 00 00 53 |d..-...........S|
|54 68 69 73 20 63 75 72 69 6F 75 73 20 6D 61 74 |This curious mat|
|65 72 69 61 6C 20 69 73 20 61 76 61 69 6C 61 62 |erial is availab|
|6C 65 20 6F 6E 6C 79 20 74 6F 20 67 75 69 6C 64 |le only to guild|
|20 63 72 61 66 74 73 6D 65 6E 20 6F 66 20 74 68 | craftsmen of th|
|65 20 41 70 6F 74 68 65 63 61 72 79 20 74 72 61 |e Apothecary tra|
|64 65 2E 01 01 00 00 03 06 20 08 00 00 00 00 00 |de....... ......|
|00 64 00 00 00 00 00 00 00 00 00 00 00 00 00 0C |.d..............|
|03 00 00 02 30 00 00 02 E8 41 02 3E 00 00 00 00 |....0....A.>....|
|00 00 00 00 00 22 00 0F 00 00 00 02 00 00 00 00 |....."..........|
|00 00 00 00 00 00 00 00 00 1C 00 14 00 01 00 00 |................|
|00 00 00 00 00 00 00 00 00 00 21 46 61 62 72 69 |..........!Fabri|
|63 61 74 65 64 20 43 72 61 66 74 73 6D 61 6E 27 |cated Craftsman'|
|73 20 47 6C 61 73 73 20 56 69 61 6C 00 00 00 07 |s Glass Vial....|
|05 00 04 08 00 05 09 00 64 07 00 04 01 00 01 02 |........d.......|
|00 01 0F 00 00 00 00 33 41 20 76 69 61 6C 20 75 |.......3A vial u|
|73 65 64 20 62 79 20 61 20 63 72 61 66 74 73 6D |sed by a craftsm|
|61 6E 20 6F 66 20 74 68 65 20 41 70 6F 74 68 65 |an of the Apothe|
|63 61 72 79 20 74 72 61 64 65 2E 01 01 00 00 03 |cary trade......|
|06 00 08 00 00 00 00 00 00 64 00 00 00 00 00 00 |.........d......|
|00 00 00 00 00 00 00 0D 03 00 00 02 30 00 00 02 |............0...|
|E8 42 1D 35 00 00 00 00 00 00 00 00 00 22 00 0F |.B.5........."..|
|00 00 00 02 00 00 00 00 00 00 00 00 00 00 00 00 |................|
|00 1C 00 14 00 01 00 00 00 00 00 00 00 00 00 00 |................|
|00 00 20 46 61 62 72 69 63 61 74 65 64 20 43 72 |.. Fabricated Cr|
|61 66 74 73 6D 61 6E 27 73 20 52 65 6C 69 63 20 |aftsman's Relic |
|42 6F 78 00 00 00 07 05 00 05 08 00 0D 09 00 64 |Box............d|
|02 00 00 0E 00 03 07 00 04 0F 00 00 00 00 38 41 |..............8A|
|20 76 69 61 6C 20 75 73 65 64 20 62 79 20 61 20 | vial used by a |
|63 72 61 66 74 73 6D 61 6E 20 6F 66 20 74 68 65 |craftsman of the|
|20 54 61 6C 69 73 6D 61 6E 2D 4D 61 6B 69 6E 67 | Talisman-Making|
|20 74 72 61 64 65 2E 01 01 00 00 03 06 00 08 00 | trade..........|
|00 00 00 00 00 64 00 00 00 00 00 00 00 00 00 00 |.....d..........|
|00 00 00 00                                     |....            |
-------------------------------------------------------------------
[Server] packet : (0xBF) F_INIT_STORE  Size = 3551 
|------------------------------------------------|----------------|
|00 01 02 03 04 05 06 07 08 09 0A 0B 0C 0D 0E 0F |0123456789ABCDEF|
|------------------------------------------------|----------------|
|0D DC BF 00 00 05 12 00 01 00 00 03 00 00 26 08 |..............&.|
|00 00 02 E8 44 13 F1 00 00 00 00 00 00 00 00 00 |....D...........|
|22 00 27 00 00 00 01 00 00 00 00 00 00 00 00 00 |".'.............|
|00 00 00 01 E7 00 32 00 01 00 00 00 00 00 00 00 |......2.........|
|00 00 00 00 00 23 41 72 6F 6D 61 74 69 63 20 45 |.....#Aromatic E|
|6C 76 69 73 68 20 50 61 72 73 6C 65 79 20 53 65 |lvish Parsley Se|
|65 64 20 50 61 63 6B 65 74 00 00 00 05 09 00 AF |ed Packet.......|
|0E 00 01 0D 00 13 05 00 03 09 00 AF 00 00 37 47 |..............7G|
|72 6F 77 73 20 69 6E 74 6F 20 61 20 76 65 72 79 |rows into a very|
|20 70 6F 74 65 6E 74 20 72 65 73 74 6F 72 61 74 | potent restorat|
|69 6F 6E 20 70 6F 74 69 6F 6E 20 69 6E 67 72 65 |ion potion ingre|
|64 69 65 6E 74 2E 01 01 00 00 03 06 20 08 00 00 |dient....... ...|
|00 00 00 00 AF 01 00 00 00 00 00 00 00 00 00 00 |................|
|00 00 01 03 00 00 26 08 00 00 02 E8 45 13 F5 00 |......&.....E...|
|00 00 00 00 00 00 00 00 22 00 27 00 00 00 01 00 |........".'.....|
|00 00 00 00 00 00 00 00 00 00 00 01 E7 00 32 00 |..............2.|
|01 00 00 00 00 00 00 00 00 00 00 00 00 20 42 6C |............. Bl|
|69 73 73 66 75 6C 20 44 61 6E 64 65 64 72 61 67 |issful Dandedrag|
|6F 6E 20 53 65 65 64 20 50 61 63 6B 65 74 00 00 |on Seed Packet..|
|00 05 09 00 AF 0E 00 01 0D 00 13 05 00 03 09 00 |................|
|9B 00 00 38 47 72 6F 77 73 20 69 6E 74 6F 20 61 |...8Grows into a|
|20 76 65 72 79 20 70 6F 74 65 6E 74 20 69 6E 76 | very potent inv|
|69 67 6F 72 61 74 69 6F 6E 20 70 6F 74 69 6F 6E |igoration potion|
|20 69 6E 67 72 65 64 69 65 6E 74 2E 01 01 00 00 | ingredient.....|
|03 06 20 08 00 00 00 00 00 00 AF 01 00 00 00 00 |.. .............|
|00 00 00 00 00 00 00 00 02 03 00 00 26 08 00 00 |............&...|
|02 E8 46 13 F8 00 00 00 00 00 00 00 00 00 22 00 |..F...........".|
|27 00 00 00 01 00 00 00 00 00 00 00 00 00 00 00 |'...............|
|00 01 E7 00 32 00 01 00 00 00 00 00 00 00 00 00 |....2...........|
|00 00 00 22 59 65 6C 6C 6F 77 2D 54 69 70 70 65 |..."Yellow-Tippe|
|64 20 50 79 72 65 20 69 76 79 20 53 65 65 64 20 |d Pyre ivy Seed |
|50 61 63 6B 65 74 00 00 00 05 09 00 AF 0E 00 01 |Packet..........|
|0D 00 13 05 00 03 09 00 9B 00 00 33 47 72 6F 77 |...........3Grow|
|73 20 69 6E 74 6F 20 61 20 76 65 72 79 20 70 6F |s into a very po|
|74 65 6E 74 20 6D 6F 6C 6F 74 6F 76 20 70 6F 74 |tent molotov pot|
|69 6F 6E 20 69 6E 67 72 65 64 69 65 6E 74 2E 01 |ion ingredient..|
|01 00 00 03 06 20 08 00 00 00 00 00 00 AF 01 00 |..... ..........|
|00 00 00 00 00 00 00 00 00 00 00 03 03 00 00 26 |...............&|
|08 00 00 02 E8 47 13 F9 00 00 00 00 00 00 00 00 |.....G..........|
|00 22 00 27 00 00 00 01 00 00 00 00 00 00 00 00 |.".'............|
|00 00 00 00 01 E7 00 32 00 01 00 00 00 00 00 00 |.......2........|
|00 00 00 00 00 00 20 57 65 65 70 69 6E 67 20 41 |...... Weeping A|
|72 67 6F 73 74 20 43 72 65 65 70 20 53 65 65 64 |rgost Creep Seed|
|20 50 61 63 6B 65 74 00 00 00 04 09 00 AF 0E 00 | Packet.........|
|01 0D 00 13 05 00 03 00 00 38 47 72 6F 77 73 20 |.........8Grows |
|69 6E 74 6F 20 61 20 76 65 72 79 20 70 6F 74 65 |into a very pote|
|6E 74 20 66 6C 61 6D 65 20 62 72 65 61 74 68 20 |nt flame breath |
|70 6F 74 69 6F 6E 20 69 6E 67 72 65 64 69 65 6E |potion ingredien|
|74 2E 01 01 00 00 03 06 20 08 00 00 00 00 00 00 |t....... .......|
|AF 01 00 00 00 00 00 00 00 00 00 00 00 00 04 03 |................|
|00 00 26 08 00 00 02 E8 48 14 02 00 00 00 00 00 |..&.....H.......|
|00 00 00 00 22 00 27 00 00 00 01 00 00 00 00 00 |....".'.........|
|00 00 00 00 00 00 00 01 E7 00 32 00 01 00 00 00 |..........2.....|
|00 00 00 00 00 00 00 00 00 1A 46 69 65 72 79 20 |..........Fiery |
|41 73 68 62 65 72 72 79 20 53 65 65 64 20 50 61 |Ashberry Seed Pa|
|63 6B 65 74 00 00 00 04 09 00 AF 0E 00 01 0D 00 |cket............|
|13 05 00 03 00 00 2D 47 72 6F 77 73 20 69 6E 74 |......-Grows int|
|6F 20 61 20 70 6F 74 65 6E 74 20 6E 61 70 61 6C |o a potent napal|
|6D 20 70 6F 74 69 6F 6E 20 69 6E 67 72 65 64 69 |m potion ingredi|
|65 6E 74 2E 01 01 00 00 03 06 20 08 00 00 00 00 |ent....... .....|
|00 00 AF 01 00 00 00 00 00 00 00 00 00 00 00 00 |................|
|05 03 00 00 26 08 00 00 02 E8 49 01 83 00 00 00 |....&.....I.....|
|00 00 00 00 00 00 22 00 27 00 00 00 01 00 00 00 |......".'.......|
|00 00 00 00 00 00 00 00 00 01 E7 00 32 00 01 00 |............2...|
|00 00 00 00 00 00 00 00 00 00 00 1D 50 72 65 73 |............Pres|
|65 72 76 65 64 20 47 6C 6F 73 73 79 20 43 68 69 |erved Glossy Chi|
|74 69 6E 20 53 68 61 72 64 00 00 00 06 05 00 04 |tin Shard.......|
|08 00 02 09 00 AF 06 00 0D 02 00 0F 01 FF ED 00 |................|
|00 3B 54 68 69 73 20 70 6F 74 65 6E 74 20 69 6E |.;This potent in|
|67 72 65 64 69 65 6E 74 20 63 61 6E 20 62 65 20 |gredient can be |
|75 73 65 64 20 74 6F 20 63 72 65 61 74 65 20 61 |used to create a|
|72 6D 6F 72 20 70 6F 74 69 6F 6E 73 2E 01 01 00 |rmor potions....|
|00 03 06 00 08 00 00 00 00 00 00 AF 00 00 00 00 |................|
|00 00 00 00 00 00 00 00 00 06 03 00 00 26 08 00 |.............&..|
|00 02 E8 4A 01 E9 00 00 00 00 00 00 00 00 00 22 |...J..........."|
|00 27 00 00 00 01 00 00 00 00 00 00 00 00 00 00 |.'..............|
|00 00 01 E7 00 32 00 01 00 00 00 00 00 00 00 00 |.....2..........|
|00 00 00 00 22 50 72 65 73 65 72 76 65 64 20 53 |...."Preserved S|
|65 72 72 61 74 65 64 20 43 68 69 6D 65 72 69 63 |errated Chimeric|
|61 6C 20 43 6C 61 77 00 00 00 07 05 00 04 08 00 |al Claw.........|
|02 09 00 AF 06 00 0E 02 00 0F 01 FF ED 0F 00 01 |................|
|00 00 3C 54 68 69 73 20 70 6F 74 65 6E 74 20 69 |..<This potent i|
|6E 67 72 65 64 69 65 6E 74 20 63 61 6E 20 62 65 |ngredient can be|
|20 75 73 65 64 20 74 6F 20 63 72 65 61 74 65 20 | used to create |
|74 68 6F 72 6E 73 20 70 6F 74 69 6F 6E 73 2E 01 |thorns potions..|
|01 00 00 03 06 80 08 00 00 00 00 00 00 AF 00 00 |................|
|00 00 00 00 00 00 00 00 00 00 00 07 03 00 00 26 |...............&|
|08 00 00 02 E8 4B 01 85 00 00 00 00 00 00 00 00 |.....K..........|
|00 22 00 27 00 00 00 01 00 00 00 00 00 00 00 00 |.".'............|
|00 00 00 00 01 E7 00 32 00 01 00 00 00 00 00 00 |.......2........|
|00 00 00 00 00 00 18 50 72 65 73 65 72 76 65 64 |.......Preserved|
|20 48 65 61 76 79 20 42 61 74 20 57 69 6E 67 00 | Heavy Bat Wing.|
|00 00 07 05 00 04 08 00 02 09 00 AF 06 00 09 02 |................|
|00 0F 01 FF ED 0F 00 01 00 00 42 54 68 69 73 20 |..........BThis |
|70 6F 74 65 6E 74 20 69 6E 67 72 65 64 69 65 6E |potent ingredien|
|74 20 63 61 6E 20 62 65 20 75 73 65 64 20 74 6F |t can be used to|
|20 63 72 65 61 74 65 20 66 6F 72 63 65 20 73 68 | create force sh|
|69 65 6C 64 20 70 6F 74 69 6F 6E 73 2E 01 01 00 |ield potions....|
|00 03 06 80 08 00 00 00 00 00 00 AF 00 00 00 00 |................|
|00 00 00 00 00 00 00 00 00 08 03 00 00 26 08 00 |.............&..|
|00 02 E8 4C 01 8C 00 00 00 00 00 00 00 00 00 22 |...L..........."|
|00 27 00 00 00 01 00 00 00 00 00 00 00 00 00 00 |.'..............|
|00 00 01 E7 00 32 00 01 00 00 00 00 00 00 00 00 |.....2..........|
|00 00 00 00 1E 42 6F 74 74 6C 65 64 20 47 6C 69 |.....Bottled Gli|
|73 74 65 6E 69 6E 67 20 52 61 74 20 53 70 69 74 |stening Rat Spit|
|74 6C 65 00 00 00 06 05 00 04 08 00 02 09 00 AF |tle.............|
|06 00 12 02 00 0F 01 FF ED 00 00 3F 54 68 69 73 |...........?This|
|20 70 6F 74 65 6E 74 20 69 6E 67 72 65 64 69 65 | potent ingredie|
|6E 74 20 63 61 6E 20 62 65 20 75 73 65 64 20 74 |nt can be used t|
|6F 20 63 72 65 61 74 65 20 67 6C 75 65 20 62 6F |o create glue bo|
|6D 62 20 70 6F 74 69 6F 6E 73 2E 01 01 00 00 03 |mb potions......|
|06 00 08 00 00 00 00 00 00 AF 00 00 00 00 00 00 |................|
|00 00 00 00 00 00 00 09 03 00 00 25 18 00 00 02 |...........%....|
|E8 4E 01 7E 00 00 00 00 00 00 00 00 00 22 00 26 |.N.~.........".&|
|00 00 00 01 00 00 00 00 00 00 00 00 00 00 00 00 |................|
|01 DB 00 32 00 01 00 00 00 00 00 00 00 00 00 00 |...2............|
|00 00 0F 53 70 61 72 6B 6C 69 6E 67 20 57 61 74 |...Sparkling Wat|
|65 72 00 00 00 04 05 00 04 08 00 01 09 00 AF 01 |er..............|
|00 09 00 00 3D 54 68 69 73 20 76 65 72 79 20 70 |....=This very p|
|6F 74 65 6E 74 20 69 6E 67 72 65 64 69 65 6E 74 |otent ingredient|
|20 63 61 6E 20 62 65 20 75 73 65 64 20 74 6F 20 | can be used to |
|73 74 61 62 69 6C 69 7A 65 20 70 6F 74 69 6F 6E |stabilize potion|
|73 2E 01 01 00 00 03 06 00 08 00 00 00 00 00 00 |s...............|
|AF 00 00 00 00 00 00 00 00 00 00 00 00 00 0A 03 |................|
|00 00 03 E8 00 00 02 E8 51 1A 66 00 00 00 00 00 |........Q.f.....|
|00 00 00 00 22 00 00 00 00 00 01 00 00 00 00 00 |...."...........|
|00 00 00 00 00 00 00 00 32 00 32 00 01 00 00 00 |........2.2.....|
|00 00 00 00 00 00 00 00 00 21 53 74 6F 63 6B 70 |.........!Stockp|
|69 6C 65 64 20 50 69 6C 67 72 69 6D 27 73 20 50 |iled Pilgrim's P|
|72 61 79 65 72 20 42 65 61 64 73 00 00 00 05 05 |rayer Beads.....|
|00 05 08 00 10 09 00 7D 02 00 06 0C 00 01 00 00 |.......}........|
|34 54 68 69 73 20 63 75 72 69 6F 75 73 20 6F 62 |4This curious ob|
|6A 65 63 74 20 63 61 6E 20 62 65 20 75 73 65 64 |ject can be used|
|20 74 6F 20 63 72 65 61 74 65 20 74 61 6C 69 73 | to create talis|
|6D 61 6E 73 2E 01 01 00 00 03 06 00 00 00 00 00 |mans............|
|00 00 00 7D 00 00 00 00 00 00 00 00 00 00 00 00 |...}............|
|00 0B 03 00 00 C3 50 00 00 02 E8 4D 12 56 00 00 |......P....M.V..|
|00 00 00 00 00 00 00 22 00 1E 00 00 00 03 00 00 |......."........|
|00 00 00 00 00 00 00 00 00 00 09 C4 00 32 00 01 |.............2..|
|00 00 00 00 00 00 00 00 00 00 00 00 13 45 6E 65 |.............Ene|
|72 67 69 7A 69 6E 67 20 43 6F 6D 70 6F 75 6E 64 |rgizing Compound|
|00 00 00 07 05 00 04 08 00 02 09 00 C8 06 00 2E |................|
|01 FF EA 0C FF F6 0E FF F6 00 00 51 54 68 69 73 |...........QThis|
|20 63 75 72 69 6F 75 73 20 6D 61 74 65 72 69 61 | curious materia|
|6C 20 69 73 20 61 76 61 69 6C 61 62 6C 65 20 6F |l is available o|
|6E 6C 79 20 74 6F 20 67 75 69 6C 64 20 61 72 74 |nly to guild art|
|69 73 61 6E 20 6F 66 20 74 68 65 20 41 70 6F 74 |isan of the Apot|
|68 65 63 61 72 79 20 74 72 61 64 65 2E 01 01 00 |hecary trade....|
|00 03 06 20 08 00 00 00 00 00 00 C8 00 00 00 00 |... ............|
|00 00 00 00 00 00 00 00 00 0C 03 00 00 04 C0 00 |................|
|00 02 E8 4F 02 3F 00 00 00 00 00 00 00 00 00 22 |...O.?........."|
|00 1E 00 00 00 03 00 00 00 00 00 00 00 00 00 00 |................|
|00 00 00 3D 00 14 00 01 00 00 00 00 00 00 00 00 |...=............|
|00 00 00 00 1F 46 61 62 72 69 63 61 74 65 64 20 |.....Fabricated |
|41 72 74 69 73 61 6E 27 73 20 47 6C 61 73 73 20 |Artisan's Glass |
|56 69 61 6C 00 00 00 07 05 00 04 08 00 05 09 00 |Vial............|
|96 07 00 04 01 00 02 02 00 01 0F 00 00 00 00 32 |...............2|
|41 20 76 69 61 6C 20 75 73 65 64 20 62 79 20 61 |A vial used by a|
|6E 20 61 72 74 69 73 61 6E 20 6F 66 20 74 68 65 |n artisan of the|
|20 41 70 6F 74 68 65 63 61 72 79 20 74 72 61 64 | Apothecary trad|
|65 2E 01 01 00 00 03 06 00 08 00 00 00 00 00 00 |e...............|
|96 00 00 00 00 00 00 00 00 00 00 00 00 00 0D 03 |................|
|00 00 04 C0 00 00 02 E8 50 1D 36 00 00 00 00 00 |........P.6.....|
|00 00 00 00 00 00 1E 00 00 00 03 00 00 00 00 00 |................|
|00 00 00 00 00 00 00 00 3D 00 14 00 01 00 00 00 |........=.......|
|00 00 00 00 00 00 00 00 00 1E 46 61 62 72 69 63 |..........Fabric|
|61 74 65 64 20 41 72 74 69 73 61 6E 27 73 20 52 |ated Artisan's R|
|65 6C 69 63 20 42 6F 78 00 00 00 07 05 00 05 08 |elic Box........|
|00 0D 09 00 96 02 00 00 0E 00 04 07 00 04 0F 00 |................|
|00 00 00 37 41 20 76 69 61 6C 20 75 73 65 64 20 |...7A vial used |
|62 79 20 61 6E 20 61 72 74 69 73 61 6E 20 6F 66 |by an artisan of|
|20 74 68 65 20 54 61 6C 69 73 6D 61 6E 2D 4D 61 | the Talisman-Ma|
|6B 69 6E 67 20 74 72 61 64 65 2E 01 01 00 00 03 |king trade......|
|06 00 08 00 00 00 00 00 00 96 00 00 00 00 00 00 |................|
|00 00 00 00 00 00 00 0E 03 00 00 04 60 00 00 02 |............`...|
|E8 52 14 09 00 00 00 00 00 00 00 00 00 00 00 1E |.R..............|
|00 00 00 02 00 00 00 00 00 00 00 00 00 00 00 00 |................|
|00 38 00 14 00 01 00 00 00 00 00 00 00 00 00 00 |.8..............|
|00 00 0C 46 65 72 74 69 6C 65 20 53 6F 69 6C 00 |...Fertile Soil.|
|00 00 04 09 00 96 0A 00 28 0C 00 0F 05 00 03 00 |........(.......|
|00 3A 41 20 68 69 67 68 2D 67 72 61 64 65 20 73 |.:A high-grade s|
|6F 69 6C 20 75 73 65 64 20 74 6F 20 65 6E 68 61 |oil used to enha|
|6E 63 65 20 74 68 65 20 63 75 6C 74 69 76 61 74 |nce the cultivat|
|69 6F 6E 20 70 72 6F 63 65 73 73 2E 01 01 00 00 |ion process.....|
|03 06 00 08 00 00 00 00 00 00 96 02 00 00 00 00 |................|
|00 00 00 00 00 00 00 00 0F 03 00 00 04 60 00 00 |.............`..|
|02 E8 53 14 2F 00 00 00 00 00 00 00 00 00 22 00 |..S./.........".|
|1E 00 00 00 02 00 00 00 00 00 00 00 00 00 00 00 |................|
|00 00 38 00 14 00 01 00 00 00 00 00 00 00 00 00 |..8.............|
|00 00 00 1A 53 68 69 6E 69 6E 67 20 53 74 65 65 |....Shining Stee|
|6C 20 57 61 74 65 72 69 6E 67 20 43 61 6E 00 00 |l Watering Can..|
|00 04 09 00 96 0A 00 28 0E 00 06 05 00 03 00 00 |.......(........|
|48 41 20 6D 61 67 69 63 61 6C 6C 79 2D 69 6D 62 |HA magically-imb|
|75 65 64 20 77 61 74 65 72 69 6E 67 20 63 61 6E |ued watering can|
|20 75 73 65 64 20 74 6F 20 65 6E 68 61 6E 63 65 | used to enhance|
|20 74 68 65 20 63 75 6C 74 69 76 61 74 69 6F 6E | the cultivation|
|20 70 72 6F 63 65 73 73 2E 01 01 00 00 03 06 00 | process........|
|08 00 00 00 00 00 00 96 03 00 00 00 00 00 00 00 |................|
|00 00 00 00 00 10 03 00 00 04 60 00 00 02 E8 54 |..........`....T|
|02 28 00 00 00 00 00 00 00 00 00 22 00 1E 00 00 |.(........."....|
|00 02 00 00 00 00 00 00 00 00 00 00 00 00 00 38 |...............8|
|00 14 00 01 00 00 00 00 00 00 00 00 00 00 00 00 |................|
|11 42 6C 61 63 6B 65 6E 65 64 20 56 69 73 63 65 |.Blackened Visce|
|72 61 00 00 00 04 09 00 96 0A 00 28 0D FF FC 05 |ra.........(....|
|00 03 00 00 41 41 20 68 69 67 68 2D 67 72 61 64 |....AA high-grad|
|65 20 6E 75 74 72 69 65 6E 74 20 75 73 65 64 20 |e nutrient used |
|74 6F 20 64 65 63 72 65 61 73 65 20 74 68 65 20 |to decrease the |
|63 68 61 6E 63 65 20 6F 66 20 70 6C 61 6E 74 20 |chance of plant |
|64 65 61 74 68 2E 01 01 00 00 03 06 00 08 00 00 |death...........|
|00 00 00 00 96 04 00 00 00 00 00 00 00 00 00 00 |................|
|00 00 11 03 00 00 04 60 00 00 02 E8 55 14 0C 00 |.......`....U...|
|00 00 00 00 00 00 00 00 00 00 1C 00 00 00 03 00 |................|
|00 00 00 00 00 00 00 00 00 00 00 00 38 00 14 00 |............8...|
|01 00 00 00 00 00 00 00 00 00 00 00 00 13 52 68 |..............Rh|
|79 61 27 73 20 46 65 72 74 69 6C 65 20 4C 6F 61 |ya's Fertile Loa|
|6D 00 00 00 04 09 00 01 0A 00 0A 0E 00 14 05 00 |m...............|
|03 00 00 3E 54 68 69 73 20 73 6F 66 74 2C 20 6D |...>This soft, m|
|6F 69 73 74 20 6C 6F 61 6D 20 63 6F 75 6C 64 20 |oist loam could |
|70 72 6F 64 75 63 65 20 73 6F 6D 65 20 76 65 72 |produce some ver|
|79 20 73 70 65 63 69 61 6C 20 6D 6F 6D 65 6E 74 |y special moment|
|73 2E 01 01 00 00 03 06 00 08 00 00 00 00 00 00 |s...............|
|01 02 00 00 00 00 00 00 00 00 00 00 00 00 00    |............... |
-------------------------------------------------------------------
[Server] packet : (0xBF) F_INIT_STORE  Size = 11 
|------------------------------------------------|----------------|
|00 01 02 03 04 05 06 07 08 09 0A 0B 0C 0D 0E 0F |0123456789ABCDEF|
|------------------------------------------------|----------------|
|00 08 BF 00 00 06 00 00 01 00 00                |...........     |
-------------------------------------------------------------------
[Server] packet : (0xBF) F_INIT_STORE  Size = 3215 
|------------------------------------------------|----------------|
|00 01 02 03 04 05 06 07 08 09 0A 0B 0C 0D 0E 0F |0123456789ABCDEF|
|------------------------------------------------|----------------|
|0C 8C BF 00 00 07 0F 00 01 00 00 01 00 02 49 F0 |..............I.|
|00 00 02 D9 BA 24 59 00 00 00 00 00 00 00 00 00 |.....$Y.........|
|00 14 01 00 00 00 01 00 04 00 00 00 00 00 00 00 |................|
|00 00 00 EA 60 00 01 00 01 00 00 00 00 00 00 00 |....`...........|
|00 00 00 00 00 11 57 68 69 74 65 20 52 69 64 69 |......White Ridi|
|6E 27 20 57 75 6C 66 00 00 01 00 00 39 11 00 00 |n' Wulf.....9...|
|00 00 00 00 00 59 54 68 69 73 20 69 74 65 6D 20 |.....YThis item |
|77 69 6C 6C 20 73 75 6D 6D 6F 6E 20 79 6F 75 72 |will summon your|
|20 6D 69 67 68 74 79 20 73 74 65 65 64 2E 20 54 | mighty steed. T|
|6F 20 64 69 73 6D 6F 75 6E 74 2C 20 61 63 74 69 |o dismount, acti|
|76 61 74 65 20 74 68 65 20 69 74 65 6D 2E 20 28 |vate the item. (|
|47 75 69 6C 64 20 52 61 6E 6B 20 32 35 2B 29 01 |Guild Rank 25+).|
|01 00 00 03 06 40 08 00 00 00 00 00 00 00 00 00 |.....@..........|
|00 00 00 00 00 00 00 00 00 00 00 01 01 00 02 49 |...............I|
|F0 00 00 02 D9 BB 24 59 00 00 00 00 00 00 00 00 |......$Y........|
|00 00 14 01 00 00 00 01 00 04 00 00 00 00 00 00 |................|
|00 00 00 00 EA 60 00 01 00 01 00 00 00 00 00 00 |.....`..........|
|00 00 00 00 00 00 11 42 72 6F 77 6E 20 52 69 64 |.......Brown Rid|
|69 6E 27 20 57 75 6C 66 00 00 01 00 00 39 12 00 |in' Wulf.....9..|
|00 00 00 00 00 00 59 54 68 69 73 20 69 74 65 6D |......YThis item|
|20 77 69 6C 6C 20 73 75 6D 6D 6F 6E 20 79 6F 75 | will summon you|
|72 20 6D 69 67 68 74 79 20 73 74 65 65 64 2E 20 |r mighty steed. |
|54 6F 20 64 69 73 6D 6F 75 6E 74 2C 20 61 63 74 |To dismount, act|
|69 76 61 74 65 20 74 68 65 20 69 74 65 6D 2E 20 |ivate the item. |
|28 47 75 69 6C 64 20 52 61 6E 6B 20 32 35 2B 29 |(Guild Rank 25+)|
|01 01 00 00 03 06 40 08 00 00 00 00 00 00 00 00 |......@.........|
|00 00 00 00 00 00 00 00 00 00 00 00 02 01 00 02 |................|
|49 F0 00 00 02 D9 BC 24 59 00 00 00 00 00 00 00 |I......$Y.......|
|00 00 00 14 01 00 00 00 01 00 04 00 00 00 00 00 |................|
|00 00 00 00 00 EA 60 00 01 00 01 00 00 00 00 00 |......`.........|
|00 00 00 00 00 00 00 0F 52 65 64 20 52 69 64 69 |........Red Ridi|
|6E 27 20 57 75 6C 66 00 00 01 00 00 39 13 00 00 |n' Wulf.....9...|
|00 00 00 00 00 59 54 68 69 73 20 69 74 65 6D 20 |.....YThis item |
|77 69 6C 6C 20 73 75 6D 6D 6F 6E 20 79 6F 75 72 |will summon your|
|20 6D 69 67 68 74 79 20 73 74 65 65 64 2E 20 54 | mighty steed. T|
|6F 20 64 69 73 6D 6F 75 6E 74 2C 20 61 63 74 69 |o dismount, acti|
|76 61 74 65 20 74 68 65 20 69 74 65 6D 2E 20 28 |vate the item. (|
|47 75 69 6C 64 20 52 61 6E 6B 20 32 35 2B 29 01 |Guild Rank 25+).|
|01 00 00 03 06 40 08 00 00 00 00 00 00 00 00 00 |.....@..........|
|00 00 00 00 00 00 00 00 00 00 00 03 01 00 02 49 |...............I|
|F0 00 00 02 D9 C0 24 5A 00 00 00 00 00 00 00 00 |......$Z........|
|00 00 14 01 00 00 00 01 00 02 00 00 00 00 00 00 |................|
|00 00 00 00 EA 60 00 01 00 01 00 00 00 00 00 00 |.....`..........|
|00 00 00 00 00 00 11 57 68 69 74 65 20 52 69 64 |.......White Rid|
|69 6E 27 20 42 6F 61 72 00 00 01 00 00 39 17 00 |in' Boar.....9..|
|00 00 00 00 00 00 59 54 68 69 73 20 69 74 65 6D |......YThis item|
|20 77 69 6C 6C 20 73 75 6D 6D 6F 6E 20 79 6F 75 | will summon you|
|72 20 6D 69 67 68 74 79 20 73 74 65 65 64 2E 20 |r mighty steed. |
|54 6F 20 64 69 73 6D 6F 75 6E 74 2C 20 61 63 74 |To dismount, act|
|69 76 61 74 65 20 74 68 65 20 69 74 65 6D 2E 20 |ivate the item. |
|28 47 75 69 6C 64 20 52 61 6E 6B 20 32 35 2B 29 |(Guild Rank 25+)|
|01 01 00 00 03 06 40 08 00 00 00 00 00 00 00 00 |......@.........|
|00 00 00 00 00 00 00 00 00 00 00 00 04 01 00 02 |................|
|49 F0 00 00 02 D9 C1 24 5A 00 00 00 00 00 00 00 |I......$Z.......|
|00 00 00 14 01 00 00 00 01 00 02 00 00 00 00 00 |................|
|00 00 00 00 00 EA 60 00 01 00 01 00 00 00 00 00 |......`.........|
|00 00 00 00 00 00 00 13 42 72 69 6E 64 6C 65 20 |........Brindle |
|52 69 64 69 6E 27 20 42 6F 61 72 00 00 01 00 00 |Ridin' Boar.....|
|39 18 00 00 00 00 00 00 00 59 54 68 69 73 20 69 |9........YThis i|
|74 65 6D 20 77 69 6C 6C 20 73 75 6D 6D 6F 6E 20 |tem will summon |
|79 6F 75 72 20 6D 69 67 68 74 79 20 73 74 65 65 |your mighty stee|
|64 2E 20 54 6F 20 64 69 73 6D 6F 75 6E 74 2C 20 |d. To dismount, |
|61 63 74 69 76 61 74 65 20 74 68 65 20 69 74 65 |activate the ite|
|6D 2E 20 28 47 75 69 6C 64 20 52 61 6E 6B 20 32 |m. (Guild Rank 2|
|35 2B 29 01 01 00 00 03 06 40 08 00 00 00 00 00 |5+)......@......|
|00 00 00 00 00 00 00 00 00 00 00 00 00 00 00 05 |................|
|01 00 02 49 F0 00 00 02 D9 C2 24 5A 00 00 00 00 |...I......$Z....|
|00 00 00 00 00 00 14 01 00 00 00 01 00 02 00 00 |................|
|00 00 00 00 00 00 00 00 EA 60 00 01 00 01 00 00 |.........`......|
|00 00 00 00 00 00 00 00 00 00 11 53 74 72 61 77 |...........Straw|
|20 52 69 64 69 6E 27 20 42 6F 61 72 00 00 01 00 | Ridin' Boar....|
|00 39 19 00 00 00 00 00 00 00 59 54 68 69 73 20 |.9........YThis |
|69 74 65 6D 20 77 69 6C 6C 20 73 75 6D 6D 6F 6E |item will summon|
|20 79 6F 75 72 20 6D 69 67 68 74 79 20 73 74 65 | your mighty ste|
|65 64 2E 20 54 6F 20 64 69 73 6D 6F 75 6E 74 2C |ed. To dismount,|
|20 61 63 74 69 76 61 74 65 20 74 68 65 20 69 74 | activate the it|
|65 6D 2E 20 28 47 75 69 6C 64 20 52 61 6E 6B 20 |em. (Guild Rank |
|32 35 2B 29 01 01 00 00 03 06 40 08 00 00 00 00 |25+)......@.....|
|00 00 00 00 00 00 00 00 00 00 00 00 00 00 00 00 |................|
|06 03 00 02 49 F0 00 00 02 D9 CA 24 57 00 00 00 |....I......$W...|
|00 00 00 00 00 00 00 14 01 00 00 00 01 00 00 00 |................|
|00 70 00 00 00 00 00 00 00 EA 60 00 01 00 01 00 |.p........`.....|
|00 00 00 00 00 00 00 00 00 00 00 19 52 6F 74 74 |............Rott|
|65 6E 20 47 72 65 65 6E 20 4D 61 72 6B 65 64 20 |en Green Marked |
|53 74 65 65 64 00 00 01 00 00 39 21 00 00 00 00 |Steed.....9!....|
|00 00 00 59 54 68 69 73 20 69 74 65 6D 20 77 69 |...YThis item wi|
|6C 6C 20 73 75 6D 6D 6F 6E 20 79 6F 75 72 20 6D |ll summon your m|
|69 67 68 74 79 20 73 74 65 65 64 2E 20 54 6F 20 |ighty steed. To |
|64 69 73 6D 6F 75 6E 74 2C 20 61 63 74 69 76 61 |dismount, activa|
|74 65 20 74 68 65 20 69 74 65 6D 2E 20 28 47 75 |te the item. (Gu|
|69 6C 64 20 52 61 6E 6B 20 32 35 2B 29 01 01 00 |ild Rank 25+)...|
|00 03 06 40 08 00 00 00 00 00 00 00 00 00 00 00 |...@............|
|00 00 00 00 00 00 00 00 00 07 03 00 02 49 F0 00 |.............I..|
|00 02 D9 CB 24 57 00 00 00 00 00 00 00 00 00 00 |....$W..........|
|14 01 00 00 00 01 00 00 00 00 70 00 00 00 00 00 |..........p.....|
|00 00 EA 60 00 01 00 01 00 00 00 00 00 00 00 00 |...`............|
|00 00 00 00 16 44 61 72 6B 20 42 6C 75 65 20 4D |.....Dark Blue M|
|61 72 6B 65 64 20 53 74 65 65 64 00 00 01 00 00 |arked Steed.....|
|39 22 00 00 00 00 00 00 00 59 54 68 69 73 20 69 |9".......YThis i|
|74 65 6D 20 77 69 6C 6C 20 73 75 6D 6D 6F 6E 20 |tem will summon |
|79 6F 75 72 20 6D 69 67 68 74 79 20 73 74 65 65 |your mighty stee|
|64 2E 20 54 6F 20 64 69 73 6D 6F 75 6E 74 2C 20 |d. To dismount, |
|61 63 74 69 76 61 74 65 20 74 68 65 20 69 74 65 |activate the ite|
|6D 2E 20 28 47 75 69 6C 64 20 52 61 6E 6B 20 32 |m. (Guild Rank 2|
|35 2B 29 01 01 00 00 03 06 40 08 00 00 00 00 00 |5+)......@......|
|00 00 00 00 00 00 00 00 00 00 00 00 00 00 00 08 |................|
|03 00 02 49 F0 00 00 02 D9 CD 24 57 00 00 00 00 |...I......$W....|
|00 00 00 00 00 00 14 01 00 00 00 01 00 00 00 00 |................|
|70 00 00 00 00 00 00 00 EA 60 00 01 00 01 00 00 |p........`......|
|00 00 00 00 00 00 00 00 00 00 17 44 61 65 6D 6F |...........Daemo|
|6E 20 52 65 64 20 4D 61 72 6B 65 64 20 53 74 65 |n Red Marked Ste|
|65 64 00 00 01 00 00 39 24 00 00 00 00 00 00 00 |ed.....9$.......|
|59 54 68 69 73 20 69 74 65 6D 20 77 69 6C 6C 20 |YThis item will |
|73 75 6D 6D 6F 6E 20 79 6F 75 72 20 6D 69 67 68 |summon your migh|
|74 79 20 73 74 65 65 64 2E 20 54 6F 20 64 69 73 |ty steed. To dis|
|6D 6F 75 6E 74 2C 20 61 63 74 69 76 61 74 65 20 |mount, activate |
|74 68 65 20 69 74 65 6D 2E 20 28 47 75 69 6C 64 |the item. (Guild|
|20 52 61 6E 6B 20 32 35 2B 29 01 01 00 00 03 06 | Rank 25+)......|
|40 08 00 00 00 00 00 00 00 00 00 00 00 00 00 00 |@...............|
|00 00 00 00 00 00 09 01 00 02 49 F0 00 00 02 D9 |..........I.....|
|D6 24 58 00 00 00 00 00 00 00 00 00 00 14 01 00 |.$X.............|
|00 00 01 00 10 00 00 00 00 00 00 00 00 00 00 EA |................|
|60 00 01 00 01 00 00 00 00 00 00 00 00 00 00 00 |`...............|
|00 14 57 68 69 74 65 20 46 65 72 61 6C 20 43 6F |..White Feral Co|
|6C 64 20 4F 6E 65 00 00 01 00 00 39 2D 00 00 00 |ld One.....9-...|
|00 00 00 00 59 54 68 69 73 20 69 74 65 6D 20 77 |....YThis item w|
|69 6C 6C 20 73 75 6D 6D 6F 6E 20 79 6F 75 72 20 |ill summon your |
|6D 69 67 68 74 79 20 73 74 65 65 64 2E 20 54 6F |mighty steed. To|
|20 64 69 73 6D 6F 75 6E 74 2C 20 61 63 74 69 76 | dismount, activ|
|61 74 65 20 74 68 65 20 69 74 65 6D 2E 20 28 47 |ate the item. (G|
|75 69 6C 64 20 52 61 6E 6B 20 32 35 2B 29 01 01 |uild Rank 25+)..|
|00 00 03 06 40 08 00 00 00 00 00 00 00 00 00 00 |....@...........|
|00 00 00 00 00 00 00 00 00 00 0A 01 00 02 49 F0 |..............I.|
|00 00 02 D9 D8 24 58 00 00 00 00 00 00 00 00 00 |.....$X.........|
|00 14 01 00 00 00 01 00 10 00 00 00 00 00 00 00 |................|
|00 00 00 EA 60 00 01 00 01 00 00 00 00 00 00 00 |....`...........|
|00 00 00 00 00 1B 47 6C 61 63 69 65 72 20 42 6C |......Glacier Bl|
|75 65 20 46 65 72 61 6C 20 43 6F 6C 64 20 4F 6E |ue Feral Cold On|
|65 00 00 01 00 00 39 2F 00 00 00 00 00 00 00 59 |e.....9/.......Y|
|54 68 69 73 20 69 74 65 6D 20 77 69 6C 6C 20 73 |This item will s|
|75 6D 6D 6F 6E 20 79 6F 75 72 20 6D 69 67 68 74 |ummon your might|
|79 20 73 74 65 65 64 2E 20 54 6F 20 64 69 73 6D |y steed. To dism|
|6F 75 6E 74 2C 20 61 63 74 69 76 61 74 65 20 74 |ount, activate t|
|68 65 20 69 74 65 6D 2E 20 28 47 75 69 6C 64 20 |he item. (Guild |
|52 61 6E 6B 20 32 35 2B 29 01 01 00 00 03 06 40 |Rank 25+)......@|
|08 00 00 00 00 00 00 00 00 00 00 00 00 00 00 00 |................|
|00 00 00 00 00 0B 01 00 02 49 F0 00 00 02 D9 D9 |.........I......|
|24 58 00 00 00 00 00 00 00 00 00 00 14 01 00 00 |$X..............|
|00 01 00 10 00 00 00 00 00 00 00 00 00 00 EA 60 |...............`|
|00 01 00 01 00 00 00 00 00 00 00 00 00 00 00 00 |................|
|1A 42 6C 61 63 6B 20 53 6C 61 74 65 20 46 65 72 |.Black Slate Fer|
|61 6C 20 43 6F 6C 64 20 4F 6E 65 00 00 01 00 00 |al Cold One.....|
|39 30 00 00 00 00 00 00 00 59 54 68 69 73 20 69 |90.......YThis i|
|74 65 6D 20 77 69 6C 6C 20 73 75 6D 6D 6F 6E 20 |tem will summon |
|79 6F 75 72 20 6D 69 67 68 74 79 20 73 74 65 65 |your mighty stee|
|64 2E 20 54 6F 20 64 69 73 6D 6F 75 6E 74 2C 20 |d. To dismount, |
|61 63 74 69 76 61 74 65 20 74 68 65 20 69 74 65 |activate the ite|
|6D 2E 20 28 47 75 69 6C 64 20 52 61 6E 6B 20 32 |m. (Guild Rank 2|
|35 2B 29 01 01 00 00 03 06 40 08 00 00 00 00 00 |5+)......@......|
|00 00 00 00 00 00 00 00 00 00 00 00 00 00 00 0C |................|
|01 00 02 49 F0 00 00 02 D9 DE 24 5E 00 00 00 00 |...I......$^....|
|00 00 00 00 00 00 14 01 00 00 00 01 00 00 00 00 |................|
|80 00 00 00 00 00 00 00 EA 60 00 01 00 01 00 00 |.........`......|
|00 00 00 00 00 00 00 00 00 00 1B 44 65 63 61 79 |...........Decay|
|65 64 20 46 6C 65 73 68 20 45 6E 73 6C 61 76 65 |ed Flesh Enslave|
|64 20 44 69 73 63 00 00 01 00 00 39 05 00 00 00 |d Disc.....9....|
|00 00 00 00 59 54 68 69 73 20 69 74 65 6D 20 77 |....YThis item w|
|69 6C 6C 20 73 75 6D 6D 6F 6E 20 79 6F 75 72 20 |ill summon your |
|6D 69 67 68 74 79 20 73 74 65 65 64 2E 20 54 6F |mighty steed. To|
|20 64 69 73 6D 6F 75 6E 74 2C 20 61 63 74 69 76 | dismount, activ|
|61 74 65 20 74 68 65 20 69 74 65 6D 2E 20 28 47 |ate the item. (G|
|75 69 6C 64 20 52 61 6E 6B 20 32 35 2B 29 01 01 |uild Rank 25+)..|
|00 00 03 06 42 08 00 00 00 00 00 00 00 00 00 00 |....B...........|
|00 00 00 00 00 00 00 00 00 00 0D 01 00 02 49 F0 |..............I.|
|00 00 02 D9 DF 24 5F 00 00 00 00 00 00 00 00 00 |.....$_.........|
|00 14 01 00 00 00 01 00 00 00 00 80 00 00 00 00 |................|
|00 00 00 EA 60 00 01 00 01 00 00 00 00 00 00 00 |....`...........|
|00 00 00 00 00 1A 4D 6F 6F 6E 6C 69 74 20 42 6C |......Moonlit Bl|
|75 65 20 45 6E 73 6C 61 76 65 64 20 44 69 73 63 |ue Enslaved Disc|
|00 00 01 00 00 39 06 00 00 00 00 00 00 00 59 54 |.....9........YT|
|68 69 73 20 69 74 65 6D 20 77 69 6C 6C 20 73 75 |his item will su|
|6D 6D 6F 6E 20 79 6F 75 72 20 6D 69 67 68 74 79 |mmon your mighty|
|20 73 74 65 65 64 2E 20 54 6F 20 64 69 73 6D 6F | steed. To dismo|
|75 6E 74 2C 20 61 63 74 69 76 61 74 65 20 74 68 |unt, activate th|
|65 20 69 74 65 6D 2E 20 28 47 75 69 6C 64 20 52 |e item. (Guild R|
|61 6E 6B 20 32 35 2B 29 01 01 00 00 03 06 42 08 |ank 25+)......B.|
|00 00 00 00 00 00 00 00 00 00 00 00 00 00 00 00 |................|
|00 00 00 00 0E 01 00 02 49 F0 00 00 02 D9 E0 24 |........I......$|
|60 00 00 00 00 00 00 00 00 00 00 14 01 00 00 00 |`...............|
|01 00 00 00 00 80 00 00 00 00 00 00 00 EA 60 00 |..............`.|
|01 00 01 00 00 00 00 00 00 00 00 00 00 00 00 1A |................|
|47 6C 61 63 69 65 72 20 42 6C 75 65 20 45 6E 73 |Glacier Blue Ens|
|6C 61 76 65 64 20 44 69 73 63 00 00 01 00 00 39 |laved Disc.....9|
|07 00 00 00 00 00 00 00 59 54 68 69 73 20 69 74 |........YThis it|
|65 6D 20 77 69 6C 6C 20 73 75 6D 6D 6F 6E 20 79 |em will summon y|
|6F 75 72 20 6D 69 67 68 74 79 20 73 74 65 65 64 |our mighty steed|
|2E 20 54 6F 20 64 69 73 6D 6F 75 6E 74 2C 20 61 |. To dismount, a|
|63 74 69 76 61 74 65 20 74 68 65 20 69 74 65 6D |ctivate the item|
|2E 20 28 47 75 69 6C 64 20 52 61 6E 6B 20 32 35 |. (Guild Rank 25|
|2B 29 01 01 00 00 03 06 42 08 00 00 00 00 00 00 |+)......B.......|
|00 00 00 00 00 00 00 00 00 00 00 00 00 00 00    |............... |
-------------------------------------------------------------------
[Server] packet : (0xC0) F_STORE_BUY_BACK  Size = 5 
|------------------------------------------------|----------------|
|00 01 02 03 04 05 06 07 08 09 0A 0B 0C 0D 0E 0F |0123456789ABCDEF|
|------------------------------------------------|----------------|
|00 02 C0 00 00                                  |.....           |
-------------------------------------------------------------------
[Client] packet : (0x0B) F_PING  Size = 32 
|------------------------------------------------|----------------|
|00 01 02 03 04 05 06 07 08 09 0A 0B 0C 0D 0E 0F |0123456789ABCDEF|
|------------------------------------------------|----------------|
|00 14 D3 77 00 1F 00 00 00 0B 00 B6 F4 D7 F8 FF |...w............|
|2F FA FE 3B DD CD 00 00 00 00 00 00 00 00 C0 88 |/..;............|                                                
-------------------------------------------------------------------
[Server] packet : (0x81) S_PONG  Size = 23 
|------------------------------------------------|----------------|
|00 01 02 03 04 05 06 07 08 09 0A 0B 0C 0D 0E 0F |0123456789ABCDEF|
|------------------------------------------------|----------------|
|00 14 81 00 B6 F4 D7 52 75 88 23 00 00 00 00 00 |.......Ru.#.....|
|00 D3 78 00 00 00 00                            |.......         |
-------------------------------------------------------------------
[Client] packet : (0x01) UNKNOWN  Size = 32 
|------------------------------------------------|----------------|
|00 01 02 03 04 05 06 07 08 09 0A 0B 0C 0D 0E 0F |0123456789ABCDEF|
|------------------------------------------------|----------------|
|00 14 D3 7A 00 1F 00 00 00 01 00 B6 F5 65 00 00 |...z.........e..|
|00 00 00 00 00 00 00 00 55 91 00 00 2A 92 00 00 |........U...*...|                                                
-------------------------------------------------------------------
[Server] packet : (0x00) UNKNOWN  Size = 23 
|------------------------------------------------|----------------|
|00 01 02 03 04 05 06 07 08 09 0A 0B 0C 0D 0E 0F |0123456789ABCDEF|
|------------------------------------------------|----------------|
|00 14 00 00 B6 F5 65 7C 9B DD DB 00 00 00 00 00 |......e|........|
|00 55 91 00 00 2A 00                            |.......         |
-------------------------------------------------------------------
[Server] packet : (0x0A) F_OBJECT_DEATH  Size = 15 
|------------------------------------------------|----------------|
|00 01 02 03 04 05 06 07 08 09 0A 0B 0C 0D 0E 0F |0123456789ABCDEF|
|------------------------------------------------|----------------|
|00 0C 0A 23 54 00 00 00 00 00 00 00 00 00 00    |............... |
-------------------------------------------------------------------
[Client] packet : (0x0B) F_PING  Size = 32 
|------------------------------------------------|----------------|
|00 01 02 03 04 05 06 07 08 09 0A 0B 0C 0D 0E 0F |0123456789ABCDEF|
|------------------------------------------------|----------------|
|00 14 D3 83 00 1F 00 00 00 0B 00 B7 08 68 24 98 |.............h$.|
|C4 4E 44 A4 1A 91 00 00 00 00 00 00 00 00 C0 88 |.ND.............|                                                
-------------------------------------------------------------------
[Server] packet : (0x81) S_PONG  Size = 23 
|------------------------------------------------|----------------|
|00 01 02 03 04 05 06 07 08 09 0A 0B 0C 0D 0E 0F |0123456789ABCDEF|
|------------------------------------------------|----------------|
|00 14 81 00 B7 08 68 52 75 88 28 00 00 00 00 00 |......hRu.(.....|
|00 D3 84 00 00 00 00                            |.......         |
-------------------------------------------------------------------
[Client] packet : (0xFE) F_PLAY_VOICE_OVER  Size = 16 
|------------------------------------------------|----------------|
|00 01 02 03 04 05 06 07 08 09 0A 0B 0C 0D 0E 0F |0123456789ABCDEF|
|------------------------------------------------|----------------|
|00 04 D3 8B 00 1F FF FF 00 FE 02 00 00 00 26 F9 |..............&.|                                                
-------------------------------------------------------------------
[Server] packet : (0x74) UNKNOWN  Size = 44 
|------------------------------------------------|----------------|
|00 01 02 03 04 05 06 07 08 09 0A 0B 0C 0D 0E 0F |0123456789ABCDEF|
|------------------------------------------------|----------------|
|00 29 74 01 01 00 00 00 04 02 00 00 02 00 03 00 |.)t.............|
|00 00 00 00 00 00 01 00 01 00 00 01 F4 00 00 01 |................|
|7A 02 00 01 00 00 01 F4 00 00 00 00             |............    |
-------------------------------------------------------------------
[Client] packet : (0x0B) F_PING  Size = 32 
|------------------------------------------------|----------------|
|00 01 02 03 04 05 06 07 08 09 0A 0B 0C 0D 0E 0F |0123456789ABCDEF|
|------------------------------------------------|----------------|
|00 14 D3 8F 00 1F 00 00 00 0B 00 B7 1C 02 51 AB |..............Q.|
|39 B9 CF F9 CB EF 00 00 00 00 00 00 00 00 C0 88 |9...............|                                                
-------------------------------------------------------------------
[Server] packet : (0x81) S_PONG  Size = 23 
|------------------------------------------------|----------------|
|00 01 02 03 04 05 06 07 08 09 0A 0B 0C 0D 0E 0F |0123456789ABCDEF|
|------------------------------------------------|----------------|
|00 14 81 00 B7 1C 02 52 75 88 2D 00 00 00 00 00 |.......Ru.-.....|
|00 D3 90 00 00 00 00                            |.......         |
-------------------------------------------------------------------
[Client] packet : (0x01) UNKNOWN  Size = 32 
|------------------------------------------------|----------------|
|00 01 02 03 04 05 06 07 08 09 0A 0B 0C 0D 0E 0F |0123456789ABCDEF|
|------------------------------------------------|----------------|
|00 14 D3 94 00 1F 00 00 00 01 00 B7 1F 71 00 00 |.............q..|
|00 00 00 00 00 00 00 00 40 82 00 00 14 D1 B7 42 |........@......B|                                                
-------------------------------------------------------------------
[Client] packet : (0x5A) F_PING_DATAGRAM  Size = 13 
|------------------------------------------------|----------------|
|00 01 02 03 04 05 06 07 08 09 0A 0B 0C 0D 0E 0F |0123456789ABCDEF|
|------------------------------------------------|----------------|
|00 01 D3 96 00 1F FF FF 00 5A 00 85 42          |.............   |
-------------------------------------------------------------------
[Server] packet : (0x00) UNKNOWN  Size = 23 
|------------------------------------------------|----------------|
|00 01 02 03 04 05 06 07 08 09 0A 0B 0C 0D 0E 0F |0123456789ABCDEF|
|------------------------------------------------|----------------|
|00 14 00 00 B7 1F 71 7C 9C 07 D4 00 00 00 00 00 |......q|........|
|00 40 82 00 00 14 00                            |.......         |
-------------------------------------------------------------------
[Client] packet : (0x0B) F_PING  Size = 32 
|------------------------------------------------|----------------|
|00 01 02 03 04 05 06 07 08 09 0A 0B 0C 0D 0E 0F |0123456789ABCDEF|
|------------------------------------------------|----------------|
|00 14 D3 9C 00 1F 00 00 00 0B 00 B7 2F F2 4F 63 |............/.Oc|
|FF B4 5C 38 FD CA 00 00 00 00 00 00 00 00 C0 88 |..\8............|                                                
-------------------------------------------------------------------
[Server] packet : (0x81) S_PONG  Size = 23 
|------------------------------------------------|----------------|
|00 01 02 03 04 05 06 07 08 09 0A 0B 0C 0D 0E 0F |0123456789ABCDEF|
|------------------------------------------------|----------------|
|00 14 81 00 B7 2F F2 52 75 88 32 00 00 00 00 00 |...../.Ru.2.....|
|00 D3 9D 00 00 00 00                            |.......         |
-------------------------------------------------------------------
[Client] packet : (0x0B) F_PING  Size = 32 
|------------------------------------------------|----------------|
|00 01 02 03 04 05 06 07 08 09 0A 0B 0C 0D 0E 0F |0123456789ABCDEF|
|------------------------------------------------|----------------|
|00 14 D3 A9 00 1F 00 00 00 0B 00 B7 44 00 6E 98 |............D.n.|
|06 44 67 25 04 10 00 00 00 00 00 00 00 00 C0 88 |.Dg%............|                                                
-------------------------------------------------------------------
[Server] packet : (0x81) S_PONG  Size = 23 
|------------------------------------------------|----------------|
|00 01 02 03 04 05 06 07 08 09 0A 0B 0C 0D 0E 0F |0123456789ABCDEF|
|------------------------------------------------|----------------|
|00 14 81 00 B7 44 00 52 75 88 37 00 00 00 00 00 |.....D.Ru.7.....|
|00 D3 AA 00 00 00 00                            |.......         |
-------------------------------------------------------------------
[Client] packet : (0x01) UNKNOWN  Size = 32 
|------------------------------------------------|----------------|
|00 01 02 03 04 05 06 07 08 09 0A 0B 0C 0D 0E 0F |0123456789ABCDEF|
|------------------------------------------------|----------------|
|00 14 D3 AE 00 1F 00 00 00 01 00 B7 47 6E 20 07 |............Gn .|
|2A 68 90 38 40 04 00 23 3F B9 08 18 E5 FE 00 00 |*h.8@..#?.......|                                                
-------------------------------------------------------------------
[Server] packet : (0x00) UNKNOWN  Size = 23 
|------------------------------------------------|----------------|
|00 01 02 03 04 05 06 07 08 09 0A 0B 0C 0D 0E 0F |0123456789ABCDEF|
|------------------------------------------------|----------------|
|00 14 00 00 B7 47 6E 7C 9C 2F C2 00 00 00 00 00 |.....Gn|./......|
|23 3F B9 08 18 E5 00                            |.......         |
-------------------------------------------------------------------
[Server] packet : (0x72) F_CREATE_MONSTER  Size = 103 
|------------------------------------------------|----------------|
|00 01 02 03 04 05 06 07 08 09 0A 0B 0C 0D 0E 0F |0123456789ABCDEF|
|------------------------------------------------|----------------|
|00 64 72 0C FD 00 00 0B E9 51 B5 00 05 63 56 00 |.dr......Q...cV.|
|03 DC 53 00 00 04 8F 32 28 A1 00 00 00 00 00 00 |..S....2(.......|
|00 05 00 03 E8 00 00 00 01 40 83 00 00 00 00 01 |.........@......|
|19 00 52 69 64 69 6E 67 20 57 79 76 65 72 6E 5E |..Riding Wyvern^|
|6D 00 00 00 00 0C 00 96 01 0A 00 00 00 12 05 00 |m...............|
|0C FD 63 56 5C 53 51 B5 64 20 B2 00 00 00 00 0C |..cV\SQ.d ......|
|E9 0B 0C FD 00 00 00                            |.......         |
-------------------------------------------------------------------
[Client] packet : (0x86) F_MAIL  Size = 16 
|------------------------------------------------|----------------|
|00 01 02 03 04 05 06 07 08 09 0A 0B 0C 0D 0E 0F |0123456789ABCDEF|
|------------------------------------------------|----------------|
|00 04 D3 B1 00 1F FF FF 00 86 00 00 00 00 00 00 |................|                                                
-------------------------------------------------------------------