
[Server] packet : (0x81) S_PONG  Size = 23 
|------------------------------------------------|----------------|
|00 01 02 03 04 05 06 07 08 09 0A 0B 0C 0D 0E 0F |0123456789ABCDEF|
|------------------------------------------------|----------------|
|00 14 81 00 95 08 88 52 75 0D 81 00 00 00 00 00 |.......Ru.......|
|00 B9 A9 00 00 00 00                            |.......         |
-------------------------------------------------------------------
[Client] packet : (0xD2) F_INTERACT  Size = 24 
|------------------------------------------------|----------------|
|00 01 02 03 04 05 06 07 08 09 0A 0B 0C 0D 0E 0F |0123456789ABCDEF|
|------------------------------------------------|----------------|
|00 0C B9 AF 00 70 00 00 00 D2 00 00 02 CA 00 00 |.....p..........|
|00 00 00 00 00 00 00 00                         |........        |
-------------------------------------------------------------------
[Server] packet : (0x7E) F_SET_ABILITY_TIMER  Size = 15 
|------------------------------------------------|----------------|
|00 01 02 03 04 05 06 07 08 09 0A 0B 0C 0D 0E 0F |0123456789ABCDEF|
|------------------------------------------------|----------------|
|00 0C 7E 00 01 01 00 00 00 00 00 00 00 00 00    |............... |
-------------------------------------------------------------------
[Server] packet : (0xE9) F_INTERACT_RESPONSE  Size = 103 
|------------------------------------------------|----------------|
|00 01 02 03 04 05 06 07 08 09 0A 0B 0C 0D 0E 0F |0123456789ABCDEF|
|------------------------------------------------|----------------|
|00 64 E9 00 02 CA 00 00 00 22 00 5A 54 68 65 20 |.d.......".ZThe |
|66 69 6E 65 73 74 20 67 6F 6F 64 73 20 66 72 6F |finest goods fro|
|6D 20 65 78 6F 74 69 63 20 6C 61 6E 64 73 2C 20 |m exotic lands, |
|6E 6F 76 65 6C 74 69 65 73 20 61 6E 64 20 6E 65 |novelties and ne|
|63 65 73 73 69 74 69 65 73 20 66 6F 72 20 74 68 |cessities for th|
|65 20 64 69 73 63 65 72 6E 69 6E 67 20 6C 6F 72 |e discerning lor|
|64 6C 69 6E 67 21 00                            |.......         |
-------------------------------------------------------------------
[Client] packet : (0x5A) F_PING_DATAGRAM  Size = 13 
|------------------------------------------------|----------------|
|00 01 02 03 04 05 06 07 08 09 0A 0B 0C 0D 0E 0F |0123456789ABCDEF|
|------------------------------------------------|----------------|
|00 01 B9 B3 00 70 FF FF 00 5A 00 44 2E          |.............   |
-------------------------------------------------------------------
[Client] packet : (0xD2) F_INTERACT  Size = 24 
|------------------------------------------------|----------------|
|00 01 02 03 04 05 06 07 08 09 0A 0B 0C 0D 0E 0F |0123456789ABCDEF|
|------------------------------------------------|----------------|
|00 0C B9 B3 00 70 00 00 00 D2 00 00 02 CA 00 09 |.....p..........|
|00 00 00 00 00 00 00 00                         |........        |
-------------------------------------------------------------------
[Server] packet : (0xBF) F_INIT_STORE  Size = 4604 
|------------------------------------------------|----------------|
|00 01 02 03 04 05 06 07 08 09 0A 0B 0C 0D 0E 0F |0123456789ABCDEF|
|------------------------------------------------|----------------|
|11 F9 BF 00 00 00 1E 01 01 00 00 00 01 00 00 01 |................|
|77 00 00 0A B6 90 09 3F 00 00 00 00 00 00 00 00 |w......?........|
|14 14 03 03 03 00 00 01 00 00 00 00 00 10 00 00 |................|
|00 00 00 00 00 96 00 01 00 01 00 00 00 00 00 08 |................|
|00 00 00 4B 00 00 12 4D 69 6C 69 74 69 61 20 42 |...K...Militia B|
|6F 64 79 70 6C 61 74 65 20 00 00 00 00 00 01 00 |odyplate .......|
|00 00 00 00 01 01 00 00 03 0E 01 00 00 00 00 00 |................|
|00 00 00 00 00 00 00 00 00 00 00 00 00 00 00 01 |................|
|00 03 2E 56 22 B9 09 57 61 72 20 43 72 65 73 74 |...V"..War Crest|
|00 0A 00 00 00 00 00 00 00 00 00 00 00 00 00 00 |................|
|00 00 00 00 01 01 00 00 01 77 00 00 0A B6 91 09 |.........w......|
|7B 00 00 00 00 00 00 00 00 14 13 03 03 03 00 00 |{...............|
|01 00 00 00 00 00 20 00 00 00 00 00 00 00 96 00 |...... .........|
|01 00 01 00 00 00 00 00 04 00 00 00 32 00 00 13 |............2...|
|4D 69 6C 69 74 69 61 20 54 75 66 66 20 43 68 65 |Militia Tuff Che|
|73 74 20 00 00 00 00 00 01 00 00 00 00 00 01 01 |st .............|
|00 00 03 0E 01 00 00 00 00 00 00 00 00 00 00 00 |................|
|00 00 00 00 00 00 00 00 00 01 00 03 2E 56 22 B9 |.............V".|
|09 57 61 72 20 43 72 65 73 74 00 0A 00 00 00 00 |.War Crest......|
|00 00 00 00 00 00 00 00 00 00 00 00 00 00 02 01 |................|
|00 00 01 77 00 00 0A B6 92 09 03 00 00 00 00 00 |...w............|
|00 00 00 14 06 03 03 03 00 00 01 00 00 00 00 00 |................|
|40 00 00 00 00 00 00 00 96 00 01 00 01 00 00 00 |@...............|
|00 00 00 00 20 00 19 00 00 12 4D 69 6C 69 74 69 |.... .....Militi|
|61 20 52 6F 62 65 66 69 6E 67 73 20 00 00 00 00 |a Robefings ....|
|00 01 00 00 00 00 00 01 01 00 00 03 0E 01 00 00 |................|
|00 00 00 00 00 00 00 00 00 00 00 00 00 00 00 00 |................|
|00 00 01 00 03 2E 56 22 B9 09 57 61 72 20 43 72 |......V"..War Cr|
|65 73 74 00 0A 00 00 00 00 00 00 00 00 00 00 00 |est.............|
|00 00 00 00 00 00 00 03 01 00 00 01 77 00 00 0A |............w...|
|B6 93 08 C7 00 00 00 00 00 00 00 00 14 12 03 03 |................|
|03 00 00 01 00 00 00 00 00 80 00 00 00 00 00 00 |................|
|00 96 00 01 00 01 00 00 00 00 00 02 00 00 00 19 |................|
|00 00 10 4D 69 6C 69 74 69 61 20 43 68 65 77 74 |...Militia Chewt|
|6F 70 20 00 00 00 00 00 01 00 00 00 00 00 01 01 |op .............|
|00 00 03 0E 01 00 00 00 00 00 00 00 00 00 00 00 |................|
|00 00 00 00 00 00 00 00 00 01 00 03 2E 56 22 B9 |.............V".|
|09 57 61 72 20 43 72 65 73 74 00 0A 00 00 00 00 |.War Crest......|
|00 00 00 00 00 00 00 00 00 00 00 00 00 00 04 01 |................|
|00 00 01 77 00 00 0A B6 94 0A CC 00 00 00 00 00 |...w............|
|00 00 00 14 14 03 03 03 00 00 01 00 00 00 00 10 |................|
|00 00 00 00 00 00 00 00 96 00 01 00 01 00 00 00 |................|
|00 00 08 00 00 00 4B 00 00 11 4D 69 6C 69 74 69 |......K...Militi|
|61 20 43 61 72 61 70 61 63 65 20 00 00 00 00 00 |a Carapace .....|
|01 00 00 00 00 00 01 01 00 00 03 0E 01 00 00 00 |................|
|00 00 00 00 00 00 00 00 00 00 00 00 00 00 00 00 |................|
|00 01 00 03 2E 56 22 B9 09 57 61 72 20 43 72 65 |.....V"..War Cre|
|73 74 00 0A 00 00 00 00 00 00 00 00 00 00 00 00 |st..............|
|00 00 00 00 00 00 05 01 00 00 01 77 00 00 0A B6 |...........w....|
|95 0A F8 00 00 00 00 00 00 00 00 14 13 03 03 03 |................|
|00 00 01 00 00 00 00 20 00 00 00 00 00 00 00 00 |....... ........|
|96 00 01 00 01 00 00 00 00 00 04 00 00 00 32 00 |..............2.|
|00 13 4D 69 6C 69 74 69 61 20 43 68 65 73 74 70 |..Militia Chestp|
|6C 61 74 65 20 00 00 00 00 00 01 00 00 00 00 00 |late ...........|
|01 01 00 00 03 0E 01 00 00 00 00 00 00 00 00 00 |................|
|00 00 00 00 00 00 00 00 00 00 00 01 00 03 2E 56 |...............V|
|22 B9 09 57 61 72 20 43 72 65 73 74 00 0A 00 00 |"..War Crest....|
|00 00 00 00 00 00 00 00 00 00 00 00 00 00 00 00 |................|
|06 03 00 00 01 77 00 00 0A B6 96 0B 24 00 00 00 |.....w......$...|
|00 00 00 00 00 14 06 03 03 03 00 00 01 00 00 00 |................|
|00 40 00 00 00 00 00 00 00 00 96 00 01 00 01 00 |.@..............|
|00 00 00 00 00 00 20 00 19 00 00 16 4D 69 6C 69 |...... .....Mili|
|74 69 61 20 43 61 72 63 61 73 73 2D 47 75 61 72 |tia Carcass-Guar|
|64 20 00 00 00 00 00 01 00 00 00 00 00 01 01 00 |d ..............|
|00 03 0E 01 00 00 00 00 00 00 00 00 00 00 00 00 |................|
|00 00 00 00 00 00 00 00 01 00 03 2E 56 22 B9 09 |............V"..|
|57 61 72 20 43 72 65 73 74 00 0A 00 00 00 00 00 |War Crest.......|
|00 00 00 00 00 00 00 00 00 00 00 00 00 07 01 00 |................|
|00 01 77 00 00 0A B6 97 0A A0 00 00 00 00 00 00 |..w.............|
|00 00 14 06 03 03 03 00 00 01 00 00 00 00 80 00 |................|
|00 00 00 00 00 00 00 96 00 01 00 01 00 00 00 00 |................|
|00 00 00 20 00 19 00 00 12 4D 69 6C 69 74 69 61 |... .....Militia|
|20 4E 69 67 68 74 72 6F 62 65 20 00 00 00 00 00 | Nightrobe .....|
|01 00 00 00 00 00 01 01 00 00 03 0E 01 00 00 00 |................|
|00 00 00 00 00 00 00 00 00 00 00 00 00 00 00 00 |................|
|00 01 00 03 2E 56 22 B9 09 57 61 72 20 43 72 65 |.....V"..War Cre|
|73 74 00 0A 00 00 00 00 00 00 00 00 00 00 00 00 |st..............|
|00 00 00 00 00 00 08 01 00 00 01 77 00 00 0A B6 |...........w....|
|98 0E 5D 00 00 00 00 00 00 00 00 14 14 03 03 03 |..].............|
|00 00 01 00 00 00 10 00 00 00 00 00 00 00 00 00 |................|
|96 00 01 00 01 00 00 00 00 00 08 00 00 00 4B 00 |..............K.|
|00 10 4D 69 6C 69 74 69 61 20 48 61 75 62 65 72 |..Militia Hauber|
|6B 20 00 00 00 00 00 01 00 00 00 00 00 01 01 00 |k ..............|
|00 03 0E 01 00 00 00 00 00 00 00 00 00 00 00 00 |................|
|00 00 00 00 00 00 00 00 01 00 03 2E 56 22 B9 09 |............V"..|
|57 61 72 20 43 72 65 73 74 00 0A 00 00 00 00 00 |War Crest.......|
|00 00 00 00 00 00 00 00 00 00 00 00 00 09 01 00 |................|
|00 01 77 00 00 0A B6 99 0E 89 00 00 00 00 00 00 |..w.............|
|00 00 14 12 03 03 03 00 00 01 00 00 00 20 00 00 |............. ..|
|00 00 00 00 00 00 00 96 00 01 00 01 00 00 00 00 |................|
|00 02 00 00 00 19 00 00 0F 4D 69 6C 69 74 69 61 |.........Militia|
|20 43 6F 72 73 65 74 20 00 00 00 00 00 01 00 00 | Corset ........|
|00 00 00 01 01 00 00 03 0E 01 00 00 00 00 00 00 |................|
|00 00 00 00 00 00 00 00 00 00 00 00 00 00 01 00 |................|
|03 2E 56 22 B9 09 57 61 72 20 43 72 65 73 74 00 |..V"..War Crest.|
|0A 00 00 00 00 00 00 00 00 00 00 00 00 00 00 00 |................|
|00 00 00 0A 01 00 00 01 77 00 00 0A B6 9A 0E B5 |........w.......|
|00 00 00 00 00 00 00 00 14 16 03 03 03 00 00 01 |................|
|00 00 00 40 00 00 00 00 00 00 00 00 00 96 00 01 |...@............|
|00 01 00 00 00 00 00 40 00 00 00 32 00 00 14 4D |.......@...2...M|
|69 6C 69 74 69 61 20 42 72 65 61 73 74 73 63 61 |ilitia Breastsca|
|6C 65 20 00 00 00 00 00 01 00 00 00 00 00 01 01 |le .............|
|00 00 03 0E 01 00 00 00 00 00 00 00 00 00 00 00 |................|
|00 00 00 00 00 00 00 00 00 01 00 03 2E 56 22 B9 |.............V".|
|09 57 61 72 20 43 72 65 73 74 00 0A 00 00 00 00 |.War Crest......|
|00 00 00 00 00 00 00 00 00 00 00 00 00 00 0B 01 |................|
|00 00 01 77 00 00 0A B6 9B 0E E1 00 00 00 00 00 |...w............|
|00 00 00 14 06 03 03 03 00 00 01 00 00 00 80 00 |................|
|00 00 00 00 00 00 00 00 96 00 01 00 01 00 00 00 |................|
|00 00 00 00 20 00 19 00 00 0D 4D 69 6C 69 74 69 |.... .....Militi|
|61 20 47 6F 77 6E 20 00 00 00 00 00 01 00 00 00 |a Gown .........|
|00 00 01 01 00 00 03 0E 01 00 00 00 00 00 00 00 |................|
|00 00 00 00 00 00 00 00 00 00 00 00 00 01 00 03 |................|
|2E 56 22 B9 09 57 61 72 20 43 72 65 73 74 00 0A |.V"..War Crest..|
|00 00 00 00 00 00 00 00 00 00 00 00 00 00 00 00 |................|
|00 00 0C 01 00 00 00 64 00 00 0A B6 9C 09 40 00 |.......d......@.|
|00 00 00 00 00 00 00 16 14 01 01 01 00 00 01 00 |................|
|00 00 00 00 10 00 00 00 00 00 00 00 28 00 01 00 |............(...|
|01 00 00 00 00 00 08 00 00 00 18 00 00 13 4D 69 |..............Mi|
|6C 69 74 69 61 20 46 65 65 74 73 70 6C 61 74 65 |litia Feetsplate|
|20 00 00 00 00 00 01 00 00 00 00 00 01 01 00 00 | ...............|
|03 0E 01 00 00 00 00 00 00 00 00 00 00 00 00 00 |................|
|00 00 00 00 00 00 00 01 00 03 2E 56 22 B9 09 57 |...........V"..W|
|61 72 20 43 72 65 73 74 00 05 00 00 00 00 00 00 |ar Crest........|
|00 00 00 00 00 00 00 00 00 00 00 00 0D 01 00 00 |................|
|00 64 00 00 0A B6 9D 09 7C 00 00 00 00 00 00 00 |.d......|.......|
|00 16 13 01 01 01 00 00 01 00 00 00 00 00 20 00 |.............. .|
|00 00 00 00 00 00 28 00 01 00 01 00 00 00 00 00 |......(.........|
|04 00 00 00 10 00 00 10 4D 69 6C 69 74 69 61 20 |........Militia |
|53 74 6F 6D 70 61 73 20 00 00 00 00 00 01 00 00 |Stompas ........|
|00 00 00 01 01 00 00 03 0E 01 00 00 00 00 00 00 |................|
|00 00 00 00 00 00 00 00 00 00 00 00 00 00 01 00 |................|
|03 2E 56 22 B9 09 57 61 72 20 43 72 65 73 74 00 |..V"..War Crest.|
|05 00 00 00 00 00 00 00 00 00 00 00 00 00 00 00 |................|
|00 00 00 0E 01 00 00 00 64 00 00 0A B6 9E 09 04 |........d.......|
|00 00 00 00 00 00 00 00 16 06 01 01 01 00 00 01 |................|
|00 00 00 00 00 40 00 00 00 00 00 00 00 28 00 01 |.....@.......(..|
|00 01 00 00 00 00 00 00 00 20 00 08 00 00 13 4D |......... .....M|
|69 6C 69 74 69 61 20 4D 6F 72 6B 79 66 65 65 74 |ilitia Morkyfeet|
|73 20 00 00 00 00 00 01 00 00 00 00 00 01 01 00 |s ..............|
|00 03 0E 01 00 00 00 00 00 00 00 00 00 00 00 00 |................|
|00 00 00 00 00 00 00 00 01 00 03 2E 56 22 B9 09 |............V"..|
|57 61 72 20 43 72 65 73 74 00 05 00 00 00 00 00 |War Crest.......|
|00 00 00 00 00 00 00 00 00 00 00 00 00 0F 01 00 |................|
|00 00 64 00 00 0A B6 9F 08 C8 00 00 00 00 00 00 |..d.............|
|00 00 16 12 01 01 01 00 00 01 00 00 00 00 00 80 |................|
|00 00 00 00 00 00 00 28 00 01 00 01 00 00 00 00 |.......(........|
|00 02 00 00 00 08 00 00 14 4D 69 6C 69 74 69 61 |.........Militia|
|20 53 71 75 69 67 6B 69 63 6B 61 73 20 00 00 00 | Squigkickas ...|
|00 00 01 00 00 00 00 00 01 01 00 00 03 0E 01 00 |................|
|00 00 00 00 00 00 00 00 00 00 00 00 00 00 00 00 |................|
|00 00 00 01 00 03 2E 56 22 B9 09 57 61 72 20 43 |.......V"..War C|
|72 65 73 74 00 05 00 00 00 00 00 00 00 00 00 00 |rest............|
|00 00 00 00 00 00 00 00 10 01 00 00 00 64 00 00 |.............d..|
|0A B6 A0 0A CD 00 00 00 00 00 00 00 00 16 14 01 |................|
|01 01 00 00 01 00 00 00 00 10 00 00 00 00 00 00 |................|
|00 00 28 00 01 00 01 00 00 00 00 00 08 00 00 00 |..(.............|
|18 00 00 12 4D 69 6C 69 74 69 61 20 44 61 72 6B |....Militia Dark|
|62 6F 6F 74 73 20 00 00 00 00 00 01 00 00 00 00 |boots ..........|
|00 01 01 00 00 03 0E 01 00 00 00 00 00 00 00 00 |................|
|00 00 00 00 00 00 00 00 00 00 00 00 01 00 03 2E |................|
|56 22 B9 09 57 61 72 20 43 72 65 73 74 00 05 00 |V"..War Crest...|
|00 00 00 00 00 00 00 00 00 00 00 00 00 00 00 00 |................|
|00 11 01 00 00 00 64 00 00 0A B6 A1 0A F9 00 00 |......d.........|
|00 00 00 00 00 00 16 13 01 01 01 00 00 01 00 00 |................|
|00 00 20 00 00 00 00 00 00 00 00 28 00 01 00 01 |.. ........(....|
|00 00 00 00 00 04 00 00 00 10 00 00 12 4D 69 6C |.............Mil|
|69 74 69 61 20 54 72 61 6D 70 6C 65 72 73 20 00 |itia Tramplers .|
|00 00 00 00 01 00 00 00 00 00 01 01 00 00 03 0E |................|
|01 00 00 00 00 00 00 00 00 00 00 00 00 00 00 00 |................|
|00 00 00 00 00 01 00 03 2E 56 22 B9 09 57 61 72 |.........V"..War|
|20 43 72 65 73 74 00 05 00 00 00 00 00 00 00 00 | Crest..........|
|00 00 00 00 00 00 00 00 00 00 12 03 00 00 00 64 |...............d|
|00 00 0A B6 A2 0B 25 00 00 00 00 00 00 00 00 16 |......%.........|
|06 01 01 01 00 00 01 00 00 00 00 40 00 00 00 00 |...........@....|
|00 00 00 00 28 00 01 00 01 00 00 00 00 00 00 00 |....(...........|
|20 00 08 00 00 12 4D 69 6C 69 74 69 61 20 46 6F | .....Militia Fo|
|6F 74 77 72 61 70 73 20 00 00 00 00 00 01 00 00 |otwraps ........|
|00 00 00 01 01 00 00 03 0E 01 00 00 00 00 00 00 |................|
|00 00 00 00 00 00 00 00 00 00 00 00 00 00 01 00 |................|
|03 2E 56 22 B9 09 57 61 72 20 43 72 65 73 74 00 |..V"..War Crest.|
|05 00 00 00 00 00 00 00 00 00 00 00 00 00 00 00 |................|
|00 00 00 13 01 00 00 00 64 00 00 0A B6 A3 0A A1 |........d.......|
|00 00 00 00 00 00 00 00 16 06 01 01 01 00 00 01 |................|
|00 00 00 00 80 00 00 00 00 00 00 00 00 28 00 01 |.............(..|
|00 01 00 00 00 00 00 00 00 20 00 08 00 00 14 4D |......... .....M|
|69 6C 69 74 69 61 20 44 61 65 6D 6F 6E 73 70 75 |ilitia Daemonspu|
|72 73 20 00 00 00 00 00 01 00 00 00 00 00 01 01 |rs .............|
|00 00 03 0E 01 00 00 00 00 00 00 00 00 00 00 00 |................|
|00 00 00 00 00 00 00 00 00 01 00 03 2E 56 22 B9 |.............V".|
|09 57 61 72 20 43 72 65 73 74 00 05 00 00 00 00 |.War Crest......|
|00 00 00 00 00 00 00 00 00 00 00 00 00 00 14 01 |................|
|00 00 00 64 00 00 0A B6 A4 0E 5E 00 00 00 00 00 |...d......^.....|
|00 00 00 16 14 01 01 01 00 00 01 00 00 00 10 00 |................|
|00 00 00 00 00 00 00 00 28 00 01 00 01 00 00 00 |........(.......|
|00 00 08 00 00 00 18 00 00 10 4D 69 6C 69 74 69 |..........Militi|
|61 20 47 72 65 61 76 65 73 20 00 00 00 00 00 01 |a Greaves ......|
|00 00 00 00 00 01 01 00 00 03 0E 01 00 00 00 00 |................|
|00 00 00 00 00 00 00 00 00 00 00 00 00 00 00 00 |................|
|01 00 03 2E 56 22 B9 09 57 61 72 20 43 72 65 73 |....V"..War Cres|
|74 00 05 00 00 00 00 00 00 00 00 00 00 00 00 00 |t...............|
|00 00 00 00 00 15 01 00 00 00 64 00 00 0A B6 A5 |..........d.....|
|0E 8A 00 00 00 00 00 00 00 00 16 12 01 01 01 00 |................|
|00 01 00 00 00 20 00 00 00 00 00 00 00 00 00 28 |..... .........(|
|00 01 00 01 00 00 00 00 00 02 00 00 00 08 00 00 |................|
|13 4D 69 6C 69 74 69 61 20 54 68 69 67 68 62 69 |.Militia Thighbi|
|6E 64 73 20 00 00 00 00 00 01 00 00 00 00 00 01 |nds ............|
|01 00 00 03 0E 01 00 00 00 00 00 00 00 00 00 00 |................|
|00 00 00 00 00 00 00 00 00 00 01 00 03 2E 56 22 |..............V"|
|B9 09 57 61 72 20 43 72 65 73 74 00 05 00 00 00 |..War Crest.....|
|00 00 00 00 00 00 00 00 00 00 00 00 00 00 00 16 |................|
|01 00 00 00 64 00 00 0A B6 A6 0E B6 00 00 00 00 |....d...........|
|00 00 00 00 16 16 01 01 01 00 00 01 00 00 00 40 |...............@|
|00 00 00 00 00 00 00 00 00 28 00 01 00 01 00 00 |.........(......|
|00 00 00 40 00 00 00 10 00 00 13 4D 69 6C 69 74 |...@.......Milit|
|69 61 20 42 6C 6F 6F 64 77 61 64 65 73 20 00 00 |ia Bloodwades ..|
|00 00 00 01 00 00 00 00 00 01 01 00 00 03 0E 01 |................|
|00 00 00 00 00 00 00 00 00 00 00 00 00 00 00 00 |................|
|00 00 00 00 01 00 03 2E 56 22 B9 09 57 61 72 20 |........V"..War |
|43 72 65 73 74 00 05 00 00 00 00 00 00 00 00 00 |Crest...........|
|00 00 00 00 00 00 00 00 00 17 01 00 00 00 64 00 |..............d.|
|00 0A B6 A7 0E E2 00 00 00 00 00 00 00 00 16 06 |................|
|01 01 01 00 00 01 00 00 00 80 00 00 00 00 00 00 |................|
|00 00 00 28 00 01 00 01 00 00 00 00 00 00 00 20 |...(........... |
|00 08 00 00 12 4D 69 6C 69 74 69 61 20 57 61 72 |.....Militia War|
|64 73 68 6F 65 73 20 00 00 00 00 00 01 00 00 00 |dshoes .........|
|00 00 01 01 00 00 03 0E 01 00 00 00 00 00 00 00 |................|
|00 00 00 00 00 00 00 00 00 00 00 00 00 01 00 03 |................|
|2E 56 22 B9 09 57 61 72 20 43 72 65 73 74 00 05 |.V"..War Crest..|
|00 00 00 00 00 00 00 00 00 00 00 00 00 00 00 00 |................|
|00 00 18 01 00 00 00 C8 00 00 0A B6 A8 09 41 00 |..............A.|
|00 00 00 00 00 00 00 15 14 02 02 02 00 00 01 00 |................|
|00 00 00 00 10 00 00 00 00 00 00 00 50 00 01 00 |............P...|
|01 00 00 00 00 00 08 00 00 00 24 00 00 12 4D 69 |..........$...Mi|
|6C 69 74 69 61 20 41 6E 64 73 70 6C 61 74 65 20 |litia Andsplate |
|00 00 00 00 00 01 00 00 00 00 00 01 01 00 00 03 |................|
|0E 01 00 00 00 00 00 00 00 00 00 00 00 00 00 00 |................|
|00 00 00 00 00 00 01 00 03 2E 56 22 B9 09 57 61 |..........V"..Wa|
|72 20 43 72 65 73 74 00 05 00 00 00 00 00 00 00 |r Crest.........|
|00 00 00 00 00 00 00 00 00 00 00 19 01 00 00 00 |................|
|C8 00 00 0A B6 A9 09 7D 00 00 00 00 00 00 00 00 |.......}........|
|15 13 02 02 02 00 00 01 00 00 00 00 00 20 00 00 |............. ..|
|00 00 00 00 00 50 00 01 00 01 00 00 00 00 00 04 |.....P..........|
|00 00 00 18 00 00 10 4D 69 6C 69 74 69 61 20 50 |.......Militia P|
|75 6E 63 68 61 73 20 00 00 00 00 00 01 00 00 00 |unchas .........|
|00 00 01 01 00 00 03 0E 01 00 00 00 00 00 00 00 |................|
|00 00 00 00 00 00 00 00 00 00 00 00 00 01 00 03 |................|
|2E 56 22 B9 09 57 61 72 20 43 72 65 73 74 00 05 |.V"..War Crest..|
|00 00 00 00 00 00 00 00 00 00 00 00 00 00 00 00 |................|
|00 00 1A 01 00 00 00 C8 00 00 0A B6 AA 09 05 00 |................|
|00 00 00 00 00 00 00 15 06 02 02 02 00 00 01 00 |................|
|00 00 00 00 40 00 00 00 00 00 00 00 50 00 01 00 |....@.......P...|
|01 00 00 00 00 00 00 00 20 00 0C 00 00 15 4D 69 |........ .....Mi|
|6C 69 74 69 61 20 47 72 65 65 6E 62 72 69 6E 67 |litia Greenbring|
|61 73 20 00 00 00 00 00 01 00 00 00 00 00 01 01 |as .............|
|00 00 03 0E 01 00 00 00 00 00 00 00 00 00 00 00 |................|
|00 00 00 00 00 00 00 00 00 01 00 03 2E 56 22 B9 |.............V".|
|09 57 61 72 20 43 72 65 73 74 00 05 00 00 00 00 |.War Crest......|
|00 00 00 00 00 00 00 00 00 00 00 00 00 00 1B 01 |................|
|00 00 00 C8 00 00 0A B6 AB 08 C9 00 00 00 00 00 |................|
|00 00 00 15 12 02 02 02 00 00 01 00 00 00 00 00 |................|
|80 00 00 00 00 00 00 00 50 00 01 00 01 00 00 00 |........P.......|
|00 00 02 00 00 00 0C 00 00 14 4D 69 6C 69 74 69 |..........Militi|
|61 20 42 69 74 65 73 74 6F 70 70 61 73 20 00 00 |a Bitestoppas ..|
|00 00 00 01 00 00 00 00 00 01 01 00 00 03 0E 01 |................|
|00 00 00 00 00 00 00 00 00 00 00 00 00 00 00 00 |................|
|00 00 00 00 01 00 03 2E 56 22 B9 09 57 61 72 20 |........V"..War |
|43 72 65 73 74 00 05 00 00 00 00 00 00 00 00 00 |Crest...........|
|00 00 00 00 00 00 00 00 00 1C 01 00 00 00 C8 00 |................|
|00 0A B6 AC 0A CE 00 00 00 00 00 00 00 00 15 14 |................|
|02 02 02 00 00 01 00 00 00 00 10 00 00 00 00 00 |................|
|00 00 00 50 00 01 00 01 00 00 00 00 00 08 00 00 |...P............|
|00 24 00 00 12 4D 69 6C 69 74 69 61 20 47 61 75 |.$...Militia Gau|
|6E 74 6C 65 74 73 20 00 00 00 00 00 01 00 00 00 |ntlets .........|
|00 00 01 01 00 00 03 0E 01 00 00 00 00 00 00 00 |................|
|00 00 00 00 00 00 00 00 00 00 00 00 00 01 00 03 |................|
|2E 56 22 B9 09 57 61 72 20 43 72 65 73 74 00 05 |.V"..War Crest..|
|00 00 00 00 00 00 00 00 00 00 00 00 00 00 00 00 |................|
|00 00 1D 01 00 00 00 C8 00 00 0A B6 AD 0A FA 00 |................|
|00 00 00 00 00 00 00 15 13 02 02 02 00 00 01 00 |................|
|00 00 00 20 00 00 00 00 00 00 00 00 50 00 01 00 |... ........P...|
|01 00 00 00 00 00 04 00 00 00 18 00 00 12 4D 69 |..............Mi|
|6C 69 74 69 61 20 50 75 6D 6D 65 6C 65 72 73 20 |litia Pummelers |
|00 00 00 00 00 01 00 00 00 00 00 01 01 00 00 03 |................|
|0E 01 00 00 00 00 00 00 00 00 00 00 00 00 00 00 |................|
|00 00 00 00 00 00 01 00 03 2E 56 22 B9 09 57 61 |..........V"..Wa|
|72 20 43 72 65 73 74 00 05 00 00 00 00 00 00 00 |r Crest.........|
|00 00 00 00 00 00 00 00 00 00 00 00             |............    |
-------------------------------------------------------------------
[Server] packet : (0xBF) F_INIT_STORE  Size = 3519 
|------------------------------------------------|----------------|
|00 01 02 03 04 05 06 07 08 09 0A 0B 0C 0D 0E 0F |0123456789ABCDEF|
|------------------------------------------------|----------------|
|0D BC BF 00 00 01 15 00 01 00 00 03 00 00 00 C8 |................|
|00 00 0A B6 AE 0B 26 00 00 00 00 00 00 00 00 15 |......&.........|
|06 02 02 02 00 00 01 00 00 00 00 40 00 00 00 00 |...........@....|
|00 00 00 00 50 00 01 00 01 00 00 00 00 00 00 00 |....P...........|
|20 00 0C 00 00 12 4D 69 6C 69 74 69 61 20 48 61 | .....Militia Ha|
|6E 64 77 72 61 70 73 20 00 00 00 00 00 01 00 00 |ndwraps ........|
|00 00 00 01 01 00 00 03 0E 01 00 00 00 00 00 00 |................|
|00 00 00 00 00 00 00 00 00 00 00 00 00 00 01 00 |................|
|03 2E 56 22 B9 09 57 61 72 20 43 72 65 73 74 00 |..V"..War Crest.|
|05 00 00 00 00 00 00 00 00 00 00 00 00 00 00 00 |................|
|00 00 00 01 01 00 00 00 C8 00 00 0A B6 AF 0A A2 |................|
|00 00 00 00 00 00 00 00 15 06 02 02 02 00 00 01 |................|
|00 00 00 00 80 00 00 00 00 00 00 00 00 50 00 01 |.............P..|
|00 01 00 00 00 00 00 00 00 20 00 0C 00 00 10 4D |......... .....M|
|69 6C 69 74 69 61 20 42 72 61 63 65 72 73 20 00 |ilitia Bracers .|
|00 00 00 00 01 00 00 00 00 00 01 01 00 00 03 0E |................|
|01 00 00 00 00 00 00 00 00 00 00 00 00 00 00 00 |................|
|00 00 00 00 00 01 00 03 2E 56 22 B9 09 57 61 72 |.........V"..War|
|20 43 72 65 73 74 00 05 00 00 00 00 00 00 00 00 | Crest..........|
|00 00 00 00 00 00 00 00 00 00 02 01 00 00 00 C8 |................|
|00 00 0A B6 B0 0E 5F 00 00 00 00 00 00 00 00 15 |......_.........|
|14 02 02 02 00 00 01 00 00 00 10 00 00 00 00 00 |................|
|00 00 00 00 50 00 01 00 01 00 00 00 00 00 08 00 |....P...........|
|00 00 24 00 00 13 4D 69 6C 69 74 69 61 20 47 72 |..$...Militia Gr|
|69 6D 62 72 61 63 65 73 20 00 00 00 00 00 01 00 |imbraces .......|
|00 00 00 00 01 01 00 00 03 0E 01 00 00 00 00 00 |................|
|00 00 00 00 00 00 00 00 00 00 00 00 00 00 00 01 |................|
|00 03 2E 56 22 B9 09 57 61 72 20 43 72 65 73 74 |...V"..War Crest|
|00 05 00 00 00 00 00 00 00 00 00 00 00 00 00 00 |................|
|00 00 00 00 03 01 00 00 00 C8 00 00 0A B6 B1 0E |................|
|8B 00 00 00 00 00 00 00 00 15 12 02 02 02 00 00 |................|
|01 00 00 00 20 00 00 00 00 00 00 00 00 00 50 00 |.... .........P.|
|01 00 01 00 00 00 00 00 02 00 00 00 0C 00 00 12 |................|
|4D 69 6C 69 74 69 61 20 45 6D 62 72 61 63 65 72 |Militia Embracer|
|73 20 00 00 00 00 00 01 00 00 00 00 00 01 01 00 |s ..............|
|00 03 0E 01 00 00 00 00 00 00 00 00 00 00 00 00 |................|
|00 00 00 00 00 00 00 00 01 00 03 2E 56 22 B9 09 |............V"..|
|57 61 72 20 43 72 65 73 74 00 05 00 00 00 00 00 |War Crest.......|
|00 00 00 00 00 00 00 00 00 00 00 00 00 04 01 00 |................|
|00 00 C8 00 00 0A B6 B2 0E B7 00 00 00 00 00 00 |................|
|00 00 15 16 02 02 02 00 00 01 00 00 00 40 00 00 |.............@..|
|00 00 00 00 00 00 00 50 00 01 00 01 00 00 00 00 |.......P........|
|00 40 00 00 00 18 00 00 12 4D 69 6C 69 74 69 61 |.@.......Militia|
|20 41 72 6D 73 63 61 6C 65 73 20 00 00 00 00 00 | Armscales .....|
|01 00 00 00 00 00 01 01 00 00 03 0E 01 00 00 00 |................|
|00 00 00 00 00 00 00 00 00 00 00 00 00 00 00 00 |................|
|00 01 00 03 2E 56 22 B9 09 57 61 72 20 43 72 65 |.....V"..War Cre|
|73 74 00 05 00 00 00 00 00 00 00 00 00 00 00 00 |st..............|
|00 00 00 00 00 00 05 01 00 00 00 C8 00 00 0A B6 |................|
|B3 0E E3 00 00 00 00 00 00 00 00 15 06 02 02 02 |................|
|00 00 01 00 00 00 80 00 00 00 00 00 00 00 00 00 |................|
|50 00 01 00 01 00 00 00 00 00 00 00 20 00 0C 00 |P........... ...|
|00 14 4D 69 6C 69 74 69 61 20 43 61 73 74 62 72 |..Militia Castbr|
|61 63 65 72 73 20 00 00 00 00 00 01 00 00 00 00 |acers ..........|
|00 01 01 00 00 03 0E 01 00 00 00 00 00 00 00 00 |................|
|00 00 00 00 00 00 00 00 00 00 00 00 01 00 03 2E |................|
|56 22 B9 09 57 61 72 20 43 72 65 73 74 00 05 00 |V"..War Crest...|
|00 00 00 00 00 00 00 00 00 00 00 00 00 00 00 00 |................|
|00 06 01 00 00 00 AF 00 00 0A B6 B4 09 3E 00 00 |.............>..|
|00 00 00 00 00 00 1C 00 02 02 02 00 00 01 00 00 |................|
|00 00 00 10 00 00 00 00 00 00 00 46 00 01 00 01 |...........F....|
|00 00 00 00 00 00 00 00 00 00 00 00 11 4D 69 6C |.............Mil|
|69 74 69 61 20 47 75 74 73 74 72 61 70 20 03 10 |itia Gutstrap ..|
|00 05 00 00 00 00 00 0F 00 05 00 00 00 00 00 0E |................|
|00 05 00 00 00 00 00 00 00 00 00 00 00 01 01 00 |................|
|00 03 0E 01 00 00 00 00 00 00 00 00 00 00 00 00 |................|
|00 00 00 00 00 00 00 00 01 00 03 2E 56 22 B9 09 |............V"..|
|57 61 72 20 43 72 65 73 74 00 05 00 00 00 00 00 |War Crest.......|
|00 00 00 00 00 00 00 00 00 00 00 00 00 07 01 00 |................|
|00 00 AF 00 00 0A B6 B5 09 7A 00 00 00 00 00 00 |.........z......|
|00 00 1C 00 02 02 02 00 00 01 00 00 00 00 00 20 |............... |
|00 00 00 00 00 00 00 46 00 01 00 01 00 00 00 00 |.......F........|
|00 00 00 00 00 00 00 00 14 4D 69 6C 69 74 69 61 |.........Militia|
|20 42 65 6C 6C 79 62 75 63 6B 6C 65 20 03 10 00 | Bellybuckle ...|
|05 00 00 00 00 00 0F 00 05 00 00 00 00 00 0E 00 |................|
|05 00 00 00 00 00 00 00 00 00 00 00 01 01 00 00 |................|
|03 0E 01 00 00 00 00 00 00 00 00 00 00 00 00 00 |................|
|00 00 00 00 00 00 00 01 00 03 2E 56 22 B9 09 57 |...........V"..W|
|61 72 20 43 72 65 73 74 00 05 00 00 00 00 00 00 |ar Crest........|
|00 00 00 00 00 00 00 00 00 00 00 00 08 01 00 00 |................|
|00 AF 00 00 0A B6 B6 09 02 00 00 00 00 00 00 00 |................|
|00 1C 00 02 02 02 00 00 01 00 00 00 00 00 40 00 |..............@.|
|00 00 00 00 00 00 46 00 01 00 01 00 00 00 00 00 |......F.........|
|00 00 00 00 00 00 00 12 4D 69 6C 69 74 69 61 20 |........Militia |
|42 69 74 73 6B 65 65 70 61 20 03 10 00 05 00 00 |Bitskeepa ......|
|00 00 00 0F 00 05 00 00 00 00 00 0E 00 05 00 00 |................|
|00 00 00 00 00 00 00 00 00 01 01 00 00 03 0E 01 |................|
|00 00 00 00 00 00 00 00 00 00 00 00 00 00 00 00 |................|
|00 00 00 00 01 00 03 2E 56 22 B9 09 57 61 72 20 |........V"..War |
|43 72 65 73 74 00 05 00 00 00 00 00 00 00 00 00 |Crest...........|
|00 00 00 00 00 00 00 00 00 09 01 00 00 00 AF 00 |................|
|00 0A B6 B7 08 C6 00 00 00 00 00 00 00 00 1C 00 |................|
|02 02 02 00 00 01 00 00 00 00 00 80 00 00 00 00 |................|
|00 00 00 46 00 01 00 01 00 00 00 00 00 00 00 00 |...F............|
|00 00 00 00 14 4D 69 6C 69 74 69 61 20 50 6F 75 |.....Militia Pou|
|63 68 20 48 6F 6C 64 61 20 03 10 00 05 00 00 00 |ch Holda .......|
|00 00 0F 00 05 00 00 00 00 00 0E 00 05 00 00 00 |................|
|00 00 00 00 00 00 00 00 01 01 00 00 03 0E 01 00 |................|
|00 00 00 00 00 00 00 00 00 00 00 00 00 00 00 00 |................|
|00 00 00 01 00 03 2E 56 22 B9 09 57 61 72 20 43 |.......V"..War C|
|72 65 73 74 00 05 00 00 00 00 00 00 00 00 00 00 |rest............|
|00 00 00 00 00 00 00 00 0A 01 00 00 00 AF 00 00 |................|
|0A B6 B8 0A CB 00 00 00 00 00 00 00 00 1C 00 02 |................|
|02 02 00 00 01 00 00 00 00 10 00 00 00 00 00 00 |................|
|00 00 46 00 01 00 01 00 00 00 00 00 00 00 00 00 |..F.............|
|00 00 00 14 4D 69 6C 69 74 69 61 20 44 65 61 74 |....Militia Deat|
|68 67 69 72 64 6C 65 20 03 10 00 05 00 00 00 00 |hgirdle ........|
|00 0F 00 05 00 00 00 00 00 0E 00 05 00 00 00 00 |................|
|00 00 00 00 00 00 00 01 01 00 00 03 0E 01 00 00 |................|
|00 00 00 00 00 00 00 00 00 00 00 00 00 00 00 00 |................|
|00 00 01 00 03 2E 56 22 B9 09 57 61 72 20 43 72 |......V"..War Cr|
|65 73 74 00 05 00 00 00 00 00 00 00 00 00 00 00 |est.............|
|00 00 00 00 00 00 00 0B 01 00 00 00 AF 00 00 0A |................|
|B6 B9 0A F7 00 00 00 00 00 00 00 00 1C 00 02 02 |................|
|02 00 00 01 00 00 00 00 20 00 00 00 00 00 00 00 |........ .......|
|00 46 00 01 00 01 00 00 00 00 00 00 00 00 00 00 |.F..............|
|00 00 11 4D 69 6C 69 74 69 61 20 4D 69 64 73 74 |...Militia Midst|
|72 61 70 20 03 10 00 05 00 00 00 00 00 0F 00 05 |rap ............|
|00 00 00 00 00 0E 00 05 00 00 00 00 00 00 00 00 |................|
|00 00 00 01 01 00 00 03 0E 01 00 00 00 00 00 00 |................|
|00 00 00 00 00 00 00 00 00 00 00 00 00 00 01 00 |................|
|03 2E 56 22 B9 09 57 61 72 20 43 72 65 73 74 00 |..V"..War Crest.|
|05 00 00 00 00 00 00 00 00 00 00 00 00 00 00 00 |................|
|00 00 00 0C 03 00 00 00 AF 00 00 0A B6 BA 0B 23 |...............#|
|00 00 00 00 00 00 00 00 1C 00 02 02 02 00 00 01 |................|
|00 00 00 00 40 00 00 00 00 00 00 00 00 46 00 01 |....@........F..|
|00 01 00 00 00 00 00 00 00 00 00 00 00 00 12 4D |...............M|
|69 6C 69 74 69 61 20 57 61 69 73 74 77 72 61 70 |ilitia Waistwrap|
|20 03 10 00 05 00 00 00 00 00 0F 00 05 00 00 00 | ...............|
|00 00 0E 00 05 00 00 00 00 00 00 00 00 00 00 00 |................|
|01 01 00 00 03 0E 01 00 00 00 00 00 00 00 00 00 |................|
|00 00 00 00 00 00 00 00 00 00 00 01 00 03 2E 56 |...............V|
|22 B9 09 57 61 72 20 43 72 65 73 74 00 05 00 00 |"..War Crest....|
|00 00 00 00 00 00 00 00 00 00 00 00 00 00 00 00 |................|
|0D 01 00 00 00 AF 00 00 0A B6 BB 0A 9F 00 00 00 |................|
|00 00 00 00 00 1C 00 02 02 02 00 00 01 00 00 00 |................|
|00 80 00 00 00 00 00 00 00 00 46 00 01 00 01 00 |..........F.....|
|00 00 00 00 00 00 00 00 00 00 00 11 4D 69 6C 69 |............Mili|
|74 69 61 20 57 68 69 70 73 61 73 68 20 03 10 00 |tia Whipsash ...|
|05 00 00 00 00 00 0F 00 05 00 00 00 00 00 0E 00 |................|
|05 00 00 00 00 00 00 00 00 00 00 00 01 01 00 00 |................|
|03 0E 01 00 00 00 00 00 00 00 00 00 00 00 00 00 |................|
|00 00 00 00 00 00 00 01 00 03 2E 56 22 B9 09 57 |...........V"..W|
|61 72 20 43 72 65 73 74 00 05 00 00 00 00 00 00 |ar Crest........|
|00 00 00 00 00 00 00 00 00 00 00 00 0E 01 00 00 |................|
|00 AF 00 00 0A B6 BC 0E 5C 00 00 00 00 00 00 00 |........\.......|
|00 1C 00 02 02 02 00 00 01 00 00 00 10 00 00 00 |................|
|00 00 00 00 00 00 46 00 01 00 01 00 00 00 00 00 |......F.........|
|00 00 00 00 00 00 00 11 4D 69 6C 69 74 69 61 20 |........Militia |
|42 69 6E 64 69 6E 67 73 20 03 10 00 05 00 00 00 |Bindings .......|
|00 00 0F 00 05 00 00 00 00 00 0E 00 05 00 00 00 |................|
|00 00 00 00 00 00 00 00 01 01 00 00 03 0E 01 00 |................|
|00 00 00 00 00 00 00 00 00 00 00 00 00 00 00 00 |................|
|00 00 00 01 00 03 2E 56 22 B9 09 57 61 72 20 43 |.......V"..War C|
|72 65 73 74 00 05 00 00 00 00 00 00 00 00 00 00 |rest............|
|00 00 00 00 00 00 00 00 0F 01 00 00 00 AF 00 00 |................|
|0A B6 BD 0E 88 00 00 00 00 00 00 00 00 1C 00 02 |................|
|02 02 00 00 01 00 00 00 20 00 00 00 00 00 00 00 |........ .......|
|00 00 46 00 01 00 01 00 00 00 00 00 00 00 00 00 |..F.............|
|00 00 00 11 4D 69 6C 69 74 69 61 20 56 69 6C 65 |....Militia Vile|
|63 6F 72 64 20 03 10 00 05 00 00 00 00 00 0F 00 |cord ...........|
|05 00 00 00 00 00 0E 00 05 00 00 00 00 00 00 00 |................|
|00 00 00 00 01 01 00 00 03 0E 01 00 00 00 00 00 |................|
|00 00 00 00 00 00 00 00 00 00 00 00 00 00 00 01 |................|
|00 03 2E 56 22 B9 09 57 61 72 20 43 72 65 73 74 |...V"..War Crest|
|00 05 00 00 00 00 00 00 00 00 00 00 00 00 00 00 |................|
|00 00 00 00 10 01 00 00 00 AF 00 00 0A B6 BE 0E |................|
|B4 00 00 00 00 00 00 00 00 1C 00 02 02 02 00 00 |................|
|01 00 00 00 40 00 00 00 00 00 00 00 00 00 46 00 |....@.........F.|
|01 00 01 00 00 00 00 00 00 00 00 00 00 00 00 12 |................|
|4D 69 6C 69 74 69 61 20 42 6C 61 64 65 62 65 6C |Militia Bladebel|
|74 20 03 10 00 05 00 00 00 00 00 0F 00 05 00 00 |t ..............|
|00 00 00 0E 00 05 00 00 00 00 00 00 00 00 00 00 |................|
|00 01 01 00 00 03 0E 01 00 00 00 00 00 00 00 00 |................|
|00 00 00 00 00 00 00 00 00 00 00 00 01 00 03 2E |................|
|56 22 B9 09 57 61 72 20 43 72 65 73 74 00 05 00 |V"..War Crest...|
|00 00 00 00 00 00 00 00 00 00 00 00 00 00 00 00 |................|
|00 11 01 00 00 00 AF 00 00 0A B6 BF 0E E0 00 00 |................|
|00 00 00 00 00 00 1C 00 02 02 02 00 00 01 00 00 |................|
|00 80 00 00 00 00 00 00 00 00 00 46 00 01 00 01 |...........F....|
|00 00 00 00 00 00 00 00 00 00 00 00 0D 4D 69 6C |.............Mil|
|69 74 69 61 20 53 61 73 68 20 03 10 00 05 00 00 |itia Sash ......|
|00 00 00 0F 00 05 00 00 00 00 00 0E 00 05 00 00 |................|
|00 00 00 00 00 00 00 00 00 01 01 00 00 03 0E 01 |................|
|00 00 00 00 00 00 00 00 00 00 00 00 00 00 00 00 |................|
|00 00 00 00 01 00 03 2E 56 22 B9 09 57 61 72 20 |........V"..War |
|43 72 65 73 74 00 05 00 00 00 00 00 00 00 00 00 |Crest...........|
|00 00 00 00 00 00 00 00 00 12 03 00 00 00 96 00 |................|
|00 0A B6 E4 01 D7 00 00 00 00 00 00 00 00 1F 00 |................|
|02 02 02 00 01 01 00 00 00 00 00 00 00 00 00 00 |................|
|00 00 00 3C 00 01 00 01 00 00 00 00 00 00 00 00 |...<............|
|00 00 00 00 11 4D 69 6C 69 74 69 61 20 57 61 72 |.....Militia War|
|70 20 52 69 6E 67 03 10 00 04 00 00 00 00 00 0F |p Ring..........|
|00 04 00 00 00 00 00 0E 00 04 00 00 00 00 00 00 |................|
|00 00 00 00 00 01 01 00 00 03 0E 01 00 00 00 00 |................|
|00 00 00 00 00 00 00 00 00 00 00 00 00 00 00 00 |................|
|01 00 03 2E 56 22 B9 09 57 61 72 20 43 72 65 73 |....V"..War Cres|
|74 00 05 00 00 00 00 00 00 00 00 00 00 00 00 00 |t...............|
|00 00 00 00 00 13 03 00 00 00 96 00 00 0A B6 E5 |................|
|01 7D 00 00 00 00 00 00 00 00 1F 00 02 02 02 00 |.}..............|
|01 01 00 00 00 00 00 00 00 00 00 00 00 00 00 3C |...............<|
|00 01 00 01 00 00 00 00 00 00 00 00 00 00 00 00 |................|
|12 4D 69 6C 69 74 69 61 20 43 68 61 6F 73 20 52 |.Militia Chaos R|
|69 6E 67 03 10 00 06 00 00 00 00 00 0F 00 06 00 |ing.............|
|00 00 00 00 0E 00 06 00 00 00 00 00 00 00 00 00 |................|
|00 00 01 01 00 00 03 0E 01 00 00 00 00 00 00 00 |................|
|00 00 00 00 00 00 00 00 00 00 00 00 00 01 00 03 |................|
|2E 56 22 B9 09 57 61 72 20 43 72 65 73 74 00 05 |.V"..War Crest..|
|00 00 00 00 00 00 00 00 00 00 00 00 00 00 00 00 |................|
|00 00 14 03 00 00 00 E1 00 00 0A B6 E6 03 BF 00 |................|
|00 00 00 00 00 00 00 1F 00 03 03 03 00 01 01 00 |................|
|00 00 00 00 00 00 00 00 00 00 00 00 5A 00 01 00 |............Z...|
|01 00 00 00 00 00 00 00 00 00 00 00 00 11 4D 69 |..............Mi|
|6C 69 74 69 61 20 44 61 72 6B 20 42 61 6E 64 03 |litia Dark Band.|
|10 00 07 00 00 00 00 00 0F 00 07 00 00 00 00 00 |................|
|0E 00 07 00 00 00 00 00 00 00 00 00 00 00 01 01 |................|
|00 00 03 0E 01 00 00 00 00 00 00 00 00 00 00 00 |................|
|00 00 00 00 00 00 00 00 00 01 00 03 2E 56 22 B9 |.............V".|
|09 57 61 72 20 43 72 65 73 74 00 05 00 00 00 00 |.War Crest......|
|00 00 00 00 00 00 00 00 00 00 00 00 00 00 00    |............... |
-------------------------------------------------------------------
[Server] packet : (0xBF) F_INIT_STORE  Size = 5683 
|------------------------------------------------|----------------|
|00 01 02 03 04 05 06 07 08 09 0A 0B 0C 0D 0E 0F |0123456789ABCDEF|
|------------------------------------------------|----------------|
|16 30 BF 00 00 02 1E 00 01 00 00 01 00 00 05 DC |.0..............|
|00 00 1E AC E3 09 3F 00 00 00 00 00 00 00 00 14 |......?.........|
|14 09 0A 06 00 00 02 00 00 00 00 00 10 00 00 00 |................|
|00 00 00 02 58 00 01 00 01 00 00 00 00 00 08 00 |....X...........|
|00 00 96 00 00 16 42 6F 64 79 70 6C 61 74 65 20 |......Bodyplate |
|6F 66 20 56 65 6E 67 65 61 6E 63 65 04 0F 00 00 |of Vengeance....|
|00 00 00 00 00 10 00 00 00 00 00 00 00 04 00 09 |................|
|00 00 00 00 00 05 00 06 00 00 00 00 00 00 00 00 |................|
|00 01 00 00 00 00 00 01 01 00 00 03 06 01 00 00 |................|
|00 00 00 00 00 00 00 00 00 00 00 00 00 00 00 00 |................|
|00 00 01 00 03 2E 56 22 B9 09 57 61 72 20 43 72 |......V"..War Cr|
|65 73 74 00 0A 00 00 00 00 00 00 00 00 00 00 00 |est.............|
|00 00 00 00 00 00 00 01 01 00 00 05 DC 00 00 1E |................|
|AC E4 09 7B 00 00 00 00 00 00 00 00 14 13 09 0A |...{............|
|06 00 00 02 00 00 00 00 00 20 00 00 00 00 00 00 |......... ......|
|02 58 00 01 00 01 00 00 00 00 00 04 00 00 00 64 |.X.............d|
|00 00 17 54 75 66 66 20 43 68 65 73 74 20 6F 66 |...Tuff Chest of|
|20 56 65 6E 67 65 61 6E 63 65 04 0F 00 00 00 00 | Vengeance......|
|00 00 00 10 00 00 00 00 00 00 00 01 00 09 00 00 |................|
|00 00 00 05 00 06 00 00 00 00 00 00 00 00 00 01 |................|
|00 00 00 00 00 01 01 00 00 03 06 01 00 00 00 00 |................|
|00 00 00 00 00 00 00 00 00 00 00 00 00 00 00 00 |................|
|01 00 03 2E 56 22 B9 09 57 61 72 20 43 72 65 73 |....V"..War Cres|
|74 00 0A 00 00 00 00 00 00 00 00 00 00 00 00 00 |t...............|
|00 00 00 00 00 02 01 00 00 05 DC 00 00 1E AC E5 |................|
|09 03 00 00 00 00 00 00 00 00 14 06 09 0A 06 00 |................|
|00 02 00 00 00 00 00 40 00 00 00 00 00 00 02 58 |.......@.......X|
|00 01 00 01 00 00 00 00 00 00 00 20 00 32 00 00 |........... .2..|
|16 52 6F 62 65 66 69 6E 67 73 20 6F 66 20 56 65 |.Robefings of Ve|
|6E 67 65 61 6E 63 65 04 0F 00 00 00 00 00 00 00 |ngeance.........|
|10 00 00 00 00 00 00 00 09 00 09 00 00 00 00 00 |................|
|05 00 06 00 00 00 00 00 00 00 00 00 01 00 00 00 |................|
|00 00 01 01 00 00 03 06 01 00 00 00 00 00 00 00 |................|
|00 00 00 00 00 00 00 00 00 00 00 00 00 01 00 03 |................|
|2E 56 22 B9 09 57 61 72 20 43 72 65 73 74 00 0A |.V"..War Crest..|
|00 00 00 00 00 00 00 00 00 00 00 00 00 00 00 00 |................|
|00 00 03 01 00 00 05 DC 00 00 1E AC E6 08 C7 00 |................|
|00 00 00 00 00 00 00 14 12 09 0A 06 00 00 02 00 |................|
|00 00 00 00 80 00 00 00 00 00 00 02 58 00 01 00 |............X...|
|01 00 00 00 00 00 02 00 00 00 32 00 00 14 43 68 |..........2...Ch|
|65 77 74 6F 70 20 6F 66 20 56 65 6E 67 65 61 6E |ewtop of Vengean|
|63 65 04 0F 00 00 00 00 00 00 00 10 00 00 00 00 |ce..............|
|00 00 00 08 00 09 00 00 00 00 00 05 00 06 00 00 |................|
|00 00 00 00 00 00 00 01 00 00 00 00 00 01 01 00 |................|
|00 03 06 01 00 00 00 00 00 00 00 00 00 00 00 00 |................|
|00 00 00 00 00 00 00 00 01 00 03 2E 56 22 B9 09 |............V"..|
|57 61 72 20 43 72 65 73 74 00 0A 00 00 00 00 00 |War Crest.......|
|00 00 00 00 00 00 00 00 00 00 00 00 00 04 01 00 |................|
|00 05 DC 00 00 1E AC E7 0A CC 00 00 00 00 00 00 |................|
|00 00 14 14 09 0A 06 00 00 02 00 00 00 00 10 00 |................|
|00 00 00 00 00 00 02 58 00 01 00 01 00 00 00 00 |.......X........|
|00 08 00 00 00 96 00 00 15 43 61 72 61 70 61 63 |.........Carapac|
|65 20 6F 66 20 56 65 6E 67 65 61 6E 63 65 04 0F |e of Vengeance..|
|00 00 00 00 00 00 00 10 00 00 00 00 00 00 00 04 |................|
|00 09 00 00 00 00 00 05 00 06 00 00 00 00 00 00 |................|
|00 00 00 01 00 00 00 00 00 01 01 00 00 03 06 01 |................|
|00 00 00 00 00 00 00 00 00 00 00 00 00 00 00 00 |................|
|00 00 00 00 01 00 03 2E 56 22 B9 09 57 61 72 20 |........V"..War |
|43 72 65 73 74 00 0A 00 00 00 00 00 00 00 00 00 |Crest...........|
|00 00 00 00 00 00 00 00 00 05 01 00 00 05 DC 00 |................|
|00 1E AC E8 0A F8 00 00 00 00 00 00 00 00 14 13 |................|
|09 0A 06 00 00 02 00 00 00 00 20 00 00 00 00 00 |.......... .....|
|00 00 02 58 00 01 00 01 00 00 00 00 00 04 00 00 |...X............|
|00 64 00 00 17 43 68 65 73 74 70 6C 61 74 65 20 |.d...Chestplate |
|6F 66 20 56 65 6E 67 65 61 6E 63 65 04 0F 00 00 |of Vengeance....|
|00 00 00 00 00 10 00 00 00 00 00 00 00 01 00 09 |................|
|00 00 00 00 00 05 00 06 00 00 00 00 00 00 00 00 |................|
|00 01 00 00 00 00 00 01 01 00 00 03 06 01 00 00 |................|
|00 00 00 00 00 00 00 00 00 00 00 00 00 00 00 00 |................|
|00 00 01 00 03 2E 56 22 B9 09 57 61 72 20 43 72 |......V"..War Cr|
|65 73 74 00 0A 00 00 00 00 00 00 00 00 00 00 00 |est.............|
|00 00 00 00 00 00 00 06 03 00 00 05 DC 00 00 1E |................|
|AC E9 0B 24 00 00 00 00 00 00 00 00 14 06 09 0A |...$............|
|06 00 00 02 00 00 00 00 40 00 00 00 00 00 00 00 |........@.......|
|02 58 00 01 00 01 00 00 00 00 00 00 00 20 00 32 |.X........... .2|
|00 00 1A 43 61 72 63 61 73 73 2D 47 75 61 72 64 |...Carcass-Guard|
|20 6F 66 20 56 65 6E 67 65 61 6E 63 65 04 0F 00 | of Vengeance...|
|00 00 00 00 00 00 10 00 00 00 00 00 00 00 03 00 |................|
|09 00 00 00 00 00 05 00 06 00 00 00 00 00 00 00 |................|
|00 00 01 00 00 00 00 00 01 01 00 00 03 06 01 00 |................|
|00 00 00 00 00 00 00 00 00 00 00 00 00 00 00 00 |................|
|00 00 00 01 00 03 2E 56 22 B9 09 57 61 72 20 43 |.......V"..War C|
|72 65 73 74 00 0A 00 00 00 00 00 00 00 00 00 00 |rest............|
|00 00 00 00 00 00 00 00 07 01 00 00 05 DC 00 00 |................|
|1E AC EA 0A A0 00 00 00 00 00 00 00 00 14 06 09 |................|
|0A 06 00 00 02 00 00 00 00 80 00 00 00 00 00 00 |................|
|00 02 58 00 01 00 01 00 00 00 00 00 00 00 20 00 |..X........... .|
|32 00 00 16 4E 69 67 68 74 72 6F 62 65 20 6F 66 |2...Nightrobe of|
|20 56 65 6E 67 65 61 6E 63 65 04 0F 00 00 00 00 | Vengeance......|
|00 00 00 10 00 00 00 00 00 00 00 09 00 09 00 00 |................|
|00 00 00 05 00 06 00 00 00 00 00 00 00 00 00 01 |................|
|00 00 00 00 00 01 01 00 00 03 06 01 00 00 00 00 |................|
|00 00 00 00 00 00 00 00 00 00 00 00 00 00 00 00 |................|
|01 00 03 2E 56 22 B9 09 57 61 72 20 43 72 65 73 |....V"..War Cres|
|74 00 0A 00 00 00 00 00 00 00 00 00 00 00 00 00 |t...............|
|00 00 00 00 00 08 01 00 00 05 DC 00 00 1E AC EB |................|
|0E 5D 00 00 00 00 00 00 00 00 14 14 09 0A 06 00 |.]..............|
|00 02 00 00 00 10 00 00 00 00 00 00 00 00 02 58 |...............X|
|00 01 00 01 00 00 00 00 00 08 00 00 00 96 00 00 |................|
|14 48 61 75 62 65 72 6B 20 6F 66 20 56 65 6E 67 |.Hauberk of Veng|
|65 61 6E 63 65 04 0F 00 00 00 00 00 00 00 10 00 |eance...........|
|00 00 00 00 00 00 04 00 09 00 00 00 00 00 05 00 |................|
|06 00 00 00 00 00 00 00 00 00 01 00 00 00 00 00 |................|
|01 01 00 00 03 06 01 00 00 00 00 00 00 00 00 00 |................|
|00 00 00 00 00 00 00 00 00 00 00 01 00 03 2E 56 |...............V|
|22 B9 09 57 61 72 20 43 72 65 73 74 00 0A 00 00 |"..War Crest....|
|00 00 00 00 00 00 00 00 00 00 00 00 00 00 00 00 |................|
|09 01 00 00 05 DC 00 00 1E AC EC 0E 89 00 00 00 |................|
|00 00 00 00 00 14 12 09 0A 06 00 00 02 00 00 00 |................|
|20 00 00 00 00 00 00 00 00 02 58 00 01 00 01 00 | .........X.....|
|00 00 00 00 02 00 00 00 32 00 00 13 43 6F 72 73 |........2...Cors|
|65 74 20 6F 66 20 56 65 6E 67 65 61 6E 63 65 04 |et of Vengeance.|
|0F 00 00 00 00 00 00 00 10 00 00 00 00 00 00 00 |................|
|01 00 09 00 00 00 00 00 05 00 06 00 00 00 00 00 |................|
|00 00 00 00 01 00 00 00 00 00 01 01 00 00 03 06 |................|
|01 00 00 00 00 00 00 00 00 00 00 00 00 00 00 00 |................|
|00 00 00 00 00 01 00 03 2E 56 22 B9 09 57 61 72 |.........V"..War|
|20 43 72 65 73 74 00 0A 00 00 00 00 00 00 00 00 | Crest..........|
|00 00 00 00 00 00 00 00 00 00 0A 01 00 00 05 DC |................|
|00 00 1E AC ED 0E B5 00 00 00 00 00 00 00 00 14 |................|
|16 09 0A 06 00 00 02 00 00 00 40 00 00 00 00 00 |..........@.....|
|00 00 00 02 58 00 01 00 01 00 00 00 00 00 40 00 |....X.........@.|
|00 00 64 00 00 18 42 72 65 61 73 74 73 63 61 6C |..d...Breastscal|
|65 20 6F 66 20 56 65 6E 67 65 61 6E 63 65 04 0F |e of Vengeance..|
|00 00 00 00 00 00 00 10 00 00 00 00 00 00 00 01 |................|
|00 09 00 00 00 00 00 05 00 06 00 00 00 00 00 00 |................|
|00 00 00 01 00 00 00 00 00 01 01 00 00 03 06 01 |................|
|00 00 00 00 00 00 00 00 00 00 00 00 00 00 00 00 |................|
|00 00 00 00 01 00 03 2E 56 22 B9 09 57 61 72 20 |........V"..War |
|43 72 65 73 74 00 0A 00 00 00 00 00 00 00 00 00 |Crest...........|
|00 00 00 00 00 00 00 00 00 0B 01 00 00 05 DC 00 |................|
|00 1E AC EE 0E E1 00 00 00 00 00 00 00 00 14 06 |................|
|09 0A 06 00 00 02 00 00 00 80 00 00 00 00 00 00 |................|
|00 00 02 58 00 01 00 01 00 00 00 00 00 00 00 20 |...X........... |
|00 32 00 00 11 47 6F 77 6E 20 6F 66 20 56 65 6E |.2...Gown of Ven|
|67 65 61 6E 63 65 04 0F 00 00 00 00 00 00 00 10 |geance..........|
|00 00 00 00 00 00 00 09 00 09 00 00 00 00 00 05 |................|
|00 06 00 00 00 00 00 00 00 00 00 01 00 00 00 00 |................|
|00 01 01 00 00 03 06 01 00 00 00 00 00 00 00 00 |................|
|00 00 00 00 00 00 00 00 00 00 00 00 01 00 03 2E |................|
|56 22 B9 09 57 61 72 20 43 72 65 73 74 00 0A 00 |V"..War Crest...|
|00 00 00 00 00 00 00 00 00 00 00 00 00 00 00 00 |................|
|00 0C 01 00 00 03 48 00 00 1E AC EF 09 40 00 00 |......H......@..|
|00 00 00 00 00 00 16 14 06 07 04 00 00 02 00 00 |................|
|00 00 00 10 00 00 00 00 00 00 01 50 00 01 00 01 |...........P....|
|00 00 00 00 00 08 00 00 00 54 00 00 17 46 65 65 |.........T...Fee|
|74 73 70 6C 61 74 65 20 6F 66 20 56 65 6E 67 65 |tsplate of Venge|
|61 6E 63 65 04 0E 00 00 00 00 00 00 00 0F 00 00 |ance............|
|00 00 00 00 00 10 00 00 00 00 00 00 00 04 00 07 |................|
|00 00 00 00 00 00 00 00 00 01 00 00 00 00 00 01 |................|
|01 00 00 03 06 01 00 00 00 00 00 00 00 00 00 00 |................|
|00 00 00 00 00 00 00 00 00 00 01 00 03 2E 56 22 |..............V"|
|B9 09 57 61 72 20 43 72 65 73 74 00 05 00 00 00 |..War Crest.....|
|00 00 00 00 00 00 00 00 00 00 00 00 00 00 00 0D |................|
|01 00 00 03 48 00 00 1E AC F0 09 7C 00 00 00 00 |....H......|....|
|00 00 00 00 16 13 06 07 04 00 00 02 00 00 00 00 |................|
|00 20 00 00 00 00 00 00 01 50 00 01 00 01 00 00 |. .......P......|
|00 00 00 04 00 00 00 38 00 00 14 53 74 6F 6D 70 |.......8...Stomp|
|61 73 20 6F 66 20 56 65 6E 67 65 61 6E 63 65 04 |as of Vengeance.|
|0E 00 00 00 00 00 00 00 0F 00 00 00 00 00 00 00 |................|
|10 00 00 00 00 00 00 00 06 00 07 00 00 00 00 00 |................|
|00 00 00 00 01 00 00 00 00 00 01 01 00 00 03 06 |................|
|01 00 00 00 00 00 00 00 00 00 00 00 00 00 00 00 |................|
|00 00 00 00 00 01 00 03 2E 56 22 B9 09 57 61 72 |.........V"..War|
|20 43 72 65 73 74 00 05 00 00 00 00 00 00 00 00 | Crest..........|
|00 00 00 00 00 00 00 00 00 00 0E 01 00 00 03 48 |...............H|
|00 00 1E AC F1 09 04 00 00 00 00 00 00 00 00 16 |................|
|06 06 07 04 00 00 02 00 00 00 00 00 40 00 00 00 |............@...|
|00 00 00 01 50 00 01 00 01 00 00 00 00 00 00 00 |....P...........|
|20 00 1C 00 00 17 4D 6F 72 6B 79 66 65 65 74 73 | .....Morkyfeets|
|20 6F 66 20 56 65 6E 67 65 61 6E 63 65 04 0E 00 | of Vengeance...|
|00 00 00 00 00 00 0F 00 00 00 00 00 00 00 10 00 |................|
|00 00 00 00 00 00 06 00 07 00 00 00 00 00 00 00 |................|
|00 00 01 00 00 00 00 00 01 01 00 00 03 06 01 00 |................|
|00 00 00 00 00 00 00 00 00 00 00 00 00 00 00 00 |................|
|00 00 00 01 00 03 2E 56 22 B9 09 57 61 72 20 43 |.......V"..War C|
|72 65 73 74 00 05 00 00 00 00 00 00 00 00 00 00 |rest............|
|00 00 00 00 00 00 00 00 0F 01 00 00 03 48 00 00 |.............H..|
|1E AC F2 08 C8 00 00 00 00 00 00 00 00 16 12 06 |................|
|07 04 00 00 02 00 00 00 00 00 80 00 00 00 00 00 |................|
|00 01 50 00 01 00 01 00 00 00 00 00 02 00 00 00 |..P.............|
|1C 00 00 18 53 71 75 69 67 6B 69 63 6B 61 73 20 |....Squigkickas |
|6F 66 20 56 65 6E 67 65 61 6E 63 65 04 0E 00 00 |of Vengeance....|
|00 00 00 00 00 0F 00 00 00 00 00 00 00 10 00 00 |................|
|00 00 00 00 00 06 00 07 00 00 00 00 00 00 00 00 |................|
|00 01 00 00 00 00 00 01 01 00 00 03 06 01 00 00 |................|
|00 00 00 00 00 00 00 00 00 00 00 00 00 00 00 00 |................|
|00 00 01 00 03 2E 56 22 B9 09 57 61 72 20 43 72 |......V"..War Cr|
|65 73 74 00 05 00 00 00 00 00 00 00 00 00 00 00 |est.............|
|00 00 00 00 00 00 00 10 01 00 00 03 48 00 00 1E |............H...|
|AC F3 0A CD 00 00 00 00 00 00 00 00 16 14 06 07 |................|
|04 00 00 02 00 00 00 00 10 00 00 00 00 00 00 00 |................|
|01 50 00 01 00 01 00 00 00 00 00 08 00 00 00 54 |.P.............T|
|00 00 16 44 61 72 6B 62 6F 6F 74 73 20 6F 66 20 |...Darkboots of |
|56 65 6E 67 65 61 6E 63 65 04 0E 00 00 00 00 00 |Vengeance.......|
|00 00 0F 00 00 00 00 00 00 00 10 00 00 00 00 00 |................|
|00 00 04 00 07 00 00 00 00 00 00 00 00 00 01 00 |................|
|00 00 00 00 01 01 00 00 03 06 01 00 00 00 00 00 |................|
|00 00 00 00 00 00 00 00 00 00 00 00 00 00 00 01 |................|
|00 03 2E 56 22 B9 09 57 61 72 20 43 72 65 73 74 |...V"..War Crest|
|00 05 00 00 00 00 00 00 00 00 00 00 00 00 00 00 |................|
|00 00 00 00 11 01 00 00 03 48 00 00 1E AC F4 0A |.........H......|
|F9 00 00 00 00 00 00 00 00 16 13 06 07 04 00 00 |................|
|02 00 00 00 00 20 00 00 00 00 00 00 00 01 50 00 |..... ........P.|
|01 00 01 00 00 00 00 00 04 00 00 00 38 00 00 16 |............8...|
|54 72 61 6D 70 6C 65 72 73 20 6F 66 20 56 65 6E |Tramplers of Ven|
|67 65 61 6E 63 65 04 0E 00 00 00 00 00 00 00 0F |geance..........|
|00 00 00 00 00 00 00 10 00 00 00 00 00 00 00 06 |................|
|00 07 00 00 00 00 00 00 00 00 00 01 00 00 00 00 |................|
|00 01 01 00 00 03 06 01 00 00 00 00 00 00 00 00 |................|
|00 00 00 00 00 00 00 00 00 00 00 00 01 00 03 2E |................|
|56 22 B9 09 57 61 72 20 43 72 65 73 74 00 05 00 |V"..War Crest...|
|00 00 00 00 00 00 00 00 00 00 00 00 00 00 00 00 |................|
|00 12 03 00 00 03 48 00 00 1E AC F5 0B 25 00 00 |......H......%..|
|00 00 00 00 00 00 16 06 06 07 04 00 00 02 00 00 |................|
|00 00 40 00 00 00 00 00 00 00 01 50 00 01 00 01 |..@........P....|
|00 00 00 00 00 00 00 20 00 1C 00 00 16 46 6F 6F |....... .....Foo|
|74 77 72 61 70 73 20 6F 66 20 56 65 6E 67 65 61 |twraps of Vengea|
|6E 63 65 04 0E 00 00 00 00 00 00 00 0F 00 00 00 |nce.............|
|00 00 00 00 10 00 00 00 00 00 00 00 06 00 07 00 |................|
|00 00 00 00 00 00 00 00 01 00 00 00 00 00 01 01 |................|
|00 00 03 06 01 00 00 00 00 00 00 00 00 00 00 00 |................|
|00 00 00 00 00 00 00 00 00 01 00 03 2E 56 22 B9 |.............V".|
|09 57 61 72 20 43 72 65 73 74 00 05 00 00 00 00 |.War Crest......|
|00 00 00 00 00 00 00 00 00 00 00 00 00 00 13 01 |................|
|00 00 03 48 00 00 1E AC F6 0A A1 00 00 00 00 00 |...H............|
|00 00 00 16 06 06 07 04 00 00 02 00 00 00 00 80 |................|
|00 00 00 00 00 00 00 01 50 00 01 00 01 00 00 00 |........P.......|
|00 00 00 00 20 00 1C 00 00 18 44 61 65 6D 6F 6E |.... .....Daemon|
|73 70 75 72 73 20 6F 66 20 56 65 6E 67 65 61 6E |spurs of Vengean|
|63 65 04 0E 00 00 00 00 00 00 00 0F 00 00 00 00 |ce..............|
|00 00 00 10 00 00 00 00 00 00 00 06 00 07 00 00 |................|
|00 00 00 00 00 00 00 01 00 00 00 00 00 01 01 00 |................|
|00 03 06 01 00 00 00 00 00 00 00 00 00 00 00 00 |................|
|00 00 00 00 00 00 00 00 01 00 03 2E 56 22 B9 09 |............V"..|
|57 61 72 20 43 72 65 73 74 00 05 00 00 00 00 00 |War Crest.......|
|00 00 00 00 00 00 00 00 00 00 00 00 00 14 01 00 |................|
|00 03 48 00 00 1E AC F7 0E 5E 00 00 00 00 00 00 |..H......^......|
|00 00 16 14 06 07 04 00 00 02 00 00 00 10 00 00 |................|
|00 00 00 00 00 00 01 50 00 01 00 01 00 00 00 00 |.......P........|
|00 08 00 00 00 54 00 00 14 47 72 65 61 76 65 73 |.....T...Greaves|
|20 6F 66 20 56 65 6E 67 65 61 6E 63 65 04 0E 00 | of Vengeance...|
|00 00 00 00 00 00 0F 00 00 00 00 00 00 00 10 00 |................|
|00 00 00 00 00 00 04 00 07 00 00 00 00 00 00 00 |................|
|00 00 01 00 00 00 00 00 01 01 00 00 03 06 01 00 |................|
|00 00 00 00 00 00 00 00 00 00 00 00 00 00 00 00 |................|
|00 00 00 01 00 03 2E 56 22 B9 09 57 61 72 20 43 |.......V"..War C|
|72 65 73 74 00 05 00 00 00 00 00 00 00 00 00 00 |rest............|
|00 00 00 00 00 00 00 00 15 01 00 00 03 48 00 00 |.............H..|
|1E AC F8 0E 8A 00 00 00 00 00 00 00 00 16 12 06 |................|
|07 04 00 00 02 00 00 00 20 00 00 00 00 00 00 00 |........ .......|
|00 01 50 00 01 00 01 00 00 00 00 00 02 00 00 00 |..P.............|
|1C 00 00 17 54 68 69 67 68 62 69 6E 64 73 20 6F |....Thighbinds o|
|66 20 56 65 6E 67 65 61 6E 63 65 04 0E 00 00 00 |f Vengeance.....|
|00 00 00 00 0F 00 00 00 00 00 00 00 10 00 00 00 |................|
|00 00 00 00 06 00 07 00 00 00 00 00 00 00 00 00 |................|
|01 00 00 00 00 00 01 01 00 00 03 06 01 00 00 00 |................|
|00 00 00 00 00 00 00 00 00 00 00 00 00 00 00 00 |................|
|00 01 00 03 2E 56 22 B9 09 57 61 72 20 43 72 65 |.....V"..War Cre|
|73 74 00 05 00 00 00 00 00 00 00 00 00 00 00 00 |st..............|
|00 00 00 00 00 00 16 01 00 00 03 48 00 00 1E AC |...........H....|
|F9 0E B6 00 00 00 00 00 00 00 00 16 16 06 07 04 |................|
|00 00 02 00 00 00 40 00 00 00 00 00 00 00 00 01 |......@.........|
|50 00 01 00 01 00 00 00 00 00 40 00 00 00 38 00 |P.........@...8.|
|00 17 42 6C 6F 6F 64 77 61 64 65 73 20 6F 66 20 |..Bloodwades of |
|56 65 6E 67 65 61 6E 63 65 04 0E 00 00 00 00 00 |Vengeance.......|
|00 00 0F 00 00 00 00 00 00 00 10 00 00 00 00 00 |................|
|00 00 06 00 07 00 00 00 00 00 00 00 00 00 01 00 |................|
|00 00 00 00 01 01 00 00 03 06 01 00 00 00 00 00 |................|
|00 00 00 00 00 00 00 00 00 00 00 00 00 00 00 01 |................|
|00 03 2E 56 22 B9 09 57 61 72 20 43 72 65 73 74 |...V"..War Crest|
|00 05 00 00 00 00 00 00 00 00 00 00 00 00 00 00 |................|
|00 00 00 00 17 01 00 00 03 48 00 00 1E AC FA 0E |.........H......|
|E2 00 00 00 00 00 00 00 00 16 06 06 07 04 00 00 |................|
|02 00 00 00 80 00 00 00 00 00 00 00 00 01 50 00 |..............P.|
|01 00 01 00 00 00 00 00 00 00 20 00 1C 00 00 16 |.......... .....|
|57 61 72 64 73 68 6F 65 73 20 6F 66 20 56 65 6E |Wardshoes of Ven|
|67 65 61 6E 63 65 04 0E 00 00 00 00 00 00 00 0F |geance..........|
|00 00 00 00 00 00 00 10 00 00 00 00 00 00 00 06 |................|
|00 07 00 00 00 00 00 00 00 00 00 01 00 00 00 00 |................|
|00 01 01 00 00 03 06 01 00 00 00 00 00 00 00 00 |................|
|00 00 00 00 00 00 00 00 00 00 00 00 01 00 03 2E |................|
|56 22 B9 09 57 61 72 20 43 72 65 73 74 00 05 00 |V"..War Crest...|
|00 00 00 00 00 00 00 00 00 00 00 00 00 00 00 00 |................|
|00 18 01 00 00 03 C0 00 00 1E AC FB 09 41 00 00 |.............A..|
|00 00 00 00 00 00 15 14 07 08 04 00 00 02 00 00 |................|
|00 00 00 10 00 00 00 00 00 00 01 80 00 01 00 01 |................|
|00 00 00 00 00 08 00 00 00 60 00 00 16 41 6E 64 |.........`...And|
|73 70 6C 61 74 65 20 6F 66 20 56 65 6E 67 65 61 |splate of Vengea|
|6E 63 65 04 0E 00 00 00 00 00 00 00 10 00 00 00 |nce.............|
|00 00 00 00 01 00 05 00 00 00 00 00 07 00 04 00 |................|
|00 00 00 00 00 00 00 00 01 00 00 00 00 00 01 01 |................|
|00 00 03 06 01 00 00 00 00 00 00 00 00 00 00 00 |................|
|00 00 00 00 00 00 00 00 00 01 00 03 2E 56 22 B9 |.............V".|
|09 57 61 72 20 43 72 65 73 74 00 05 00 00 00 00 |.War Crest......|
|00 00 00 00 00 00 00 00 00 00 00 00 00 00 19 01 |................|
|00 00 03 C0 00 00 1E AC FC 09 7D 00 00 00 00 00 |..........}.....|
|00 00 00 15 13 07 08 04 00 00 02 00 00 00 00 00 |................|
|20 00 00 00 00 00 00 01 80 00 01 00 01 00 00 00 | ...............|
|00 00 04 00 00 00 40 00 00 14 50 75 6E 63 68 61 |......@...Puncha|
|73 20 6F 66 20 56 65 6E 67 65 61 6E 63 65 04 0E |s of Vengeance..|
|00 00 00 00 00 00 00 10 00 00 00 00 00 00 00 01 |................|
|00 05 00 00 00 00 00 07 00 04 00 00 00 00 00 00 |................|
|00 00 00 01 00 00 00 00 00 01 01 00 00 03 06 01 |................|
|00 00 00 00 00 00 00 00 00 00 00 00 00 00 00 00 |................|
|00 00 00 00 01 00 03 2E 56 22 B9 09 57 61 72 20 |........V"..War |
|43 72 65 73 74 00 05 00 00 00 00 00 00 00 00 00 |Crest...........|
|00 00 00 00 00 00 00 00 00 1A 01 00 00 03 C0 00 |................|
|00 1E AC FD 09 05 00 00 00 00 00 00 00 00 15 06 |................|
|07 08 04 00 00 02 00 00 00 00 00 40 00 00 00 00 |...........@....|
|00 00 01 80 00 01 00 01 00 00 00 00 00 00 00 20 |............... |
|00 20 00 00 19 47 72 65 65 6E 62 72 69 6E 67 61 |. ...Greenbringa|
|73 20 6F 66 20 56 65 6E 67 65 61 6E 63 65 04 0E |s of Vengeance..|
|00 00 00 00 00 00 00 10 00 00 00 00 00 00 00 09 |................|
|00 05 00 00 00 00 00 03 00 04 00 00 00 00 00 00 |................|
|00 00 00 01 00 00 00 00 00 01 01 00 00 03 06 01 |................|
|00 00 00 00 00 00 00 00 00 00 00 00 00 00 00 00 |................|
|00 00 00 00 01 00 03 2E 56 22 B9 09 57 61 72 20 |........V"..War |
|43 72 65 73 74 00 05 00 00 00 00 00 00 00 00 00 |Crest...........|
|00 00 00 00 00 00 00 00 00 1B 01 00 00 03 C0 00 |................|
|00 1E AC FE 08 C9 00 00 00 00 00 00 00 00 15 12 |................|
|07 08 04 00 00 02 00 00 00 00 00 80 00 00 00 00 |................|
|00 00 01 80 00 01 00 01 00 00 00 00 00 02 00 00 |................|
|00 20 00 00 18 42 69 74 65 73 74 6F 70 70 61 73 |. ...Bitestoppas|
|20 6F 66 20 56 65 6E 67 65 61 6E 63 65 04 0E 00 | of Vengeance...|
|00 00 00 00 00 00 10 00 00 00 00 00 00 00 08 00 |................|
|05 00 00 00 00 00 07 00 04 00 00 00 00 00 00 00 |................|
|00 00 01 00 00 00 00 00 01 01 00 00 03 06 01 00 |................|
|00 00 00 00 00 00 00 00 00 00 00 00 00 00 00 00 |................|
|00 00 00 01 00 03 2E 56 22 B9 09 57 61 72 20 43 |.......V"..War C|
|72 65 73 74 00 05 00 00 00 00 00 00 00 00 00 00 |rest............|
|00 00 00 00 00 00 00 00 1C 01 00 00 03 C0 00 00 |................|
|1E AC FF 0A CE 00 00 00 00 00 00 00 00 15 14 07 |................|
|08 04 00 00 02 00 00 00 00 10 00 00 00 00 00 00 |................|
|00 01 80 00 01 00 01 00 00 00 00 00 08 00 00 00 |................|
|60 00 00 16 47 61 75 6E 74 6C 65 74 73 20 6F 66 |`...Gauntlets of|
|20 56 65 6E 67 65 61 6E 63 65 04 0E 00 00 00 00 | Vengeance......|
|00 00 00 10 00 00 00 00 00 00 00 01 00 05 00 00 |................|
|00 00 00 07 00 04 00 00 00 00 00 00 00 00 00 01 |................|
|00 00 00 00 00 01 01 00 00 03 06 01 00 00 00 00 |................|
|00 00 00 00 00 00 00 00 00 00 00 00 00 00 00 00 |................|
|01 00 03 2E 56 22 B9 09 57 61 72 20 43 72 65 73 |....V"..War Cres|
|74 00 05 00 00 00 00 00 00 00 00 00 00 00 00 00 |t...............|
|00 00 00 00 00 1D 01 00 00 03 C0 00 00 1E AD 00 |................|
|0A FA 00 00 00 00 00 00 00 00 15 13 07 08 04 00 |................|
|00 02 00 00 00 00 20 00 00 00 00 00 00 00 01 80 |...... .........|
|00 01 00 01 00 00 00 00 00 04 00 00 00 40 00 00 |.............@..|
|16 50 75 6D 6D 65 6C 65 72 73 20 6F 66 20 56 65 |.Pummelers of Ve|
|6E 67 65 61 6E 63 65 04 0E 00 00 00 00 00 00 00 |ngeance.........|
|10 00 00 00 00 00 00 00 01 00 05 00 00 00 00 00 |................|
|07 00 04 00 00 00 00 00 00 00 00 00 01 00 00 00 |................|
|00 00 01 01 00 00 03 06 01 00 00 00 00 00 00 00 |................|
|00 00 00 00 00 00 00 00 00 00 00 00 00 01 00 03 |................|
|2E 56 22 B9 09 57 61 72 20 43 72 65 73 74 00 05 |.V"..War Crest..|
|00 00 00 00 00 00 00 00 00 00 00 00 00 00 00 00 |................|
|00 00 00                                        |...             |
-------------------------------------------------------------------
[Server] packet : (0xBF) F_INIT_STORE  Size = 3918 
|------------------------------------------------|----------------|
|00 01 02 03 04 05 06 07 08 09 0A 0B 0C 0D 0E 0F |0123456789ABCDEF|
|------------------------------------------------|----------------|
|0F 4B BF 00 00 03 15 00 01 00 00 03 00 00 03 C0 |.K..............|
|00 00 1E AD 01 0B 26 00 00 00 00 00 00 00 00 15 |......&.........|
|06 07 08 04 00 00 02 00 00 00 00 40 00 00 00 00 |...........@....|
|00 00 00 01 80 00 01 00 01 00 00 00 00 00 00 00 |................|
|20 00 20 00 00 16 48 61 6E 64 77 72 61 70 73 20 | . ...Handwraps |
|6F 66 20 56 65 6E 67 65 61 6E 63 65 04 0E 00 00 |of Vengeance....|
|00 00 00 00 00 10 00 00 00 00 00 00 00 09 00 05 |................|
|00 00 00 00 00 03 00 04 00 00 00 00 00 00 00 00 |................|
|00 01 00 00 00 00 00 01 01 00 00 03 06 01 00 00 |................|
|00 00 00 00 00 00 00 00 00 00 00 00 00 00 00 00 |................|
|00 00 01 00 03 2E 56 22 B9 09 57 61 72 20 43 72 |......V"..War Cr|
|65 73 74 00 05 00 00 00 00 00 00 00 00 00 00 00 |est.............|
|00 00 00 00 00 00 00 01 01 00 00 03 C0 00 00 1E |................|
|AD 02 0A A2 00 00 00 00 00 00 00 00 15 06 07 08 |................|
|04 00 00 02 00 00 00 00 80 00 00 00 00 00 00 00 |................|
|01 80 00 01 00 01 00 00 00 00 00 00 00 20 00 20 |............. . |
|00 00 14 42 72 61 63 65 72 73 20 6F 66 20 56 65 |...Bracers of Ve|
|6E 67 65 61 6E 63 65 04 0E 00 00 00 00 00 00 00 |ngeance.........|
|10 00 00 00 00 00 00 00 09 00 05 00 00 00 00 00 |................|
|03 00 04 00 00 00 00 00 00 00 00 00 01 00 00 00 |................|
|00 00 01 01 00 00 03 06 01 00 00 00 00 00 00 00 |................|
|00 00 00 00 00 00 00 00 00 00 00 00 00 01 00 03 |................|
|2E 56 22 B9 09 57 61 72 20 43 72 65 73 74 00 05 |.V"..War Crest..|
|00 00 00 00 00 00 00 00 00 00 00 00 00 00 00 00 |................|
|00 00 02 01 00 00 03 C0 00 00 1E AD 03 0E 5F 00 |.............._.|
|00 00 00 00 00 00 00 15 14 07 08 04 00 00 02 00 |................|
|00 00 10 00 00 00 00 00 00 00 00 01 80 00 01 00 |................|
|01 00 00 00 00 00 08 00 00 00 60 00 00 17 47 72 |..........`...Gr|
|69 6D 62 72 61 63 65 73 20 6F 66 20 56 65 6E 67 |imbraces of Veng|
|65 61 6E 63 65 04 0E 00 00 00 00 00 00 00 10 00 |eance...........|
|00 00 00 00 00 00 01 00 05 00 00 00 00 00 07 00 |................|
|04 00 00 00 00 00 00 00 00 00 01 00 00 00 00 00 |................|
|01 01 00 00 03 06 01 00 00 00 00 00 00 00 00 00 |................|
|00 00 00 00 00 00 00 00 00 00 00 01 00 03 2E 56 |...............V|
|22 B9 09 57 61 72 20 43 72 65 73 74 00 05 00 00 |"..War Crest....|
|00 00 00 00 00 00 00 00 00 00 00 00 00 00 00 00 |................|
|03 01 00 00 03 C0 00 00 1E AD 04 0E 8B 00 00 00 |................|
|00 00 00 00 00 15 12 07 08 04 00 00 02 00 00 00 |................|
|20 00 00 00 00 00 00 00 00 01 80 00 01 00 01 00 | ...............|
|00 00 00 00 02 00 00 00 20 00 00 16 45 6D 62 72 |........ ...Embr|
|61 63 65 72 73 20 6F 66 20 56 65 6E 67 65 61 6E |acers of Vengean|
|63 65 04 0E 00 00 00 00 00 00 00 10 00 00 00 00 |ce..............|
|00 00 00 01 00 05 00 00 00 00 00 07 00 04 00 00 |................|
|00 00 00 00 00 00 00 01 00 00 00 00 00 01 01 00 |................|
|00 03 06 01 00 00 00 00 00 00 00 00 00 00 00 00 |................|
|00 00 00 00 00 00 00 00 01 00 03 2E 56 22 B9 09 |............V"..|
|57 61 72 20 43 72 65 73 74 00 05 00 00 00 00 00 |War Crest.......|
|00 00 00 00 00 00 00 00 00 00 00 00 00 04 01 00 |................|
|00 03 C0 00 00 1E AD 05 0E B7 00 00 00 00 00 00 |................|
|00 00 15 16 07 08 04 00 00 02 00 00 00 40 00 00 |.............@..|
|00 00 00 00 00 00 01 80 00 01 00 01 00 00 00 00 |................|
|00 40 00 00 00 40 00 00 16 41 72 6D 73 63 61 6C |.@...@...Armscal|
|65 73 20 6F 66 20 56 65 6E 67 65 61 6E 63 65 04 |es of Vengeance.|
|0E 00 00 00 00 00 00 00 10 00 00 00 00 00 00 00 |................|
|01 00 05 00 00 00 00 00 07 00 04 00 00 00 00 00 |................|
|00 00 00 00 01 00 00 00 00 00 01 01 00 00 03 06 |................|
|01 00 00 00 00 00 00 00 00 00 00 00 00 00 00 00 |................|
|00 00 00 00 00 01 00 03 2E 56 22 B9 09 57 61 72 |.........V"..War|
|20 43 72 65 73 74 00 05 00 00 00 00 00 00 00 00 | Crest..........|
|00 00 00 00 00 00 00 00 00 00 05 01 00 00 03 C0 |................|
|00 00 1E AD 06 0E E3 00 00 00 00 00 00 00 00 15 |................|
|06 07 08 04 00 00 02 00 00 00 80 00 00 00 00 00 |................|
|00 00 00 01 80 00 01 00 01 00 00 00 00 00 00 00 |................|
|20 00 20 00 00 18 43 61 73 74 62 72 61 63 65 72 | . ...Castbracer|
|73 20 6F 66 20 56 65 6E 67 65 61 6E 63 65 04 0E |s of Vengeance..|
|00 00 00 00 00 00 00 10 00 00 00 00 00 00 00 09 |................|
|00 05 00 00 00 00 00 03 00 04 00 00 00 00 00 00 |................|
|00 00 00 01 00 00 00 00 00 01 01 00 00 03 06 01 |................|
|00 00 00 00 00 00 00 00 00 00 00 00 00 00 00 00 |................|
|00 00 00 00 01 00 03 2E 56 22 B9 09 57 61 72 20 |........V"..War |
|43 72 65 73 74 00 05 00 00 00 00 00 00 00 00 00 |Crest...........|
|00 00 00 00 00 00 00 00 00 06 01 00 00 03 B1 00 |................|
|00 1E AD 07 09 3E 00 00 00 00 00 00 00 00 1C 23 |.....>.........#|
|08 09 05 00 00 02 00 00 00 00 00 10 00 00 00 00 |................|
|00 00 01 7A 00 01 00 01 00 00 00 00 00 00 00 00 |...z............|
|00 2C 00 00 15 47 75 74 73 74 72 61 70 20 6F 66 |.,...Gutstrap of|
|20 56 65 6E 67 65 61 6E 63 65 04 0E 00 0E 00 00 | Vengeance......|
|00 00 00 0F 00 0E 00 00 00 00 00 10 00 0E 00 00 |................|
|00 00 00 06 00 0B 00 00 00 00 00 00 00 00 00 00 |................|
|00 01 01 00 00 03 06 01 00 00 00 00 00 00 00 00 |................|
|00 00 00 00 00 00 00 00 00 00 00 00 01 00 03 2E |................|
|56 22 B9 09 57 61 72 20 43 72 65 73 74 00 05 00 |V"..War Crest...|
|00 00 00 00 00 00 00 00 00 00 00 00 00 00 00 00 |................|
|00 07 01 00 00 03 B1 00 00 1E AD 08 09 7A 00 00 |.............z..|
|00 00 00 00 00 00 1C 23 08 09 05 00 00 02 00 00 |.......#........|
|00 00 00 20 00 00 00 00 00 00 01 7A 00 01 00 01 |... .......z....|
|00 00 00 00 00 00 00 00 00 1D 00 00 18 42 65 6C |.............Bel|
|6C 79 62 75 63 6B 6C 65 20 6F 66 20 56 65 6E 67 |lybuckle of Veng|
|65 61 6E 63 65 04 0E 00 0E 00 00 00 00 00 0F 00 |eance...........|
|0E 00 00 00 00 00 10 00 0E 00 00 00 00 00 05 00 |................|
|0B 00 00 00 00 00 00 00 00 00 00 00 01 01 00 00 |................|
|03 06 01 00 00 00 00 00 00 00 00 00 00 00 00 00 |................|
|00 00 00 00 00 00 00 01 00 03 2E 56 22 B9 09 57 |...........V"..W|
|61 72 20 43 72 65 73 74 00 05 00 00 00 00 00 00 |ar Crest........|
|00 00 00 00 00 00 00 00 00 00 00 00 08 01 00 00 |................|
|03 B1 00 00 1E AD 09 09 02 00 00 00 00 00 00 00 |................|
|00 1C 23 08 09 05 00 00 02 00 00 00 00 00 40 00 |..#...........@.|
|00 00 00 00 00 01 7A 00 01 00 01 00 00 00 00 00 |......z.........|
|00 00 00 00 0E 00 00 16 42 69 74 73 6B 65 65 70 |........Bitskeep|
|61 20 6F 66 20 56 65 6E 67 65 61 6E 63 65 04 0E |a of Vengeance..|
|00 0E 00 00 00 00 00 0F 00 0E 00 00 00 00 00 10 |................|
|00 0E 00 00 00 00 00 05 00 0B 00 00 00 00 00 00 |................|
|00 00 00 00 00 01 01 00 00 03 06 01 00 00 00 00 |................|
|00 00 00 00 00 00 00 00 00 00 00 00 00 00 00 00 |................|
|01 00 03 2E 56 22 B9 09 57 61 72 20 43 72 65 73 |....V"..War Cres|
|74 00 05 00 00 00 00 00 00 00 00 00 00 00 00 00 |t...............|
|00 00 00 00 00 09 01 00 00 03 B1 00 00 1E AD 0A |................|
|08 C6 00 00 00 00 00 00 00 00 1C 23 08 09 05 00 |...........#....|
|00 02 00 00 00 00 00 80 00 00 00 00 00 00 01 7A |...............z|
|00 01 00 01 00 00 00 00 00 00 00 00 00 0E 00 00 |................|
|18 50 6F 75 63 68 20 48 6F 6C 64 61 20 6F 66 20 |.Pouch Holda of |
|56 65 6E 67 65 61 6E 63 65 04 0E 00 0E 00 00 00 |Vengeance.......|
|00 00 0F 00 0E 00 00 00 00 00 10 00 0E 00 00 00 |................|
|00 00 05 00 0B 00 00 00 00 00 00 00 00 00 00 00 |................|
|01 01 00 00 03 06 01 00 00 00 00 00 00 00 00 00 |................|
|00 00 00 00 00 00 00 00 00 00 00 01 00 03 2E 56 |...............V|
|22 B9 09 57 61 72 20 43 72 65 73 74 00 05 00 00 |"..War Crest....|
|00 00 00 00 00 00 00 00 00 00 00 00 00 00 00 00 |................|
|0A 01 00 00 03 B1 00 00 1E AD 0B 0A CB 00 00 00 |................|
|00 00 00 00 00 1C 23 08 09 05 00 00 02 00 00 00 |......#.........|
|00 10 00 00 00 00 00 00 00 01 7A 00 01 00 01 00 |..........z.....|
|00 00 00 00 00 00 00 00 2C 00 00 18 44 65 61 74 |........,...Deat|
|68 67 69 72 64 6C 65 20 6F 66 20 56 65 6E 67 65 |hgirdle of Venge|
|61 6E 63 65 04 0E 00 0E 00 00 00 00 00 0F 00 0E |ance............|
|00 00 00 00 00 10 00 0E 00 00 00 00 00 06 00 0B |................|
|00 00 00 00 00 00 00 00 00 00 00 01 01 00 00 03 |................|
|06 01 00 00 00 00 00 00 00 00 00 00 00 00 00 00 |................|
|00 00 00 00 00 00 01 00 03 2E 56 22 B9 09 57 61 |..........V"..Wa|
|72 20 43 72 65 73 74 00 05 00 00 00 00 00 00 00 |r Crest.........|
|00 00 00 00 00 00 00 00 00 00 00 0B 01 00 00 03 |................|
|B1 00 00 1E AD 0C 0A F7 00 00 00 00 00 00 00 00 |................|
|1C 23 08 09 05 00 00 02 00 00 00 00 20 00 00 00 |.#.......... ...|
|00 00 00 00 01 7A 00 01 00 01 00 00 00 00 00 00 |.....z..........|
|00 00 00 1D 00 00 15 4D 69 64 73 74 72 61 70 20 |.......Midstrap |
|6F 66 20 56 65 6E 67 65 61 6E 63 65 04 0E 00 0E |of Vengeance....|
|00 00 00 00 00 0F 00 0E 00 00 00 00 00 10 00 0E |................|
|00 00 00 00 00 05 00 0B 00 00 00 00 00 00 00 00 |................|
|00 00 00 01 01 00 00 03 06 01 00 00 00 00 00 00 |................|
|00 00 00 00 00 00 00 00 00 00 00 00 00 00 01 00 |................|
|03 2E 56 22 B9 09 57 61 72 20 43 72 65 73 74 00 |..V"..War Crest.|
|05 00 00 00 00 00 00 00 00 00 00 00 00 00 00 00 |................|
|00 00 00 0C 03 00 00 03 B1 00 00 1E AD 0D 0B 23 |...............#|
|00 00 00 00 00 00 00 00 1C 23 08 09 05 00 00 02 |.........#......|
|00 00 00 00 40 00 00 00 00 00 00 00 01 7A 00 01 |....@........z..|
|00 01 00 00 00 00 00 00 00 00 00 0E 00 00 16 57 |...............W|
|61 69 73 74 77 72 61 70 20 6F 66 20 56 65 6E 67 |aistwrap of Veng|
|65 61 6E 63 65 04 0E 00 0E 00 00 00 00 00 0F 00 |eance...........|
|0E 00 00 00 00 00 10 00 0E 00 00 00 00 00 05 00 |................|
|0B 00 00 00 00 00 00 00 00 00 00 00 01 01 00 00 |................|
|03 06 01 00 00 00 00 00 00 00 00 00 00 00 00 00 |................|
|00 00 00 00 00 00 00 01 00 03 2E 56 22 B9 09 57 |...........V"..W|
|61 72 20 43 72 65 73 74 00 05 00 00 00 00 00 00 |ar Crest........|
|00 00 00 00 00 00 00 00 00 00 00 00 0D 01 00 00 |................|
|03 B1 00 00 1E AD 0E 0A 9F 00 00 00 00 00 00 00 |................|
|00 1C 23 08 09 05 00 00 02 00 00 00 00 80 00 00 |..#.............|
|00 00 00 00 00 01 7A 00 01 00 01 00 00 00 00 00 |......z.........|
|00 00 00 00 0E 00 00 15 57 68 69 70 73 61 73 68 |........Whipsash|
|20 6F 66 20 56 65 6E 67 65 61 6E 63 65 04 0E 00 | of Vengeance...|
|0E 00 00 00 00 00 0F 00 0E 00 00 00 00 00 10 00 |................|
|0E 00 00 00 00 00 05 00 0B 00 00 00 00 00 00 00 |................|
|00 00 00 00 01 01 00 00 03 06 01 00 00 00 00 00 |................|
|00 00 00 00 00 00 00 00 00 00 00 00 00 00 00 01 |................|
|00 03 2E 56 22 B9 09 57 61 72 20 43 72 65 73 74 |...V"..War Crest|
|00 05 00 00 00 00 00 00 00 00 00 00 00 00 00 00 |................|
|00 00 00 00 0E 01 00 00 03 B1 00 00 1E AD 0F 0E |................|
|5C 00 00 00 00 00 00 00 00 1C 23 08 09 05 00 00 |\.........#.....|
|02 00 00 00 10 00 00 00 00 00 00 00 00 01 7A 00 |..............z.|
|01 00 01 00 00 00 00 00 00 00 00 00 2C 00 00 15 |............,...|
|42 69 6E 64 69 6E 67 73 20 6F 66 20 56 65 6E 67 |Bindings of Veng|
|65 61 6E 63 65 04 0E 00 0E 00 00 00 00 00 0F 00 |eance...........|
|0E 00 00 00 00 00 10 00 0E 00 00 00 00 00 06 00 |................|
|0B 00 00 00 00 00 00 00 00 00 00 00 01 01 00 00 |................|
|03 06 01 00 00 00 00 00 00 00 00 00 00 00 00 00 |................|
|00 00 00 00 00 00 00 01 00 03 2E 56 22 B9 09 57 |...........V"..W|
|61 72 20 43 72 65 73 74 00 05 00 00 00 00 00 00 |ar Crest........|
|00 00 00 00 00 00 00 00 00 00 00 00 0F 01 00 00 |................|
|03 B1 00 00 1E AD 10 0E 88 00 00 00 00 00 00 00 |................|
|00 1C 23 08 09 05 00 00 02 00 00 00 20 00 00 00 |..#......... ...|
|00 00 00 00 00 01 7A 00 01 00 01 00 00 00 00 00 |......z.........|
|00 00 00 00 0E 00 00 15 56 69 6C 65 63 6F 72 64 |........Vilecord|
|20 6F 66 20 56 65 6E 67 65 61 6E 63 65 04 0E 00 | of Vengeance...|
|0E 00 00 00 00 00 0F 00 0E 00 00 00 00 00 10 00 |................|
|0E 00 00 00 00 00 05 00 0B 00 00 00 00 00 00 00 |................|
|00 00 00 00 01 01 00 00 03 06 01 00 00 00 00 00 |................|
|00 00 00 00 00 00 00 00 00 00 00 00 00 00 00 01 |................|
|00 03 2E 56 22 B9 09 57 61 72 20 43 72 65 73 74 |...V"..War Crest|
|00 05 00 00 00 00 00 00 00 00 00 00 00 00 00 00 |................|
|00 00 00 00 10 01 00 00 03 B1 00 00 1E AD 11 0E |................|
|B4 00 00 00 00 00 00 00 00 1C 23 08 09 05 00 00 |..........#.....|
|02 00 00 00 40 00 00 00 00 00 00 00 00 01 7A 00 |....@.........z.|
|01 00 01 00 00 00 00 00 00 00 00 00 1D 00 00 16 |................|
|42 6C 61 64 65 62 65 6C 74 20 6F 66 20 56 65 6E |Bladebelt of Ven|
|67 65 61 6E 63 65 04 0E 00 0E 00 00 00 00 00 0F |geance..........|
|00 0E 00 00 00 00 00 10 00 0E 00 00 00 00 00 05 |................|
|00 0B 00 00 00 00 00 00 00 00 00 00 00 01 01 00 |................|
|00 03 06 01 00 00 00 00 00 00 00 00 00 00 00 00 |................|
|00 00 00 00 00 00 00 00 01 00 03 2E 56 22 B9 09 |............V"..|
|57 61 72 20 43 72 65 73 74 00 05 00 00 00 00 00 |War Crest.......|
|00 00 00 00 00 00 00 00 00 00 00 00 00 11 01 00 |................|
|00 03 B1 00 00 1E AD 12 0E E0 00 00 00 00 00 00 |................|
|00 00 1C 23 08 09 05 00 00 02 00 00 00 80 00 00 |...#............|
|00 00 00 00 00 00 01 7A 00 01 00 01 00 00 00 00 |.......z........|
|00 00 00 00 00 0E 00 00 11 53 61 73 68 20 6F 66 |.........Sash of|
|20 56 65 6E 67 65 61 6E 63 65 04 0E 00 0E 00 00 | Vengeance......|
|00 00 00 0F 00 0E 00 00 00 00 00 10 00 0E 00 00 |................|
|00 00 00 05 00 0B 00 00 00 00 00 00 00 00 00 00 |................|
|00 01 01 00 00 03 06 01 00 00 00 00 00 00 00 00 |................|
|00 00 00 00 00 00 00 00 00 00 00 00 01 00 03 2E |................|
|56 22 B9 09 57 61 72 20 43 72 65 73 74 00 05 00 |V"..War Crest...|
|00 00 00 00 00 00 00 00 00 00 00 00 00 00 00 00 |................|
|00 12 03 00 00 02 D0 00 00 1E AD 37 01 D7 00 00 |...........7....|
|00 00 00 00 00 00 1F 00 07 08 04 00 00 02 00 00 |................|
|00 00 00 00 00 00 00 00 00 00 01 20 00 01 00 01 |........... ....|
|00 00 00 00 00 00 00 00 00 00 00 00 16 57 61 72 |.............War|
|70 20 52 69 6E 67 20 6F 66 20 56 65 6E 67 65 61 |p Ring of Vengea|
|6E 63 65 04 0E 00 0B 00 00 00 00 00 0F 00 0B 00 |nce.............|
|00 00 00 00 10 00 0B 00 00 00 00 00 04 00 08 00 |................|
|00 00 00 00 00 00 00 00 00 00 01 01 00 00 03 06 |................|
|01 00 00 00 00 00 00 00 00 00 00 00 00 00 00 00 |................|
|00 00 00 00 00 01 00 03 2E 56 22 B9 09 57 61 72 |.........V"..War|
|20 43 72 65 73 74 00 05 00 00 00 00 00 00 00 00 | Crest..........|
|00 00 00 00 00 00 00 00 00 00 13 03 00 00 03 2A |...............*|
|00 00 1E AD 38 01 7D 00 00 00 00 00 00 00 00 1F |....8.}.........|
|00 08 09 05 00 00 02 00 00 00 00 00 00 00 00 00 |................|
|00 00 00 01 44 00 01 00 01 00 00 00 00 00 00 00 |....D...........|
|00 00 00 00 00 17 43 68 61 6F 73 20 52 69 6E 67 |......Chaos Ring|
|20 6F 66 20 56 65 6E 67 65 61 6E 63 65 04 0E 00 | of Vengeance...|
|0C 00 00 00 00 00 0F 00 0C 00 00 00 00 00 10 00 |................|
|0C 00 00 00 00 00 06 00 09 00 00 00 00 00 00 00 |................|
|00 00 00 00 01 01 00 00 03 06 01 00 00 00 00 00 |................|
|00 00 00 00 00 00 00 00 00 00 00 00 00 00 00 01 |................|
|00 03 2E 56 22 B9 09 57 61 72 20 43 72 65 73 74 |...V"..War Crest|
|00 05 00 00 00 00 00 00 00 00 00 00 00 00 00 00 |................|
|00 00 00 00 14 03 00 00 03 84 00 00 1E AD 39 03 |..............9.|
|BF 00 00 00 00 00 00 00 00 1F 00 09 0A 06 00 00 |................|
|02 00 00 00 00 00 00 00 00 00 00 00 00 01 68 00 |..............h.|
|01 00 01 00 00 00 00 00 00 00 00 00 00 00 00 16 |................|
|44 61 72 6B 20 42 61 6E 64 20 6F 66 20 56 65 6E |Dark Band of Ven|
|67 65 61 6E 63 65 04 0E 00 0E 00 00 00 00 00 0F |geance..........|
|00 0E 00 00 00 00 00 10 00 0E 00 00 00 00 00 05 |................|
|00 0A 00 00 00 00 00 00 00 00 00 00 00 01 01 00 |................|
|00 03 06 01 00 00 00 00 00 00 00 00 00 00 00 00 |................|
|00 00 00 00 00 00 00 00 01 00 03 2E 56 22 B9 09 |............V"..|
|57 61 72 20 43 72 65 73 74 00 05 00 00 00 00 00 |War Crest.......|
|00 00 00 00 00 00 00 00 00 00 00 00 00 00       |..............  |
-------------------------------------------------------------------
[Server] packet : (0xC0) F_STORE_BUY_BACK  Size = 5 
|------------------------------------------------|----------------|
|00 01 02 03 04 05 06 07 08 09 0A 0B 0C 0D 0E 0F |0123456789ABCDEF|
|------------------------------------------------|----------------|
|00 02 C0 00 00                                  |.....           |
-------------------------------------------------------------------
[Client] packet : (0x0B) F_PING  Size = 32 
|------------------------------------------------|----------------|
|00 01 02 03 04 05 06 07 08 09 0A 0B 0C 0D 0E 0F |0123456789ABCDEF|
|------------------------------------------------|----------------|
|00 14 B9 B6 00 70 00 00 00 0B 00 95 1B 9A E8 F3 |.....p..........|
|3B FF BC 3E F4 4F 00 00 00 00 00 00 00 00 A0 29 |;..>.O.........)|                                                
-------------------------------------------------------------------
[Server] packet : (0x81) S_PONG  Size = 23 
|------------------------------------------------|----------------|
|00 01 02 03 04 05 06 07 08 09 0A 0B 0C 0D 0E 0F |0123456789ABCDEF|
|------------------------------------------------|----------------|
|00 14 81 00 95 1B 9A 52 75 0D 86 00 00 00 00 00 |.......Ru.......|
|00 B9 B7 00 00 00 00                            |.......         |
-------------------------------------------------------------------
[Server] packet : (0x51) F_ANIMATION  Size = 9 
|------------------------------------------------|----------------|
|00 01 02 03 04 05 06 07 08 09 0A 0B 0C 0D 0E 0F |0123456789ABCDEF|
|------------------------------------------------|----------------|
|00 06 51 0F E7 00 AC 00 00                      |.........       |
-------------------------------------------------------------------
[Client] packet : (0x86) F_MAIL  Size = 16 
|------------------------------------------------|----------------|
|00 01 02 03 04 05 06 07 08 09 0A 0B 0C 0D 0E 0F |0123456789ABCDEF|
|------------------------------------------------|----------------|
|00 04 B9 BA 00 70 FF FF 00 86 00 00 00 00 00 00 |.....p..........|                                                
-------------------------------------------------------------------
[Server] packet : (0xCC) F_CITY_CAPTURE  Size = 19 
|------------------------------------------------|----------------|
|00 01 02 03 04 05 06 07 08 09 0A 0B 0C 0D 0E 0F |0123456789ABCDEF|
|------------------------------------------------|----------------|
|00 10 CC 73 00 00 00 03 00 00 00 00 00 0A 00 01 |...s............|
|01 00 00                                        |...             |
-------------------------------------------------------------------
[Server] packet : (0xCC) F_CITY_CAPTURE  Size = 19 
|------------------------------------------------|----------------|
|00 01 02 03 04 05 06 07 08 09 0A 0B 0C 0D 0E 0F |0123456789ABCDEF|
|------------------------------------------------|----------------|
|00 10 CC 75 00 00 00 00 00 00 00 A9 0B 00 00 00 |...u............|
|00 00 00                                        |...             |
-------------------------------------------------------------------