
[Client] packet : (0x0B) F_PING  Size = 32 
|------------------------------------------------|----------------|
|00 01 02 03 04 05 06 07 08 09 0A 0B 0C 0D 0E 0F |0123456789ABCDEF|
|------------------------------------------------|----------------|
|00 14 14 83 00 05 00 00 00 0B 00 15 67 F8 50 C0 |............g.P.|
|C6 47 14 A5 2E 25 00 00 00 00 00 00 00 00 F0 ED |.G...%..........|                                                
-------------------------------------------------------------------
[Server] packet : (0x81) S_PONG  Size = 23 
|------------------------------------------------|----------------|
|00 01 02 03 04 05 06 07 08 09 0A 0B 0C 0D 0E 0F |0123456789ABCDEF|
|------------------------------------------------|----------------|
|00 14 81 00 15 67 F8 52 81 5F EF 00 00 00 00 00 |.....g.R._......|
|00 14 84 00 00 00 00                            |.......         |
-------------------------------------------------------------------
[Client] packet : (0x16) F_REQUEST_INIT_OBJECT  Size = 16 
|------------------------------------------------|----------------|
|00 01 02 03 04 05 06 07 08 09 0A 0B 0C 0D 0E 0F |0123456789ABCDEF|
|------------------------------------------------|----------------|
|00 04 14 84 00 05 00 00 00 16 36 51 00 00 BA 00 |..........6Q....|                                                
-------------------------------------------------------------------
[Server] packet : (0x72) F_CREATE_MONSTER  Size = 108 
|------------------------------------------------|----------------|
|00 01 02 03 04 05 06 07 08 09 0A 0B 0C 0D 0E 0F |0123456789ABCDEF|
|------------------------------------------------|----------------|
|00 69 72 36 51 00 EB 0F F6 25 F2 00 0F D8 03 00 |.ir6Q....%......|
|10 41 2F 00 00 04 3C 32 07 61 00 00 00 00 00 00 |.A/...<2.a......|
|00 00 00 03 E8 00 00 00 00 89 65 00 00 00 00 01 |..........e.....|
|19 00 47 6F 6C 64 65 6E 77 69 6E 67 20 46 6C 69 |..Goldenwing Fli|
|65 72 5E 6D 00 01 0A 00 00 00 1A 05 00 36 51 58 |er^m.........6QX|
|03 C1 2F 25 F2 64 21 C8 00 00 00 00 00 EB 00 00 |../%.d!.........|
|08 58 3E C2 F2 25 C8 36 51 00 00 00             |............    |
-------------------------------------------------------------------
[Client] packet : (0x01) UNKNOWN  Size = 32 
|------------------------------------------------|----------------|
|00 01 02 03 04 05 06 07 08 09 0A 0B 0C 0D 0E 0F |0123456789ABCDEF|
|------------------------------------------------|----------------|
|00 14 14 89 00 05 00 00 00 01 00 15 6D 6A 20 07 |............mj .|
|2A 68 90 38 40 04 00 23 39 B1 08 18 FD 5F 4B EB |*h.8@..#9...._K.|                                                
-------------------------------------------------------------------
[Server] packet : (0x00) UNKNOWN  Size = 23 
|------------------------------------------------|----------------|
|00 01 02 03 04 05 06 07 08 09 0A 0B 0C 0D 0E 0F |0123456789ABCDEF|
|------------------------------------------------|----------------|
|00 14 00 00 15 6D 6A AA DE 99 C9 00 00 00 00 00 |.....mj.........|
|23 39 B1 08 18 FD 00                            |.......         |
-------------------------------------------------------------------
[Server] packet : (0x44) F_ACTION_COUNTER_UPDATE  Size = 11 
|------------------------------------------------|----------------|
|00 01 02 03 04 05 06 07 08 09 0A 0B 0C 0D 0E 0F |0123456789ABCDEF|
|------------------------------------------------|----------------|
|00 08 44 01 EB 00 00 00 00 00 00                |...........     |
-------------------------------------------------------------------
[Server] packet : (0xD7) F_INIT_EFFECTS  Size = 200 
|------------------------------------------------|----------------|
|00 01 02 03 04 05 06 07 08 09 0A 0B 0C 0D 0E 0F |0123456789ABCDEF|
|------------------------------------------------|----------------|
|00 C5 D7 08 00 00 00 0B F5 04 00 EA 01 B6 AC AE |................|
|01 F5 0B 05 00 02 01 5B 02 02 05 02 09 8F CB 01 |.......[........|
|03 00 1F 01 B6 AC AE 01 F5 0B 0A 00 08 01 10 02 |................|
|1E 03 32 04 46 05 28 06 50 07 A0 01 08 C0 02 09 |..2.F.(.P.......|
|90 03 02 00 BD 33 B6 AC AE 01 F5 0B 01 00 C8 01 |.....3..........|
|05 00 EC 01 B6 AC AE 01 F5 0B 04 00 90 03 01 90 |................|
|03 02 90 03 03 90 03 06 00 51 0C B6 AC AE 01 F5 |.........Q......|
|0B 06 00 C7 01 01 C7 01 02 C7 01 03 C7 01 04 02 |................|
|05 02 01 00 4C 61 B6 AC AE 01 F5 0B 03 00 C7 01 |....La..........|
|01 C7 01 02 C7 01 07 00 ED 01 B6 AC AE 01 F5 0B |................|
|0A 00 40 01 52 02 74 03 B0 01 04 84 02 05 EE 02 |..@.R.t.........|
|06 F4 01 07 86 01 08 10 09 32 09 00 49 03 B6 AC |.........2..I...|
|AE 01 F5 0B 01 00 13 00                         |........        |
-------------------------------------------------------------------
[Client] packet : (0x0B) F_PING  Size = 32 
|------------------------------------------------|----------------|
|00 01 02 03 04 05 06 07 08 09 0A 0B 0C 0D 0E 0F |0123456789ABCDEF|
|------------------------------------------------|----------------|
|00 14 14 90 00 05 00 00 00 0B 00 15 7B 06 C7 33 |............{..3|
|3F BF 6C 3D C9 5E 00 00 00 00 00 00 00 00 F0 ED |?.l=.^..........|                                                
-------------------------------------------------------------------
[Server] packet : (0x81) S_PONG  Size = 23 
|------------------------------------------------|----------------|
|00 01 02 03 04 05 06 07 08 09 0A 0B 0C 0D 0E 0F |0123456789ABCDEF|
|------------------------------------------------|----------------|
|00 14 81 00 15 7B 06 52 81 5F F4 00 00 00 00 00 |.....{.R._......|
|00 14 91 00 00 00 00                            |.......         |
-------------------------------------------------------------------
[Client] packet : (0x37) F_GROUP_COMMAND  Size = 20 
|------------------------------------------------|----------------|
|00 01 02 03 04 05 06 07 08 09 0A 0B 0C 0D 0E 0F |0123456789ABCDEF|
|------------------------------------------------|----------------|
|00 08 14 91 00 05 FF FF 00 37 00 00 00 00 03 00 |.........7......|
|00 00 B0 73                                     |....            |
-------------------------------------------------------------------
[Server] packet : (0xB6) F_SOCIAL_NETWORK  Size = 8 
|------------------------------------------------|----------------|
|00 01 02 03 04 05 06 07 08 09 0A 0B 0C 0D 0E 0F |0123456789ABCDEF|
|------------------------------------------------|----------------|
|00 05 B6 00 00 03 00 00                         |........        |
-------------------------------------------------------------------
[Server] packet : (0xBE) F_CHARACTER_INFO  Size = 11 
|------------------------------------------------|----------------|
|00 01 02 03 04 05 06 07 08 09 0A 0B 0C 0D 0E 0F |0123456789ABCDEF|
|------------------------------------------------|----------------|
|00 08 BE 06 01 C4 7D CC DF 96 00                |...........     |
-------------------------------------------------------------------
[Server] packet : (0x1D) F_GUILD_DATA  Size = 62 
|------------------------------------------------|----------------|
|00 01 02 03 04 05 06 07 08 09 0A 0B 0C 0D 0E 0F |0123456789ABCDEF|
|------------------------------------------------|----------------|
|00 3B 1D 02 01 00 25 AF CC 00 C8 00 00 09 00 0F |.;....%.........|
|43 68 65 66 20 64 65 20 67 75 69 6C 64 65 00 00 |Chef de guilde..|
|00 0A 57 61 72 65 6D 68 75 5E 46 00 0F 01 6B 01 |..Waremhu^F...k.|
|52 81 5D 92 00 00 00 01 00 01 00 00 01 00       |..............  |
-------------------------------------------------------------------
[Server] packet : (0x6F) F_LOCALIZED_STRING  Size = 31 
|------------------------------------------------|----------------|
|00 01 02 03 04 05 06 07 08 09 0A 0B 0C 0D 0E 0F |0123456789ABCDEF|
|------------------------------------------------|----------------|
|00 1C 6F 00 00 00 00 04 57 00 00 00 01 01 00 0F |..o.....W.......|
|44 72 6F 6C 65 64 65 66 65 6D 6D 65 5E 46 00    |............... |
-------------------------------------------------------------------
[Server] packet : (0xBE) F_CHARACTER_INFO  Size = 30 
|------------------------------------------------|----------------|
|00 01 02 03 04 05 06 07 08 09 0A 0B 0C 0D 0E 0F |0123456789ABCDEF|
|------------------------------------------------|----------------|
|00 1B BE 06 04 C4 7D EA A1 86 01 BD 72 00 CC DF |......}.....r...|
|96 01 F5 17 00 9C E4 6C 94 4F 00 00 00 00       |..............  |
-------------------------------------------------------------------
[Server] packet : (0xD8) F_GROUP_STATUS  Size = 23 
|------------------------------------------------|----------------|
|00 01 02 03 04 05 06 07 08 09 0A 0B 0C 0D 0E 0F |0123456789ABCDEF|
|------------------------------------------------|----------------|
|00 14 D8 3E C4 01 FF 00 02 00 00 00 00 00 01 00 |...>............|
|1B 32 1C 00 21 90 00                            |.......         |
-------------------------------------------------------------------
[Server] packet : (0xD8) F_GROUP_STATUS  Size = 11 
|------------------------------------------------|----------------|
|00 01 02 03 04 05 06 07 08 09 0A 0B 0C 0D 0E 0F |0123456789ABCDEF|
|------------------------------------------------|----------------|
|00 08 D8 3E C4 02 FF 01 00 00 00                |...........     |
-------------------------------------------------------------------
[Server] packet : (0xD8) F_GROUP_STATUS  Size = 11 
|------------------------------------------------|----------------|
|00 01 02 03 04 05 06 07 08 09 0A 0B 0C 0D 0E 0F |0123456789ABCDEF|
|------------------------------------------------|----------------|
|00 08 D8 3E C4 02 FF 01 00 00 00                |...........     |
-------------------------------------------------------------------
[Server] packet : (0xD8) F_GROUP_STATUS  Size = 23 
|------------------------------------------------|----------------|
|00 01 02 03 04 05 06 07 08 09 0A 0B 0C 0D 0E 0F |0123456789ABCDEF|
|------------------------------------------------|----------------|
|00 14 D8 3E C4 01 FF 00 02 00 00 00 00 00 01 00 |...>............|
|1B 32 1C 00 21 90 00                            |.......         |
-------------------------------------------------------------------
[Server] packet : (0x6F) F_LOCALIZED_STRING  Size = 13 
|------------------------------------------------|----------------|
|00 01 02 03 04 05 06 07 08 09 0A 0B 0C 0D 0E 0F |0123456789ABCDEF|
|------------------------------------------------|----------------|
|00 0A 6F 00 00 00 00 00 F3 00 00 00 00          |.............   |
-------------------------------------------------------------------
[Server] packet : (0x6F) F_LOCALIZED_STRING  Size = 26 
|------------------------------------------------|----------------|
|00 01 02 03 04 05 06 07 08 09 0A 0B 0C 0D 0E 0F |0123456789ABCDEF|
|------------------------------------------------|----------------|
|00 17 6F 00 00 00 00 00 F4 00 00 00 01 01 00 0A |..o.............|
|57 61 72 65 6D 68 75 5E 46 00                   |..........      |
-------------------------------------------------------------------
[Server] packet : (0x51) F_ANIMATION  Size = 9 
|------------------------------------------------|----------------|
|00 01 02 03 04 05 06 07 08 09 0A 0B 0C 0D 0E 0F |0123456789ABCDEF|
|------------------------------------------------|----------------|
|00 06 51 0D 2B 00 6C 00 00                      |.........       |
-------------------------------------------------------------------
[Server] packet : (0x51) F_ANIMATION  Size = 9 
|------------------------------------------------|----------------|
|00 01 02 03 04 05 06 07 08 09 0A 0B 0C 0D 0E 0F |0123456789ABCDEF|
|------------------------------------------------|----------------|
|00 06 51 01 3C 00 E5 00 00                      |.........       |
-------------------------------------------------------------------