
[Client] packet : (0x0B) F_PING  Size = 32 
|------------------------------------------------|----------------|
|00 01 02 03 04 05 06 07 08 09 0A 0B 0C 0D 0E 0F |0123456789ABCDEF|
|------------------------------------------------|----------------|
|00 14 C8 05 00 1F 00 00 00 0B 00 A9 01 8F B6 8F |................|
|EF FF D1 FD 56 EC 00 00 00 00 00 00 00 00 C0 88 |....V...........|                                                
-------------------------------------------------------------------
[Server] packet : (0x81) S_PONG  Size = 23 
|------------------------------------------------|----------------|
|00 01 02 03 04 05 06 07 08 09 0A 0B 0C 0D 0E 0F |0123456789ABCDEF|
|------------------------------------------------|----------------|
|00 14 81 00 A9 01 8F 52 75 84 91 00 00 00 00 00 |.......Ru.......|
|00 C8 06 00 00 00 00                            |.......         |
-------------------------------------------------------------------
[Client] packet : (0x16) F_REQUEST_INIT_OBJECT  Size = 16 
|------------------------------------------------|----------------|
|00 01 02 03 04 05 06 07 08 09 0A 0B 0C 0D 0E 0F |0123456789ABCDEF|
|------------------------------------------------|----------------|
|00 04 C8 07 00 1F 00 00 00 16 11 D2 00 00 9D AB |................|                                                
-------------------------------------------------------------------
[Client] packet : (0x5A) F_PING_DATAGRAM  Size = 13 
|------------------------------------------------|----------------|
|00 01 02 03 04 05 06 07 08 09 0A 0B 0C 0D 0E 0F |0123456789ABCDEF|
|------------------------------------------------|----------------|
|00 01 C8 08 00 1F FF FF 00 5A 00 1F 46          |.............   |
-------------------------------------------------------------------
[Server] packet : (0x72) F_CREATE_MONSTER  Size = 105 
|------------------------------------------------|----------------|
|00 01 02 03 04 05 06 07 08 09 0A 0B 0C 0D 0E 0F |0123456789ABCDEF|
|------------------------------------------------|----------------|
|00 66 72 11 D2 00 55 0C F9 16 0E 00 0C CE 8A 00 |.fr...U.........|
|0D 90 01 00 00 04 37 32 02 00 00 00 00 00 00 00 |......72........|
|00 00 00 03 E8 00 00 00 00 03 B6 00 03 00 00 01 |................|
|19 00 46 75 6E 67 61 6C 20 54 65 6E 64 65 72 5E |..Fungal Tender^|
|6D 00 01 0A 00 00 00 1A 05 00 11 D2 8E 8A B0 01 |m...............|
|16 0E 64 01 0B 00 00 00 00 00 55 00 00 D3 8E 1F |..d.......U.....|
|B0 12 16 0B 11 D2 00 00 00                      |.........       |
-------------------------------------------------------------------
[Server] packet : (0x73) F_PLAYER_IMAGENUM  Size = 25 
|------------------------------------------------|----------------|
|00 01 02 03 04 05 06 07 08 09 0A 0B 0C 0D 0E 0F |0123456789ABCDEF|
|------------------------------------------------|----------------|
|00 16 73 09 C6 04 32 2A 00 00 00 00 00 00 00 00 |..s...2*........|
|00 00 00 00 00 00 00 00 00                      |.........       |
-------------------------------------------------------------------
[Server] packet : (0x72) F_CREATE_MONSTER  Size = 107 
|------------------------------------------------|----------------|
|00 01 02 03 04 05 06 07 08 09 0A 0B 0C 0D 0E 0F |0123456789ABCDEF|
|------------------------------------------------|----------------|
|00 68 72 09 C6 00 00 08 FA 18 69 00 0C C3 B5 00 |.hr.......i.....|
|0D B5 17 00 00 04 32 2A 02 00 00 00 00 00 00 00 |......2*........|
|00 00 00 03 E8 00 00 00 00 04 CA 00 01 00 00 01 |................|
|19 00 41 6E 6E 6F 79 69 6E 67 20 49 72 6F 6E 63 |..Annoying Ironc|
|6C 61 77 20 53 71 75 69 67 5E 6D 00 01 0A 00 00 |law Squig^m.....|
|00 12 05 00 09 C6 83 B5 D5 17 18 69 64 00 0B 00 |...........id...|
|00 00 00 00 FA 08 09 C6 00 00 00                |...........     |
-------------------------------------------------------------------
[Client] packet : (0x01) UNKNOWN  Size = 32 
|------------------------------------------------|----------------|
|00 01 02 03 04 05 06 07 08 09 0A 0B 0C 0D 0E 0F |0123456789ABCDEF|
|------------------------------------------------|----------------|
|00 14 C8 0C 00 1F 00 00 00 01 00 A9 06 CC 00 00 |................|
|00 00 00 00 00 00 00 00 42 06 00 00 31 35 00 00 |........B...15..|                                                
-------------------------------------------------------------------
[Server] packet : (0x00) UNKNOWN  Size = 23 
|------------------------------------------------|----------------|
|00 01 02 03 04 05 06 07 08 09 0A 0B 0C 0D 0E 0F |0123456789ABCDEF|
|------------------------------------------------|----------------|
|00 14 00 00 A9 06 CC 7C 8E 03 28 00 00 00 00 00 |.......|..(.....|
|00 42 06 00 00 31 00                            |.......         |
-------------------------------------------------------------------
[Client] packet : (0xE8) F_CLIENT_DATA  Size = 20 
|------------------------------------------------|----------------|
|00 01 02 03 04 05 06 07 08 09 0A 0B 0C 0D 0E 0F |0123456789ABCDEF|
|------------------------------------------------|----------------|
|00 08 C8 11 00 1F 00 00 00 E8 00 34 00 04 6B 21 |...........4..k!|
|01 00 00 00                                     |....            |
-------------------------------------------------------------------
[Server] packet : (0x0A) F_OBJECT_DEATH  Size = 15 
|------------------------------------------------|----------------|
|00 01 02 03 04 05 06 07 08 09 0A 0B 0C 0D 0E 0F |0123456789ABCDEF|
|------------------------------------------------|----------------|
|00 0C 0A 24 45 00 00 00 00 00 00 00 00 00 00    |............... |
-------------------------------------------------------------------
[Client] packet : (0xD2) F_INTERACT  Size = 24 
|------------------------------------------------|----------------|
|00 01 02 03 04 05 06 07 08 09 0A 0B 0C 0D 0E 0F |0123456789ABCDEF|
|------------------------------------------------|----------------|
|00 0C C8 12 00 1F 00 00 00 D2 00 00 08 71 00 00 |.............q..|
|00 00 00 00 00 00 00 00                         |........        |
-------------------------------------------------------------------
[Server] packet : (0x7E) F_SET_ABILITY_TIMER  Size = 15 
|------------------------------------------------|----------------|
|00 01 02 03 04 05 06 07 08 09 0A 0B 0C 0D 0E 0F |0123456789ABCDEF|
|------------------------------------------------|----------------|
|00 0C 7E 00 01 01 00 00 00 00 00 00 00 00 00    |............... |
-------------------------------------------------------------------
[Server] packet : (0xE9) F_INTERACT_RESPONSE  Size = 51 
|------------------------------------------------|----------------|
|00 01 02 03 04 05 06 07 08 09 0A 0B 0C 0D 0E 0F |0123456789ABCDEF|
|------------------------------------------------|----------------|
|00 30 E9 00 08 71 00 00 00 22 00 26 4F 6E 6C 79 |.0...q...".&Only|
|20 64 61 20 62 69 67 67 65 73 74 20 62 6F 73 73 | da biggest boss|
|65 73 20 75 73 65 20 6D 79 20 63 68 6F 70 70 61 |es use my choppa|
|73 21 00                                        |...             |
-------------------------------------------------------------------
[Client] packet : (0xD2) F_INTERACT  Size = 24 
|------------------------------------------------|----------------|
|00 01 02 03 04 05 06 07 08 09 0A 0B 0C 0D 0E 0F |0123456789ABCDEF|
|------------------------------------------------|----------------|
|00 0C C8 15 00 1F 00 00 00 D2 00 00 08 71 00 09 |.............q..|
|00 00 00 00 00 00 00 00                         |........        |
-------------------------------------------------------------------
[Server] packet : (0xBF) F_INIT_STORE  Size = 377 
|------------------------------------------------|----------------|
|00 01 02 03 04 05 06 07 08 09 0A 0B 0C 0D 0E 0F |0123456789ABCDEF|
|------------------------------------------------|----------------|
|01 76 BF 00 00 00 03 01 01 00 00 00 03 00 00 00 |.v..............|
|1E 00 00 03 2C 1D 02 CA 00 00 00 00 00 00 00 00 |....,...........|
|00 1F 01 01 00 00 00 01 00 00 00 00 00 00 00 00 |................|
|00 00 00 00 00 0C 00 14 00 01 00 00 00 00 00 00 |................|
|00 00 00 00 00 00 13 44 72 61 6D 20 6F 66 20 52 |.......Dram of R|
|65 73 74 6F 72 61 74 69 6F 6E 00 00 01 00 01 1E |estoration......|
|C7 00 B4 00 00 00 00 00 00 00 01 00 01 03 02 00 |................|
|00 00 00 00 00 00 00 00 00 00 00 00 05 00 00 00 |................|
|00 00 00 00 00 01 03 00 00 00 1E 00 00 03 2C 1E |..............,.|
|02 EE 00 00 00 00 00 00 00 00 00 1F 01 01 00 00 |................|
|00 01 00 00 00 00 00 00 00 00 00 00 00 00 00 0C |................|
|00 14 00 01 00 00 00 00 00 00 00 00 00 00 00 00 |................|
|14 44 72 61 6D 20 6F 66 20 49 6E 76 69 67 6F 72 |.Dram of Invigor|
|61 74 69 6F 6E 00 00 01 00 01 1E D2 00 B4 00 00 |ation...........|
|00 00 00 00 00 01 00 01 03 02 00 00 00 00 00 00 |................|
|00 00 00 00 00 00 00 05 00 00 00 00 00 00 00 00 |................|
|02 03 00 00 00 1E 00 00 03 2C 1F 02 EE 00 00 00 |.........,......|
|00 00 00 00 00 00 1F 01 01 00 00 00 01 00 00 00 |................|
|00 00 00 00 00 00 00 00 00 00 0C 00 14 00 01 00 |................|
|00 00 00 00 00 00 00 00 00 00 00 11 44 72 61 6D |............Dram|
|20 6F 66 20 53 63 72 65 65 6E 69 6E 67 00 00 01 | of Screening...|
|00 01 1E D4 01 2C 00 00 00 00 00 00 00 01 00 01 |.....,..........|
|03 02 00 00 00 00 00 00 00 00 00 00 00 00 00 03 |................|
|00 00 00 00 00 00 00 00 00                      |.........       |
-------------------------------------------------------------------
[Server] packet : (0xC0) F_STORE_BUY_BACK  Size = 5 
|------------------------------------------------|----------------|
|00 01 02 03 04 05 06 07 08 09 0A 0B 0C 0D 0E 0F |0123456789ABCDEF|
|------------------------------------------------|----------------|
|00 02 C0 00 00                                  |.....           |
-------------------------------------------------------------------
[Client] packet : (0x0B) F_PING  Size = 32 
|------------------------------------------------|----------------|
|00 01 02 03 04 05 06 07 08 09 0A 0B 0C 0D 0E 0F |0123456789ABCDEF|
|------------------------------------------------|----------------|
|00 14 C8 17 00 1F 00 00 00 0B 00 A9 14 A1 49 80 |..............I.|
|95 05 6C 00 99 50 00 00 00 00 00 00 00 00 C0 88 |..l..P..........|                                                
-------------------------------------------------------------------
[Server] packet : (0x81) S_PONG  Size = 23 
|------------------------------------------------|----------------|
|00 01 02 03 04 05 06 07 08 09 0A 0B 0C 0D 0E 0F |0123456789ABCDEF|
|------------------------------------------------|----------------|
|00 14 81 00 A9 14 A1 52 75 84 96 00 00 00 00 00 |.......Ru.......|
|00 C8 18 00 00 00 00                            |.......         |
-------------------------------------------------------------------
[Client] packet : (0x86) F_MAIL  Size = 16 
|------------------------------------------------|----------------|
|00 01 02 03 04 05 06 07 08 09 0A 0B 0C 0D 0E 0F |0123456789ABCDEF|
|------------------------------------------------|----------------|
|00 04 C8 1C 00 1F FF FF 00 86 00 00 00 00 00 00 |................|                                                
-------------------------------------------------------------------
[Client] packet : (0x16) F_REQUEST_INIT_OBJECT  Size = 16 
|------------------------------------------------|----------------|
|00 01 02 03 04 05 06 07 08 09 0A 0B 0C 0D 0E 0F |0123456789ABCDEF|
|------------------------------------------------|----------------|
|00 04 C8 1D 00 1F 00 00 00 16 1A E2 00 00 B9 CC |................|                                                
-------------------------------------------------------------------
[Server] packet : (0x72) F_CREATE_MONSTER  Size = 157 
|------------------------------------------------|----------------|
|00 01 02 03 04 05 06 07 08 09 0A 0B 0C 0D 0E 0F |0123456789ABCDEF|
|------------------------------------------------|----------------|
|00 9A 72 1A E2 00 55 00 9B 18 70 00 0C BC 9C 00 |..r...U...p.....|
|0D 90 05 00 00 04 BE 32 02 41 00 00 00 00 00 00 |.......2.A......|
|00 00 00 03 E8 00 00 00 00 07 04 00 00 00 00 01 |................|
|19 00 49 72 6F 6E 6D 61 6E 65 20 48 61 6D 6D 65 |..Ironmane Hamme|
|72 68 65 6C 6D 5E 6D 00 01 0A 00 00 00 1A 33 00 |rhelm^m.......3.|
|1A E2 7C 9C B0 05 18 70 64 01 0B 00 00 00 00 00 |..|....pd.......|
|55 00 00 3A 7C 9C B1 6F 18 0B 1A E2 00 08 00 0A |U..:|..o........|
|04 96 01 14 08 19 8E 8C 01 15 08 15 8E 8C 01 16 |................|
|08 14 8E 8C 01 17 08 17 8E 8C 01 18 08 1C 8E 8C |................|
|01 19 0C 7F 8E 8C 01 1C 08 12 8E 8C 00          |.............   |
-------------------------------------------------------------------