
[Client] packet : (0x5A) F_PING_DATAGRAM  Size = 13 
|------------------------------------------------|----------------|
|00 01 02 03 04 05 06 07 08 09 0A 0B 0C 0D 0E 0F |0123456789ABCDEF|
|------------------------------------------------|----------------|
|00 01 10 58 00 36 FF FF 00 5A 00 5F 49          |.............   |
-------------------------------------------------------------------
[Client] packet : (0x16) F_REQUEST_INIT_OBJECT  Size = 16 
|------------------------------------------------|----------------|
|00 01 02 03 04 05 06 07 08 09 0A 0B 0C 0D 0E 0F |0123456789ABCDEF|
|------------------------------------------------|----------------|
|00 04 10 58 00 36 00 00 00 16 1E B2 00 00 F8 18 |...X.6..........|                                                
-------------------------------------------------------------------
[Client] packet : (0xD9) F_USE_ITEM  Size = 20 
|------------------------------------------------|----------------|
|00 01 02 03 04 05 06 07 08 09 0A 0B 0C 0D 0E 0F |0123456789ABCDEF|
|------------------------------------------------|----------------|
|00 08 10 59 00 36 FF FF 00 D9 00 30 00 00 A8 01 |...Y.6.....0....|
|00 00 00 00                                     |....            |
-------------------------------------------------------------------
[Server] packet : (0x72) F_CREATE_MONSTER  Size = 101 
|------------------------------------------------|----------------|
|00 01 02 03 04 05 06 07 08 09 0A 0B 0C 0D 0E 0F |0123456789ABCDEF|
|------------------------------------------------|----------------|
|00 62 72 1E B2 00 55 07 73 2C AF 00 12 C3 7F 00 |.br...U.s,......|
|0D 9F FD 00 00 04 75 34 18 41 00 00 00 00 00 00 |......u4.A......|
|00 00 00 03 E8 00 00 00 00 52 72 00 00 00 00 01 |.........Rr.....|
|19 00 53 74 65 65 6C 66 61 6E 67 5E 4D 00 01 0A |..Steelfang^M...|
|00 00 00 1A 05 00 1E B2 43 7F 1F FD 2C AF 64 01 |........C...,.d.|
|6C 00 00 00 00 00 55 00 00 39 43 B9 1E D1 2C 6C |l.....U..9C...,l|
|1E B2 00 00 00                                  |.....           |
-------------------------------------------------------------------
[Server] packet : (0xDA) F_USE_ABILITY  Size = 23 
|------------------------------------------------|----------------|
|00 01 02 03 04 05 06 07 08 09 0A 0B 0C 0D 0E 0F |0123456789ABCDEF|
|------------------------------------------------|----------------|
|00 14 DA 00 00 3B 2A 20 C9 13 80 20 C9 01 01 00 |.....;* ... ....|
|00 00 00 00 00 00 00                            |.......         |
-------------------------------------------------------------------
[Server] packet : (0x71) F_CREATE_STATIC  Size = 91 
|------------------------------------------------|----------------|
|00 01 02 03 04 05 06 07 08 09 0A 0B 0C 0D 0E 0F |0123456789ABCDEF|
|------------------------------------------------|----------------|
|00 58 71 30 D9 00 00 0D E5 2D C3 00 12 DC EB 00 |.Xq0.....-......|
|0D 8B F0 03 5F 1E 00 00 00 00 00 00 00 00 00 00 |...._...........|
|00 00 64 B7 D4 93 5C 00 00 00 00 2E 43 6F 6D 62 |..d...\.....Comb|
|61 74 20 61 6E 64 20 43 61 72 65 65 72 20 55 53 |at and Career US|
|45 3A 20 47 72 6F 75 6E 64 20 54 61 72 67 65 74 |E: Ground Target|
|20 69 6E 76 69 73 69 62 6C 65 00                |...........     |
-------------------------------------------------------------------
[Server] packet : (0x72) F_CREATE_MONSTER  Size = 114 
|------------------------------------------------|----------------|
|00 01 02 03 04 05 06 07 08 09 0A 0B 0C 0D 0E 0F |0123456789ABCDEF|
|------------------------------------------------|----------------|
|00 6F 72 35 C3 00 00 07 E5 2D B3 00 12 DC EF 00 |.or5.....-......|
|0D 8C 53 00 00 03 E7 32 01 80 00 00 00 00 00 00 |..S....2........|
|00 09 00 00 00 00 00 00 00 00 00 00 00 00 00 01 |................|
|19 00 49 6E 69 76 69 73 62 6C 65 20 4D 6F 62 20 |..Inivisble Mob |
|66 6F 72 20 57 61 72 20 41 65 67 69 73 00 00 00 |for War Aegis...|
|00 03 00 01 0A 00 20 C9 12 05 00 35 C3 5C EF 0C |...... ....5.\..|
|53 2D B3 64 00 6C 04 00 00 00 03 E5 07 35 C3 00 |S-.d.l.......5..|
|00 00                                           |..              |
-------------------------------------------------------------------
[Server] packet : (0x20) F_PET_INFO  Size = 14 
|------------------------------------------------|----------------|
|00 01 02 03 04 05 06 07 08 09 0A 0B 0C 0D 0E 0F |0123456789ABCDEF|
|------------------------------------------------|----------------|
|00 0B 20 35 C3 00 00 00 00 00 00 05 00 00       |..............  |
-------------------------------------------------------------------
[Server] packet : (0x6F) F_LOCALIZED_STRING  Size = 46 
|------------------------------------------------|----------------|
|00 01 02 03 04 05 06 07 08 09 0A 0B 0C 0D 0E 0F |0123456789ABCDEF|
|------------------------------------------------|----------------|
|00 2B 6F 02 00 00 00 00 44 00 00 00 01 01 00 1E |.+o.....D.......|
|57 61 72 65 6D 68 75 5E 46 20 73 61 79 73 3A 20 |Waremhu^F says: |
|44 6F 75 62 6C 65 20 41 65 67 69 73 21 00       |..............  |
-------------------------------------------------------------------
[Server] packet : (0xD7) F_INIT_EFFECTS  Size = 28 
|------------------------------------------------|----------------|
|00 01 02 03 04 05 06 07 08 09 0A 0B 0C 0D 0E 0F |0123456789ABCDEF|
|------------------------------------------------|----------------|
|00 19 D7 01 01 00 00 20 C9 0E 00 2A 3B 78 C9 20 |....... ...*;x. |
|04 02 28 03 28 04 28 05 86 D7 01 00             |............    |
-------------------------------------------------------------------
[Server] packet : (0xDA) F_USE_ABILITY  Size = 23 
|------------------------------------------------|----------------|
|00 01 02 03 04 05 06 07 08 09 0A 0B 0C 0D 0E 0F |0123456789ABCDEF|
|------------------------------------------------|----------------|
|00 14 DA 00 00 3B 2A 20 C9 13 80 20 C9 02 01 00 |.....;* ... ....|
|00 00 00 00 00 00 00                            |.......         |
-------------------------------------------------------------------
[Server] packet : (0xB9) UNKNOWN  Size = 16 
|------------------------------------------------|----------------|
|00 01 02 03 04 05 06 07 08 09 0A 0B 0C 0D 0E 0F |0123456789ABCDEF|
|------------------------------------------------|----------------|
|00 0D B9 01 00 03 2D C7 00 00 00 00 00 00 02 00 |......-.........|                                                
-------------------------------------------------------------------
[Server] packet : (0xAA) F_GET_ITEM  Size = 214 
|------------------------------------------------|----------------|
|00 01 02 03 04 05 06 07 08 09 0A 0B 0C 0D 0E 0F |0123456789ABCDEF|
|------------------------------------------------|----------------|
|00 D3 AA 01 00 00 00 00 30 00 00 03 2D C7 0F C3 |........0...-...|
|00 00 00 00 00 00 00 00 00 00 01 0A 00 00 00 04 |................|
|00 00 00 00 00 00 00 00 00 00 00 00 00 AF 00 01 |................|
|00 01 00 00 00 00 00 00 00 00 00 00 00 00 10 57 |...............W|
|41 52 20 44 6F 75 62 6C 65 20 41 65 67 69 73 00 |AR Double Aegis.|
|00 01 00 00 3B 2A 02 58 02 58 00 00 00 5C 4C 65 |....;*.X.X...\Le|
|74 20 74 68 6F 73 65 20 77 68 6F 20 73 74 61 6E |t those who stan|
|64 20 62 65 6E 65 61 74 68 20 74 68 65 73 65 20 |d beneath these |
|74 77 69 6E 20 62 61 6E 6E 65 72 73 20 6E 65 76 |twin banners nev|
|65 72 20 6B 6E 6F 77 20 66 65 61 72 20 69 6E 20 |er know fear in |
|74 68 65 20 66 61 63 65 20 6F 66 20 74 68 65 69 |the face of thei|
|72 20 65 6E 65 6D 69 65 73 21 01 00 00 00 03 06 |r enemies!......|
|20 00 01 00 00 00 00 00 00 00 00 00 00 00 00 00 | ...............|
|00 00 00 00 00 00                               |......          |
-------------------------------------------------------------------
[Server] packet : (0x7E) F_SET_ABILITY_TIMER  Size = 15 
|------------------------------------------------|----------------|
|00 01 02 03 04 05 06 07 08 09 0A 0B 0C 0D 0E 0F |0123456789ABCDEF|
|------------------------------------------------|----------------|
|00 0C 7E 00 01 01 00 00 00 00 00 00 00 00 00    |............... |
-------------------------------------------------------------------
[Client] packet : (0x0B) F_PING  Size = 32 
|------------------------------------------------|----------------|
|00 01 02 03 04 05 06 07 08 09 0A 0B 0C 0D 0E 0F |0123456789ABCDEF|
|------------------------------------------------|----------------|
|00 14 10 5C 00 36 00 00 00 0B 00 16 9A CC 9B 90 |...\.6..........|
|02 48 F3 60 2F 20 00 00 00 00 00 00 00 00 02 E8 |.H.`/ ..........|                                                
-------------------------------------------------------------------
[Server] packet : (0x81) S_PONG  Size = 23 
|------------------------------------------------|----------------|
|00 01 02 03 04 05 06 07 08 09 0A 0B 0C 0D 0E 0F |0123456789ABCDEF|
|------------------------------------------------|----------------|
|00 14 81 00 16 9A CC 52 84 B1 54 00 00 00 00 00 |.......R..T.....|
|00 10 5D 00 00 00 00                            |.......         |
-------------------------------------------------------------------
[Client] packet : (0x16) F_REQUEST_INIT_OBJECT  Size = 16 
|------------------------------------------------|----------------|
|00 01 02 03 04 05 06 07 08 09 0A 0B 0C 0D 0E 0F |0123456789ABCDEF|
|------------------------------------------------|----------------|
|00 04 10 5E 00 36 00 00 00 16 1E 37 00 00 EB D7 |...^.6.....7....|                                                
-------------------------------------------------------------------
[Client] packet : (0x16) F_REQUEST_INIT_OBJECT  Size = 16 
|------------------------------------------------|----------------|
|00 01 02 03 04 05 06 07 08 09 0A 0B 0C 0D 0E 0F |0123456789ABCDEF|
|------------------------------------------------|----------------|
|00 04 10 5F 00 36 00 00 00 16 03 13 00 00 4F BA |..._.6........O.|                                                
-------------------------------------------------------------------
[Server] packet : (0x72) F_CREATE_MONSTER  Size = 141 
|------------------------------------------------|----------------|
|00 01 02 03 04 05 06 07 08 09 0A 0B 0C 0D 0E 0F |0123456789ABCDEF|
|------------------------------------------------|----------------|
|00 8A 72 1E 37 00 55 09 A4 2C B5 00 12 C3 AB 00 |..r.7.U..,......|
|0D 9F EC 00 00 04 C2 32 17 41 00 00 00 00 00 00 |.......2.A......|
|00 00 00 03 E8 00 00 00 00 52 72 00 02 00 00 01 |.........Rr.....|
|19 00 48 61 7A 65 6C 68 6F 66 20 48 75 6E 74 73 |..Hazelhof Hunts|
|6D 65 6E 5E 6D 00 01 0A 00 00 00 18 27 00 1E 37 |men^m.......'..7|
|43 AB 1F EC 2C B5 64 00 6C 20 00 00 00 00 B2 1E |C...,.d.l ......|
|D2 FF 9D FF 03 00 1E 37 00 08 00 0A 05 29 00 0C |.......7.....)..|
|05 51 01 14 09 BE 1A 1F 00 15 09 C2 00 16 09 BD |.Q..............|
|00 18 09 C0 00 19 09 C1 00 1C 09 BF 00          |.............   |
-------------------------------------------------------------------
[Server] packet : (0x72) F_CREATE_MONSTER  Size = 143 
|------------------------------------------------|----------------|
|00 01 02 03 04 05 06 07 08 09 0A 0B 0C 0D 0E 0F |0123456789ABCDEF|
|------------------------------------------------|----------------|
|00 8C 72 03 13 00 55 09 A4 2C AB 00 12 C3 5C 00 |..r...U..,....\.|
|0D 9F FC 00 00 04 C2 32 17 41 00 00 00 00 00 00 |.......2.A......|
|00 00 00 03 E8 00 00 00 00 52 72 00 01 00 00 01 |.........Rr.....|
|19 00 48 61 7A 65 6C 68 6F 66 20 48 75 6E 74 6D |..Hazelhof Huntm|
|61 73 74 65 72 5E 6D 00 01 0A 00 00 00 18 27 00 |aster^m.......'.|
|03 13 43 5C 1F FC 2C AB 64 00 6C 20 00 00 00 00 |..C\..,.d.l ....|
|B2 1E 22 00 9E FF F9 FF 03 13 00 08 00 0A 05 2D |.."............-|
|00 0C 05 6A 01 14 09 BE 1A 1F 00 15 09 C2 00 16 |...j............|
|09 BD 00 18 09 C0 00 19 09 C1 00 1C 09 BF 00    |............... |
-------------------------------------------------------------------
[Server] packet : (0x1B) F_REQ_CAMPAIGN_STATUS  Size = 15 
|------------------------------------------------|----------------|
|00 01 02 03 04 05 06 07 08 09 0A 0B 0C 0D 0E 0F |0123456789ABCDEF|
|------------------------------------------------|----------------|
|00 0C 1B 00 39 CF 00 00 12 92 BB 00 0D 69 00    |............... |
-------------------------------------------------------------------
[Server] packet : (0x96) F_KEEP_STATUS  Size = 29 
|------------------------------------------------|----------------|
|00 01 02 03 04 05 06 07 08 09 0A 0B 0C 0D 0E 0F |0123456789ABCDEF|
|------------------------------------------------|----------------|
|00 1A 96 0E 01 00 02 02 03 64 43 00 02 00 00 00 |.........dC.....|
|00 01 02 00 00 00 00 00 00 00 00 00 00          |.............   |
-------------------------------------------------------------------
[Server] packet : (0x44) F_ACTION_COUNTER_UPDATE  Size = 11 
|------------------------------------------------|----------------|
|00 01 02 03 04 05 06 07 08 09 0A 0B 0C 0D 0E 0F |0123456789ABCDEF|
|------------------------------------------------|----------------|
|00 08 44 01 EE 00 00 00 00 DE 00                |...........     |
-------------------------------------------------------------------
[Server] packet : (0xFB) F_INFLUENCE_UPDATE  Size = 15 
|------------------------------------------------|----------------|
|00 01 02 03 04 05 06 07 08 09 0A 0B 0C 0D 0E 0F |0123456789ABCDEF|
|------------------------------------------------|----------------|
|00 0C FB 00 70 00 00 00 00 00 5B 09 00 00 00    |............... |
-------------------------------------------------------------------
[Server] packet : (0x1B) F_REQ_CAMPAIGN_STATUS  Size = 6 
|------------------------------------------------|----------------|
|00 01 02 03 04 05 06 07 08 09 0A 0B 0C 0D 0E 0F |0123456789ABCDEF|
|------------------------------------------------|----------------|
|00 03 1B 01 39 00                               |......          |
-------------------------------------------------------------------
[Server] packet : (0xC5) F_OBJECTIVE_STATE  Size = 19 
|------------------------------------------------|----------------|
|00 01 02 03 04 05 06 07 08 09 0A 0B 0C 0D 0E 0F |0123456789ABCDEF|
|------------------------------------------------|----------------|
|00 10 C5 00 00 13 E6 FF FF FF FF 00 87 00 87 02 |................|
|01 10 00                                        |...             |
-------------------------------------------------------------------
[Server] packet : (0xC6) F_REALM_BONUS  Size = 6 
|------------------------------------------------|----------------|
|00 01 02 03 04 05 06 07 08 09 0A 0B 0C 0D 0E 0F |0123456789ABCDEF|
|------------------------------------------------|----------------|
|00 03 C6 02 14 00                               |......          |
-------------------------------------------------------------------
[Client] packet : (0x0B) F_PING  Size = 32 
|------------------------------------------------|----------------|
|00 01 02 03 04 05 06 07 08 09 0A 0B 0C 0D 0E 0F |0123456789ABCDEF|
|------------------------------------------------|----------------|
|00 14 10 69 00 36 00 00 00 0B 00 16 AE 60 CF 98 |...i.6.......`..|
|84 46 47 41 1C 00 00 00 00 00 00 00 00 00 02 E8 |.FGA............|                                                
-------------------------------------------------------------------
[Server] packet : (0x81) S_PONG  Size = 23 
|------------------------------------------------|----------------|
|00 01 02 03 04 05 06 07 08 09 0A 0B 0C 0D 0E 0F |0123456789ABCDEF|
|------------------------------------------------|----------------|
|00 14 81 00 16 AE 60 52 84 B1 59 00 00 00 00 00 |......`R..Y.....|
|00 10 6A 00 00 00 00                            |.......         |
-------------------------------------------------------------------
[Client] packet : (0x01) UNKNOWN  Size = 32 
|------------------------------------------------|----------------|
|00 01 02 03 04 05 06 07 08 09 0A 0B 0C 0D 0E 0F |0123456789ABCDEF|
|------------------------------------------------|----------------|
|00 14 10 6D 00 36 00 00 00 01 00 16 AE E3 00 23 |...m.6.........#|
|39 B0 08 18 C0 4A 20 07 3A 6F 90 38 46 A7 00 00 |9....J .:o.8F...|                                                
-------------------------------------------------------------------
[Server] packet : (0x00) UNKNOWN  Size = 23 
|------------------------------------------------|----------------|
|00 01 02 03 04 05 06 07 08 09 0A 0B 0C 0D 0E 0F |0123456789ABCDEF|
|------------------------------------------------|----------------|
|00 14 00 00 16 AE E3 B7 D4 AF 82 00 00 00 00 20 |............... |
|07 3A 6F 90 38 46 00                            |.......         |
-------------------------------------------------------------------
[Client] packet : (0x0B) F_PING  Size = 32 
|------------------------------------------------|----------------|
|00 01 02 03 04 05 06 07 08 09 0A 0B 0C 0D 0E 0F |0123456789ABCDEF|
|------------------------------------------------|----------------|
|00 14 10 75 00 36 00 00 00 0B 00 16 C1 EF 35 1F |...u.6........5.|
|2F 6E 97 FB DB D5 00 00 00 00 00 00 00 00 02 E8 |/n..............|                                                
-------------------------------------------------------------------
[Server] packet : (0x81) S_PONG  Size = 23 
|------------------------------------------------|----------------|
|00 01 02 03 04 05 06 07 08 09 0A 0B 0C 0D 0E 0F |0123456789ABCDEF|
|------------------------------------------------|----------------|
|00 14 81 00 16 C1 EF 52 84 B1 5E 00 00 00 00 00 |.......R..^.....|
|00 10 76 00 00 00 00                            |.......         |
-------------------------------------------------------------------
[Client] packet : (0x5A) F_PING_DATAGRAM  Size = 13 
|------------------------------------------------|----------------|
|00 01 02 03 04 05 06 07 08 09 0A 0B 0C 0D 0E 0F |0123456789ABCDEF|
|------------------------------------------------|----------------|
|00 01 10 7D 00 36 FF FF 00 5A 00 5A 31          |.............   |
-------------------------------------------------------------------
[Client] packet : (0x0B) F_PING  Size = 32 
|------------------------------------------------|----------------|
|00 01 02 03 04 05 06 07 08 09 0A 0B 0C 0D 0E 0F |0123456789ABCDEF|
|------------------------------------------------|----------------|
|00 14 10 7F 00 36 00 00 00 0B 00 16 D5 7A 45 B7 |.....6.......zE.|
|BD F5 5A 3D FB FA 00 00 00 00 00 00 00 00 02 E8 |..Z=............|                                                
-------------------------------------------------------------------
[Server] packet : (0x81) S_PONG  Size = 23 
|------------------------------------------------|----------------|
|00 01 02 03 04 05 06 07 08 09 0A 0B 0C 0D 0E 0F |0123456789ABCDEF|
|------------------------------------------------|----------------|
|00 14 81 00 16 D5 7A 52 84 B1 63 00 00 00 00 00 |......zR..c.....|
|00 10 80 00 00 00 00                            |.......         |
-------------------------------------------------------------------
[Client] packet : (0x01) UNKNOWN  Size = 32 
|------------------------------------------------|----------------|
|00 01 02 03 04 05 06 07 08 09 0A 0B 0C 0D 0E 0F |0123456789ABCDEF|
|------------------------------------------------|----------------|
|00 14 10 84 00 36 00 00 00 01 00 16 D7 29 00 00 |.....6.......)..|
|00 00 00 00 00 00 00 00 10 12 00 00 27 48 00 00 |............'H..|                                                
-------------------------------------------------------------------
[Server] packet : (0x00) UNKNOWN  Size = 23 
|------------------------------------------------|----------------|
|00 01 02 03 04 05 06 07 08 09 0A 0B 0C 0D 0E 0F |0123456789ABCDEF|
|------------------------------------------------|----------------|
|00 14 00 00 16 D7 29 B7 D4 D7 DA 00 00 00 00 00 |......).........|
|00 10 12 00 00 27 00                            |.......         |
-------------------------------------------------------------------
[Client] packet : (0x16) F_REQUEST_INIT_OBJECT  Size = 16 
|------------------------------------------------|----------------|
|00 01 02 03 04 05 06 07 08 09 0A 0B 0C 0D 0E 0F |0123456789ABCDEF|
|------------------------------------------------|----------------|
|00 04 10 88 00 36 00 00 00 16 24 17 00 00 B7 2A |.....6....$....*|                                                
-------------------------------------------------------------------
[Server] packet : (0xD7) F_INIT_EFFECTS  Size = 14 
|------------------------------------------------|----------------|
|00 01 02 03 04 05 06 07 08 09 0A 0B 0C 0D 0E 0F |0123456789ABCDEF|
|------------------------------------------------|----------------|
|00 0B D7 01 02 00 00 20 C9 0C 00 54 60 00       |..............  |
-------------------------------------------------------------------
[Server] packet : (0xD7) F_INIT_EFFECTS  Size = 20 
|------------------------------------------------|----------------|
|00 01 02 03 04 05 06 07 08 09 0A 0B 0C 0D 0E 0F |0123456789ABCDEF|
|------------------------------------------------|----------------|
|00 11 D7 01 01 AF 31 20 C9 0D 00 54 60 00 C9 20 |......1 ...T`.. |
|01 00 00 00                                     |....            |
-------------------------------------------------------------------
[Server] packet : (0x6F) F_LOCALIZED_STRING  Size = 77 
|------------------------------------------------|----------------|
|00 01 02 03 04 05 06 07 08 09 0A 0B 0C 0D 0E 0F |0123456789ABCDEF|
|------------------------------------------------|----------------|
|00 4A 6F 02 11 00 00 00 44 00 00 00 01 01 00 3D |.Jo.....D......=|
|52 65 73 6F 75 72 63 65 20 43 61 72 72 69 65 72 |Resource Carrier|
|20 61 74 20 48 61 6C 6C 65 6E 66 75 72 74 20 4D | at Hallenfurt M|
|61 6E 6F 72 20 68 61 73 20 62 65 65 6E 20 69 73 |anor has been is|
|73 75 65 64 20 6F 72 64 65 72 73 21 00          |.............   |
-------------------------------------------------------------------
[Server] packet : (0x6F) F_LOCALIZED_STRING  Size = 77 
|------------------------------------------------|----------------|
|00 01 02 03 04 05 06 07 08 09 0A 0B 0C 0D 0E 0F |0123456789ABCDEF|
|------------------------------------------------|----------------|
|00 4A 6F 01 16 00 00 00 44 00 00 00 01 01 00 3D |.Jo.....D......=|
|52 65 73 6F 75 72 63 65 20 43 61 72 72 69 65 72 |Resource Carrier|
|20 61 74 20 48 61 6C 6C 65 6E 66 75 72 74 20 4D | at Hallenfurt M|
|61 6E 6F 72 20 68 61 73 20 62 65 65 6E 20 69 73 |anor has been is|
|73 75 65 64 20 6F 72 64 65 72 73 21 00          |.............   |
-------------------------------------------------------------------
[Server] packet : (0x1B) F_REQ_CAMPAIGN_STATUS  Size = 15 
|------------------------------------------------|----------------|
|00 01 02 03 04 05 06 07 08 09 0A 0B 0C 0D 0E 0F |0123456789ABCDEF|
|------------------------------------------------|----------------|
|00 0C 1B 00 2C 19 00 00 13 3C FF 00 0D 5D 00    |............... |
-------------------------------------------------------------------
[Client] packet : (0x0B) F_PING  Size = 32 
|------------------------------------------------|----------------|
|00 01 02 03 04 05 06 07 08 09 0A 0B 0C 0D 0E 0F |0123456789ABCDEF|
|------------------------------------------------|----------------|
|00 14 10 8C 00 36 00 00 00 0B 00 16 E9 06 E1 7F |.....6..........|
|79 F6 2C BC E6 5B 00 00 00 00 00 00 00 00 02 E8 |y.,..[..........|                                                
-------------------------------------------------------------------
[Server] packet : (0x81) S_PONG  Size = 23 
|------------------------------------------------|----------------|
|00 01 02 03 04 05 06 07 08 09 0A 0B 0C 0D 0E 0F |0123456789ABCDEF|
|------------------------------------------------|----------------|
|00 14 81 00 16 E9 06 52 84 B1 68 00 00 00 00 00 |.......R..h.....|
|00 10 8D 00 00 00 00                            |.......         |
-------------------------------------------------------------------
[Client] packet : (0xFE) F_PLAY_VOICE_OVER  Size = 16 
|------------------------------------------------|----------------|
|00 01 02 03 04 05 06 07 08 09 0A 0B 0C 0D 0E 0F |0123456789ABCDEF|
|------------------------------------------------|----------------|
|00 04 10 8F 00 36 FF FF 00 FE 02 00 00 00 58 94 |.....6........X.|                                                
-------------------------------------------------------------------
[Server] packet : (0x74) UNKNOWN  Size = 44 
|------------------------------------------------|----------------|
|00 01 02 03 04 05 06 07 08 09 0A 0B 0C 0D 0E 0F |0123456789ABCDEF|
|------------------------------------------------|----------------|
|00 29 74 01 01 00 00 00 04 02 00 00 02 00 03 00 |.)t.............|
|00 00 00 00 00 00 01 00 01 00 00 01 F4 00 00 01 |................|
|B6 02 00 01 00 00 01 F4 00 00 01 00             |............    |
-------------------------------------------------------------------
[Server] packet : (0x1B) F_REQ_CAMPAIGN_STATUS  Size = 15 
|------------------------------------------------|----------------|
|00 01 02 03 04 05 06 07 08 09 0A 0B 0C 0D 0E 0F |0123456789ABCDEF|
|------------------------------------------------|----------------|
|00 0C 1B 00 2C 19 00 00 13 3E F5 00 0D 63 00    |............... |
-------------------------------------------------------------------
[Client] packet : (0x0B) F_PING  Size = 32 
|------------------------------------------------|----------------|
|00 01 02 03 04 05 06 07 08 09 0A 0B 0C 0D 0E 0F |0123456789ABCDEF|
|------------------------------------------------|----------------|
|00 14 10 97 00 36 00 00 00 0B 00 16 FC 93 39 3F |.....6........9?|
|FE EB F5 78 F6 0D 00 00 00 00 00 00 00 00 02 E8 |...x............|                                                
-------------------------------------------------------------------
[Server] packet : (0x81) S_PONG  Size = 23 
|------------------------------------------------|----------------|
|00 01 02 03 04 05 06 07 08 09 0A 0B 0C 0D 0E 0F |0123456789ABCDEF|
|------------------------------------------------|----------------|
|00 14 81 00 16 FC 93 52 84 B1 6D 00 00 00 00 00 |.......R..m.....|
|00 10 98 00 00 00 00                            |.......         |
-------------------------------------------------------------------
[Client] packet : (0x01) UNKNOWN  Size = 32 
|------------------------------------------------|----------------|
|00 01 02 03 04 05 06 07 08 09 0A 0B 0C 0D 0E 0F |0123456789ABCDEF|
|------------------------------------------------|----------------|
|00 14 10 9C 00 36 00 00 00 01 00 16 FF 6B 00 23 |.....6.......k.#|
|39 B0 08 18 C0 4A 20 07 6E FD 90 38 4E BC A4 94 |9....J .n..8N...|                                                
-------------------------------------------------------------------
[Server] packet : (0x00) UNKNOWN  Size = 23 
|------------------------------------------------|----------------|
|00 01 02 03 04 05 06 07 08 09 0A 0B 0C 0D 0E 0F |0123456789ABCDEF|
|------------------------------------------------|----------------|
|00 14 00 00 16 FF 6B B7 D5 00 70 00 00 00 00 20 |......k...p.... |
|07 6E FD 90 38 4E 00                            |.......         |
-------------------------------------------------------------------
[Client] packet : (0x5A) F_PING_DATAGRAM  Size = 13 
|------------------------------------------------|----------------|
|00 01 02 03 04 05 06 07 08 09 0A 0B 0C 0D 0E 0F |0123456789ABCDEF|
|------------------------------------------------|----------------|
|00 01 10 A1 00 36 FF FF 00 5A 00 0D 59          |.............   |
-------------------------------------------------------------------
[Client] packet : (0x0B) F_PING  Size = 32 
|------------------------------------------------|----------------|
|00 01 02 03 04 05 06 07 08 09 0A 0B 0C 0D 0E 0F |0123456789ABCDEF|
|------------------------------------------------|----------------|
|00 14 10 A3 00 36 00 00 00 0B 00 17 10 1B 77 5F |.....6........w_|
|BF 7A 90 3F F7 4F 00 00 00 00 00 00 00 00 02 E8 |.z.?.O..........|                                                
-------------------------------------------------------------------
[Server] packet : (0x81) S_PONG  Size = 23 
|------------------------------------------------|----------------|
|00 01 02 03 04 05 06 07 08 09 0A 0B 0C 0D 0E 0F |0123456789ABCDEF|
|------------------------------------------------|----------------|
|00 14 81 00 17 10 1B 52 84 B1 72 00 00 00 00 00 |.......R..r.....|
|00 10 A4 00 00 00 00                            |.......         |
-------------------------------------------------------------------
[Server] packet : (0x1B) F_REQ_CAMPAIGN_STATUS  Size = 15 
|------------------------------------------------|----------------|
|00 01 02 03 04 05 06 07 08 09 0A 0B 0C 0D 0E 0F |0123456789ABCDEF|
|------------------------------------------------|----------------|
|00 0C 1B 00 2C 19 00 00 13 3E F8 00 0D 6A 00    |............... |
-------------------------------------------------------------------
[Client] packet : (0x0B) F_PING  Size = 32 
|------------------------------------------------|----------------|
|00 01 02 03 04 05 06 07 08 09 0A 0B 0C 0D 0E 0F |0123456789ABCDEF|
|------------------------------------------------|----------------|
|00 14 10 AE 00 36 00 00 00 0B 00 17 23 A5 97 40 |.....6......#..@|
|44 94 42 03 84 E1 00 00 00 00 00 00 00 00 02 E8 |D.B.............|                                                
-------------------------------------------------------------------
[Server] packet : (0x81) S_PONG  Size = 23 
|------------------------------------------------|----------------|
|00 01 02 03 04 05 06 07 08 09 0A 0B 0C 0D 0E 0F |0123456789ABCDEF|
|------------------------------------------------|----------------|
|00 14 81 00 17 23 A5 52 84 B1 77 00 00 00 00 00 |.....#.R..w.....|
|00 10 AF 00 00 00 00                            |.......         |
-------------------------------------------------------------------
[Client] packet : (0x16) F_REQUEST_INIT_OBJECT  Size = 16 
|------------------------------------------------|----------------|
|00 01 02 03 04 05 06 07 08 09 0A 0B 0C 0D 0E 0F |0123456789ABCDEF|
|------------------------------------------------|----------------|
|00 04 10 AF 00 36 00 00 00 16 24 17 00 00 73 4A |.....6....$...sJ|                                                
-------------------------------------------------------------------
[Server] packet : (0x1B) F_REQ_CAMPAIGN_STATUS  Size = 15 
|------------------------------------------------|----------------|
|00 01 02 03 04 05 06 07 08 09 0A 0B 0C 0D 0E 0F |0123456789ABCDEF|
|------------------------------------------------|----------------|
|00 0C 1B 00 2C 19 00 00 13 41 EA 00 0D 6F 00    |............... |
-------------------------------------------------------------------
[Server] packet : (0x1B) F_REQ_CAMPAIGN_STATUS  Size = 42 
|------------------------------------------------|----------------|
|00 01 02 03 04 05 06 07 08 09 0A 0B 0C 0D 0E 0F |0123456789ABCDEF|
|------------------------------------------------|----------------|
|00 27 1B 00 32 C7 18 43 68 61 6F 73 20 52 65 73 |.'..2..Chaos Res|
|6F 75 72 63 65 20 43 61 72 72 69 65 72 5E 6D 00 |ource Carrier^m.|
|05 AD 00 12 AC 77 00 0D 7B 00                   |..........      |
-------------------------------------------------------------------
[Server] packet : (0x6F) F_LOCALIZED_STRING  Size = 70 
|------------------------------------------------|----------------|
|00 01 02 03 04 05 06 07 08 09 0A 0B 0C 0D 0E 0F |0123456789ABCDEF|
|------------------------------------------------|----------------|
|00 43 6F 02 11 00 00 00 44 00 00 00 01 01 00 36 |.Co.....D......6|
|52 65 73 6F 75 72 63 65 20 43 61 72 72 69 65 72 |Resource Carrier|
|20 69 73 20 61 77 61 69 74 69 6E 67 20 6F 72 64 | is awaiting ord|
|65 72 73 20 61 74 20 46 65 69 74 65 6E 27 73 20 |ers at Feiten's |
|4C 6F 63 6B 21 00                               |......          |
-------------------------------------------------------------------
[Server] packet : (0x6F) F_LOCALIZED_STRING  Size = 70 
|------------------------------------------------|----------------|
|00 01 02 03 04 05 06 07 08 09 0A 0B 0C 0D 0E 0F |0123456789ABCDEF|
|------------------------------------------------|----------------|
|00 43 6F 01 16 00 00 00 44 00 00 00 01 01 00 36 |.Co.....D......6|
|52 65 73 6F 75 72 63 65 20 43 61 72 72 69 65 72 |Resource Carrier|
|20 69 73 20 61 77 61 69 74 69 6E 67 20 6F 72 64 | is awaiting ord|
|65 72 73 20 61 74 20 46 65 69 74 65 6E 27 73 20 |ers at Feiten's |
|4C 6F 63 6B 21 00                               |......          |
-------------------------------------------------------------------
[Client] packet : (0x01) UNKNOWN  Size = 32 
|------------------------------------------------|----------------|
|00 01 02 03 04 05 06 07 08 09 0A 0B 0C 0D 0E 0F |0123456789ABCDEF|
|------------------------------------------------|----------------|
|00 14 10 B4 00 36 00 00 00 01 00 17 27 AC 00 00 |.....6......'...|
|00 00 00 00 00 00 00 00 40 0B 00 00 1F 84 00 00 |........@.......|                                                
-------------------------------------------------------------------
[Server] packet : (0x00) UNKNOWN  Size = 23 
|------------------------------------------------|----------------|
|00 01 02 03 04 05 06 07 08 09 0A 0B 0C 0D 0E 0F |0123456789ABCDEF|
|------------------------------------------------|----------------|
|00 14 00 00 17 27 AC B7 D5 28 73 00 00 00 00 00 |.....'...(s.....|
|00 40 0B 00 00 1F 00                            |.......         |
-------------------------------------------------------------------
[Server] packet : (0xA9) F_UPDATE_HOT_SPOT  Size = 406 
|------------------------------------------------|----------------|
|00 01 02 03 04 05 06 07 08 09 0A 0B 0C 0D 0E 0F |0123456789ABCDEF|
|------------------------------------------------|----------------|
|01 93 A9 50 02 00 01 00 00 00 00 02 00 00 00 00 |...P............|
|03 00 00 00 00 04 00 00 00 00 05 00 00 00 00 06 |................|
|00 00 00 00 07 00 00 00 00 08 00 00 00 00 09 00 |................|
|00 00 00 0A 00 00 00 00 0B 00 00 00 00 1A 00 00 |................|
|00 00 1B 00 00 00 00 44 00 00 00 00 46 00 00 00 |.......D....F...|
|00 47 00 00 00 00 4A 00 00 00 00 4B 00 00 00 00 |.G....J....K....|
|58 00 00 00 00 64 00 00 00 00 65 00 00 00 00 66 |X....d....e....f|
|00 00 00 00 67 00 00 00 00 68 00 00 00 00 69 02 |....g....h....i.|
|00 00 00 6A 00 00 00 00 6B 00 00 00 00 6C 00 00 |...j....k....l..|
|00 00 6D 00 00 00 00 6E 00 00 00 00 75 00 00 00 |..m....n....u...|
|00 76 00 00 00 00 78 00 00 00 00 81 00 00 00 00 |.v....x.........|
|90 00 00 00 00 91 00 00 00 00 A1 00 00 00 00 A2 |................|
|00 00 00 00 AF 00 00 00 00 B2 00 00 00 00 BE 00 |................|
|00 00 00 BF 00 00 00 00 C0 00 00 00 00 C1 00 00 |................|
|00 00 C6 00 00 00 00 C8 00 00 00 00 C9 00 00 00 |................|
|00 CA 00 00 00 00 CB 00 00 00 00 CC 00 00 00 00 |................|
|CD 00 00 00 00 CE 00 00 00 00 CF 00 00 00 00 D0 |................|
|00 00 00 00 D1 00 00 00 00 D2 00 00 00 00 D3 00 |................|
|00 00 00 D5 00 00 00 00 D7 00 00 00 00 D8 00 00 |................|
|00 00 D9 00 00 00 00 DC 00 00 00 00 DD 00 00 00 |................|
|00 DE 00 00 00 00 E3 00 00 00 00 E4 00 00 00 00 |................|
|FA 00 00 00 00 FB 00 00 00 00 FC 00 00 00 00 FD |................|
|00 00 00 01 15 00 00 00 01 16 00 00 00 01 18 00 |................|
|00 00 01 1B 00 00 00 01 1C 00 00 00 01 1D 00 00 |................|
|00 01 1F 00 00 00 01 22 00 00 00 01 23 00 00 00 |......."....#...|
|01 24 00 00 00 00                               |......          |
-------------------------------------------------------------------
[Client] packet : (0x0B) F_PING  Size = 32 
|------------------------------------------------|----------------|
|00 01 02 03 04 05 06 07 08 09 0A 0B 0C 0D 0E 0F |0123456789ABCDEF|
|------------------------------------------------|----------------|
|00 14 10 BA 00 36 00 00 00 0B 00 17 37 31 18 90 |.....6......71..|
|50 82 6F 85 21 F2 00 00 00 00 00 00 00 00 02 E8 |P.o.!...........|                                                
-------------------------------------------------------------------
[Server] packet : (0x81) S_PONG  Size = 23 
|------------------------------------------------|----------------|
|00 01 02 03 04 05 06 07 08 09 0A 0B 0C 0D 0E 0F |0123456789ABCDEF|
|------------------------------------------------|----------------|
|00 14 81 00 17 37 31 52 84 B1 7C 00 00 00 00 00 |.....71R..|.....|
|00 10 BB 00 00 00 00                            |.......         |
-------------------------------------------------------------------
[Server] packet : (0x1B) F_REQ_CAMPAIGN_STATUS  Size = 15 
|------------------------------------------------|----------------|
|00 01 02 03 04 05 06 07 08 09 0A 0B 0C 0D 0E 0F |0123456789ABCDEF|
|------------------------------------------------|----------------|
|00 0C 1B 00 2C 19 00 00 13 40 0A 00 0D 73 00    |............... |
-------------------------------------------------------------------
[Client] packet : (0x16) F_REQUEST_INIT_OBJECT  Size = 16 
|------------------------------------------------|----------------|
|00 01 02 03 04 05 06 07 08 09 0A 0B 0C 0D 0E 0F |0123456789ABCDEF|
|------------------------------------------------|----------------|
|00 04 10 C1 00 36 00 00 00 16 24 17 00 00 4F 73 |.....6....$...Os|                                                
-------------------------------------------------------------------
[Client] packet : (0x5A) F_PING_DATAGRAM  Size = 13 
|------------------------------------------------|----------------|
|00 01 02 03 04 05 06 07 08 09 0A 0B 0C 0D 0E 0F |0123456789ABCDEF|
|------------------------------------------------|----------------|
|00 01 10 C4 00 36 FF FF 00 5A 00 C9 79          |.............   |
-------------------------------------------------------------------
[Client] packet : (0x0B) F_PING  Size = 32 
|------------------------------------------------|----------------|
|00 01 02 03 04 05 06 07 08 09 0A 0B 0C 0D 0E 0F |0123456789ABCDEF|
|------------------------------------------------|----------------|
|00 14 10 C6 00 36 00 00 00 0B 00 17 4A BC 55 50 |.....6......J.UP|
|44 4C 01 83 14 A4 00 00 00 00 00 00 00 00 02 E8 |DL..............|                                                
-------------------------------------------------------------------
[Server] packet : (0x81) S_PONG  Size = 23 
|------------------------------------------------|----------------|
|00 01 02 03 04 05 06 07 08 09 0A 0B 0C 0D 0E 0F |0123456789ABCDEF|
|------------------------------------------------|----------------|
|00 14 81 00 17 4A BC 52 84 B1 81 00 00 00 00 00 |.....J.R........|
|00 10 C7 00 00 00 00                            |.......         |
-------------------------------------------------------------------
[Server] packet : (0x1B) F_REQ_CAMPAIGN_STATUS  Size = 15 
|------------------------------------------------|----------------|
|00 01 02 03 04 05 06 07 08 09 0A 0B 0C 0D 0E 0F |0123456789ABCDEF|
|------------------------------------------------|----------------|
|00 0C 1B 00 2C 19 00 00 13 3B 18 00 0D 79 00    |............... |
-------------------------------------------------------------------
[Client] packet : (0x01) UNKNOWN  Size = 32 
|------------------------------------------------|----------------|
|00 01 02 03 04 05 06 07 08 09 0A 0B 0C 0D 0E 0F |0123456789ABCDEF|
|------------------------------------------------|----------------|
|00 14 10 CC 00 36 00 00 00 01 00 17 50 03 00 23 |.....6......P..#|
|39 B0 08 18 C0 4A 20 07 3B E8 90 38 59 E4 00 00 |9....J .;..8Y...|                                                
-------------------------------------------------------------------
[Server] packet : (0x00) UNKNOWN  Size = 23 
|------------------------------------------------|----------------|
|00 01 02 03 04 05 06 07 08 09 0A 0B 0C 0D 0E 0F |0123456789ABCDEF|
|------------------------------------------------|----------------|
|00 14 00 00 17 50 03 B7 D5 50 B0 00 00 00 00 20 |.....P...P..... |
|07 3B E8 90 38 59 00                            |.......         |
-------------------------------------------------------------------
[Server] packet : (0xD7) F_INIT_EFFECTS  Size = 14 
|------------------------------------------------|----------------|
|00 01 02 03 04 05 06 07 08 09 0A 0B 0C 0D 0E 0F |0123456789ABCDEF|
|------------------------------------------------|----------------|
|00 0B D7 01 02 00 00 20 C9 0D 00 54 60 00       |..............  |
-------------------------------------------------------------------
[Server] packet : (0xD7) F_INIT_EFFECTS  Size = 20 
|------------------------------------------------|----------------|
|00 01 02 03 04 05 06 07 08 09 0A 0B 0C 0D 0E 0F |0123456789ABCDEF|
|------------------------------------------------|----------------|
|00 11 D7 01 01 AF 31 20 C9 0B 00 54 60 00 C9 20 |......1 ...T`.. |
|01 00 00 00                                     |....            |
-------------------------------------------------------------------
[Client] packet : (0x0B) F_PING  Size = 32 
|------------------------------------------------|----------------|
|00 01 02 03 04 05 06 07 08 09 0A 0B 0C 0D 0E 0F |0123456789ABCDEF|
|------------------------------------------------|----------------|
|00 14 10 D1 00 36 00 00 00 0B 00 17 5E 48 2C D8 |.....6......^H,.|
|86 44 93 81 37 00 00 00 00 00 00 00 00 00 02 E8 |.D..7...........|                                                
-------------------------------------------------------------------
[Server] packet : (0x81) S_PONG  Size = 23 
|------------------------------------------------|----------------|
|00 01 02 03 04 05 06 07 08 09 0A 0B 0C 0D 0E 0F |0123456789ABCDEF|
|------------------------------------------------|----------------|
|00 14 81 00 17 5E 48 52 84 B1 86 00 00 00 00 00 |.....^HR........|
|00 10 D2 00 00 00 00                            |.......         |
-------------------------------------------------------------------
[Server] packet : (0x1B) F_REQ_CAMPAIGN_STATUS  Size = 15 
|------------------------------------------------|----------------|
|00 01 02 03 04 05 06 07 08 09 0A 0B 0C 0D 0E 0F |0123456789ABCDEF|
|------------------------------------------------|----------------|
|00 0C 1B 00 2C 19 00 00 13 35 05 00 0D 7A 00    |............... |
-------------------------------------------------------------------
[Server] packet : (0xDA) F_USE_ABILITY  Size = 23 
|------------------------------------------------|----------------|
|00 01 02 03 04 05 06 07 08 09 0A 0B 0C 0D 0E 0F |0123456789ABCDEF|
|------------------------------------------------|----------------|
|00 14 DA 00 00 5F F2 24 17 12 CA 24 17 01 01 00 |....._.$...$....|
|00 00 00 00 00 00 00                            |.......         |
-------------------------------------------------------------------
[Server] packet : (0xDE) F_OBJECT_EFFECT_STATE  Size = 9 
|------------------------------------------------|----------------|
|00 01 02 03 04 05 06 07 08 09 0A 0B 0C 0D 0E 0F |0123456789ABCDEF|
|------------------------------------------------|----------------|
|00 06 DE 24 17 01 0C 01 00                      |.........       |
-------------------------------------------------------------------
[Client] packet : (0x0B) F_PING  Size = 32 
|------------------------------------------------|----------------|
|00 01 02 03 04 05 06 07 08 09 0A 0B 0C 0D 0E 0F |0123456789ABCDEF|
|------------------------------------------------|----------------|
|00 14 10 DC 00 36 00 00 00 0B 00 17 71 D9 0D 00 |.....6......q...|
|14 81 05 43 B7 E3 00 00 00 00 00 00 00 00 02 E8 |...C............|                                                
-------------------------------------------------------------------
[Server] packet : (0x81) S_PONG  Size = 23 
|------------------------------------------------|----------------|
|00 01 02 03 04 05 06 07 08 09 0A 0B 0C 0D 0E 0F |0123456789ABCDEF|
|------------------------------------------------|----------------|
|00 14 81 00 17 71 D9 52 84 B1 8B 00 00 00 00 00 |.....q.R........|
|00 10 DD 00 00 00 00                            |.......         |
-------------------------------------------------------------------
[Client] packet : (0x16) F_REQUEST_INIT_OBJECT  Size = 16 
|------------------------------------------------|----------------|
|00 01 02 03 04 05 06 07 08 09 0A 0B 0C 0D 0E 0F |0123456789ABCDEF|
|------------------------------------------------|----------------|
|00 04 10 E1 00 36 00 00 00 16 24 17 00 00 27 7D |.....6....$...'}|                                                
-------------------------------------------------------------------
[Server] packet : (0x1B) F_REQ_CAMPAIGN_STATUS  Size = 15 
|------------------------------------------------|----------------|
|00 01 02 03 04 05 06 07 08 09 0A 0B 0C 0D 0E 0F |0123456789ABCDEF|
|------------------------------------------------|----------------|
|00 0C 1B 00 2C 19 00 00 13 2F B6 00 0D 7D 00    |............... |
-------------------------------------------------------------------
[Client] packet : (0x01) UNKNOWN  Size = 32 
|------------------------------------------------|----------------|
|00 01 02 03 04 05 06 07 08 09 0A 0B 0C 0D 0E 0F |0123456789ABCDEF|
|------------------------------------------------|----------------|
|00 14 10 E4 00 36 00 00 00 01 00 17 78 43 00 23 |.....6......xC.#|
|39 B0 08 18 C0 4A 20 07 2F 78 90 38 62 ED BE 81 |9....J ./x.8b...|                                                
-------------------------------------------------------------------
[Server] packet : (0x00) UNKNOWN  Size = 23 
|------------------------------------------------|----------------|
|00 01 02 03 04 05 06 07 08 09 0A 0B 0C 0D 0E 0F |0123456789ABCDEF|
|------------------------------------------------|----------------|
|00 14 00 00 17 78 43 B7 D5 78 EB 00 00 00 00 20 |.....xC..x..... |
|07 2F 78 90 38 62 00                            |.......         |
-------------------------------------------------------------------
[Client] packet : (0x5A) F_PING_DATAGRAM  Size = 13 
|------------------------------------------------|----------------|
|00 01 02 03 04 05 06 07 08 09 0A 0B 0C 0D 0E 0F |0123456789ABCDEF|
|------------------------------------------------|----------------|
|00 01 10 E7 00 36 FF FF 00 5A 00 8E 91          |.............   |
-------------------------------------------------------------------
[Server] packet : (0x0A) F_OBJECT_DEATH  Size = 15 
|------------------------------------------------|----------------|
|00 01 02 03 04 05 06 07 08 09 0A 0B 0C 0D 0E 0F |0123456789ABCDEF|
|------------------------------------------------|----------------|
|00 0C 0A 35 C3 01 00 00 00 00 00 00 00 00 00    |............... |
-------------------------------------------------------------------
[Server] packet : (0xD7) F_INIT_EFFECTS  Size = 14 
|------------------------------------------------|----------------|
|00 01 02 03 04 05 06 07 08 09 0A 0B 0C 0D 0E 0F |0123456789ABCDEF|
|------------------------------------------------|----------------|
|00 0B D7 01 02 00 00 20 C9 0E 00 2A 3B 00       |..............  |
-------------------------------------------------------------------
[Server] packet : (0x0A) F_OBJECT_DEATH  Size = 15 
|------------------------------------------------|----------------|
|00 01 02 03 04 05 06 07 08 09 0A 0B 0C 0D 0E 0F |0123456789ABCDEF|
|------------------------------------------------|----------------|
|00 0C 0A 30 D9 00 00 00 00 00 00 00 00 00 00    |............... |
-------------------------------------------------------------------
[Client] packet : (0x0B) F_PING  Size = 32 
|------------------------------------------------|----------------|
|00 01 02 03 04 05 06 07 08 09 0A 0B 0C 0D 0E 0F |0123456789ABCDEF|
|------------------------------------------------|----------------|
|00 14 10 E8 00 36 00 00 00 0B 00 17 85 6D 19 68 |.....6.......m.h|
|44 11 21 81 1E C3 00 00 00 00 00 00 00 00 02 E8 |D.!.............|                                                
-------------------------------------------------------------------
[Server] packet : (0x81) S_PONG  Size = 23 
|------------------------------------------------|----------------|
|00 01 02 03 04 05 06 07 08 09 0A 0B 0C 0D 0E 0F |0123456789ABCDEF|
|------------------------------------------------|----------------|
|00 14 81 00 17 85 6D 52 84 B1 90 00 00 00 00 00 |......mR........|
|00 10 E9 00 00 00 00                            |.......         |
-------------------------------------------------------------------