
[Server] packet : (0x96) F_KEEP_STATUS  Size = 29 
|------------------------------------------------|----------------|
|00 01 02 03 04 05 06 07 08 09 0A 0B 0C 0D 0E 0F |0123456789ABCDEF|
|------------------------------------------------|----------------|
|00 1A 96 01 01 00 02 01 00 64 00 00 00 00 00 00 |.........d......|
|00 00 00 00 00 00 00 00 00 00 00 00 00          |.............   |
-------------------------------------------------------------------
[Client] packet : (0x0B) F_PING  Size = 32 
|------------------------------------------------|----------------|
|00 01 02 03 04 05 06 07 08 09 0A 0B 0C 0D 0E 0F |0123456789ABCDEF|
|------------------------------------------------|----------------|
|00 14 0A F6 00 49 00 00 00 0B 00 10 EC 0D 83 68 |.....I.........h|
|81 07 06 C6 A2 49 00 00 00 00 00 00 00 00 7F 05 |.....I..........|                                                
-------------------------------------------------------------------
[Server] packet : (0x81) S_PONG  Size = 23 
|------------------------------------------------|----------------|
|00 01 02 03 04 05 06 07 08 09 0A 0B 0C 0D 0E 0F |0123456789ABCDEF|
|------------------------------------------------|----------------|
|00 14 81 00 10 EC 0D 52 82 86 AB 00 00 00 00 00 |.......R........|
|00 0A F7 00 00 00 00                            |.......         |
-------------------------------------------------------------------
[Client] packet : (0x01) UNKNOWN  Size = 32 
|------------------------------------------------|----------------|
|00 01 02 03 04 05 06 07 08 09 0A 0B 0C 0D 0E 0F |0123456789ABCDEF|
|------------------------------------------------|----------------|
|00 14 0A FA 00 49 00 00 00 01 00 10 ED 09 00 00 |.....I..........|
|00 00 00 00 00 00 00 00 14 13 00 00 36 EB 18 84 |............6...|                                                
-------------------------------------------------------------------
[Client] packet : (0xFE) F_PLAY_VOICE_OVER  Size = 16 
|------------------------------------------------|----------------|
|00 01 02 03 04 05 06 07 08 09 0A 0B 0C 0D 0E 0F |0123456789ABCDEF|
|------------------------------------------------|----------------|
|00 04 0A FB 00 49 FF FF 00 FE 02 00 00 00 3D A0 |.....I........=.|                                                
-------------------------------------------------------------------
[Server] packet : (0x00) UNKNOWN  Size = 23 
|------------------------------------------------|----------------|
|00 01 02 03 04 05 06 07 08 09 0A 0B 0C 0D 0E 0F |0123456789ABCDEF|
|------------------------------------------------|----------------|
|00 14 00 00 10 ED 09 AF 5D FC 2A 00 00 00 00 00 |........].*.....|
|00 14 13 00 00 36 00                            |.......         |
-------------------------------------------------------------------
[Server] packet : (0x74) UNKNOWN  Size = 44 
|------------------------------------------------|----------------|
|00 01 02 03 04 05 06 07 08 09 0A 0B 0C 0D 0E 0F |0123456789ABCDEF|
|------------------------------------------------|----------------|
|00 29 74 01 01 00 00 00 04 02 00 00 01 00 03 00 |.)t.............|
|00 00 00 00 00 00 01 00 01 00 00 01 F4 00 00 00 |................|
|66 02 00 01 00 00 01 F4 00 00 01 00             |............    |
-------------------------------------------------------------------
[Server] packet : (0x51) F_ANIMATION  Size = 9 
|------------------------------------------------|----------------|
|00 01 02 03 04 05 06 07 08 09 0A 0B 0C 0D 0E 0F |0123456789ABCDEF|
|------------------------------------------------|----------------|
|00 06 51 01 B6 00 AC 00 00                      |.........       |
-------------------------------------------------------------------
[Client] packet : (0x86) F_MAIL  Size = 23 
|------------------------------------------------|----------------|
|00 01 02 03 04 05 06 07 08 09 0A 0B 0C 0D 0E 0F |0123456789ABCDEF|
|------------------------------------------------|----------------|
|00 0B 0B 02 00 49 FF FF 00 86 02 00 40 DF 39 01 |.....I......@.9.|
|00 00 00 00 00 00 00                            |.......         |
-------------------------------------------------------------------
[Client] packet : (0x0B) F_PING  Size = 32 
|------------------------------------------------|----------------|
|00 01 02 03 04 05 06 07 08 09 0A 0B 0C 0D 0E 0F |0123456789ABCDEF|
|------------------------------------------------|----------------|
|00 14 0B 03 00 49 00 00 00 0B 00 10 FF 20 40 D0 |.....I....... @.|
|C2 4D E6 C7 03 20 00 00 00 00 00 00 00 00 7F 05 |.M... ..........|                                                
-------------------------------------------------------------------
[Client] packet : (0x86) F_MAIL  Size = 23 
|------------------------------------------------|----------------|
|00 01 02 03 04 05 06 07 08 09 0A 0B 0C 0D 0E 0F |0123456789ABCDEF|
|------------------------------------------------|----------------|
|00 0B 0B 04 00 49 FF FF 00 86 02 00 40 DF 39 01 |.....I......@.9.|
|00 00 00 00 00 00 00                            |.......         |
-------------------------------------------------------------------
[Server] packet : (0x81) S_PONG  Size = 23 
|------------------------------------------------|----------------|
|00 01 02 03 04 05 06 07 08 09 0A 0B 0C 0D 0E 0F |0123456789ABCDEF|
|------------------------------------------------|----------------|
|00 14 81 00 10 FF 20 52 82 86 B0 00 00 00 00 00 |...... R........|
|00 0B 04 00 00 00 00                            |.......         |
-------------------------------------------------------------------
[Server] packet : (0x86) F_MAIL  Size = 6 
|------------------------------------------------|----------------|
|00 01 02 03 04 05 06 07 08 09 0A 0B 0C 0D 0E 0F |0123456789ABCDEF|
|------------------------------------------------|----------------|
|00 03 86 0F 00 00                               |......          |
-------------------------------------------------------------------
[Server] packet : (0x86) F_MAIL  Size = 293 
|------------------------------------------------|----------------|
|00 01 02 03 04 05 06 07 08 09 0A 0B 0C 0D 0E 0F |0123456789ABCDEF|
|------------------------------------------------|----------------|
|01 22 86 0D 00 00 00 00 00 01 39 DF 40 00 02 64 |."........9.@..d|
|FF FF FD BD FF FF FD BD 00 03 F2 3D 00 00 09 48 |...........=...H|
|61 73 61 72 64 5E 46 00 00 08 57 61 72 65 6D 68 |asard^F...Waremh|
|75 00 00 09 74 65 73 74 20 30 30 34 00 FF FF FF |u...test 004....|
|FF FF FF F8 30 00 01 00 00 00 1A 78 00 1A 6F 62 |....0......x..ob|
|6A 65 74 20 61 76 65 63 20 63 68 61 72 67 65 20 |jet avec charge |
|64 65 20 32 30 50 41 00 01 00 00 0D D8 F5 1A 78 |de 20PA........x|
|00 00 00 00 00 00 00 00 00 22 00 00 00 00 00 01 |........."......|
|00 00 00 00 00 00 00 00 00 00 00 00 00 0A 00 32 |...............2|
|00 03 00 00 00 00 00 00 00 00 00 00 00 00 14 47 |...............G|
|68 6F 73 74 6C 79 20 4B 6E 75 63 6B 6C 65 62 6F |hostly Knucklebo|
|6E 65 73 00 00 00 05 05 00 05 08 00 10 09 00 32 |nes............2|
|02 00 03 0C 00 01 00 00 41 54 68 69 73 20 6D 65 |........AThis me|
|61 67 65 72 20 63 75 72 69 6F 75 73 20 6F 62 6A |ager curious obj|
|65 63 74 20 63 61 6E 20 62 65 20 75 73 65 64 20 |ect can be used |
|74 6F 20 61 64 64 20 70 6F 77 65 72 20 74 6F 20 |to add power to |
|74 61 6C 69 73 6D 61 6E 73 2E 00 01 00 00 03 02 |talismans.......|
|00 00 00 00 00 00 00 00 32 00 00 00 00 00 00 00 |........2.......|
|00 00 00 00 00                                  |.....           |
-------------------------------------------------------------------
[Server] packet : (0x86) F_MAIL  Size = 7 
|------------------------------------------------|----------------|
|00 01 02 03 04 05 06 07 08 09 0A 0B 0C 0D 0E 0F |0123456789ABCDEF|
|------------------------------------------------|----------------|
|00 04 86 09 00 00 00                            |.......         |
-------------------------------------------------------------------
[Server] packet : (0x86) F_MAIL  Size = 76 
|------------------------------------------------|----------------|
|00 01 02 03 04 05 06 07 08 09 0A 0B 0C 0D 0E 0F |0123456789ABCDEF|
|------------------------------------------------|----------------|
|00 49 86 0B 00 00 00 00 00 01 39 DF 40 00 03 64 |.I........9.@..d|
|FF FF FD BC FF FF FD BC 00 03 F2 3C 00 00 09 48 |...........<...H|
|61 73 61 72 64 5E 46 00 00 08 57 61 72 65 6D 68 |asard^F...Waremh|
|75 00 00 09 74 65 73 74 20 30 30 34 00 FF FF FF |u...test 004....|
|FF FF FF F8 30 00 01 00 00 00 1A 00             |............    |
-------------------------------------------------------------------
[Server] packet : (0x0A) F_OBJECT_DEATH  Size = 15 
|------------------------------------------------|----------------|
|00 01 02 03 04 05 06 07 08 09 0A 0B 0C 0D 0E 0F |0123456789ABCDEF|
|------------------------------------------------|----------------|
|00 0C 0A 1D 7B 00 00 00 00 00 00 00 00 00 00    |............... |
-------------------------------------------------------------------
[Client] packet : (0x5A) F_PING_DATAGRAM  Size = 13 
|------------------------------------------------|----------------|
|00 01 02 03 04 05 06 07 08 09 0A 0B 0C 0D 0E 0F |0123456789ABCDEF|
|------------------------------------------------|----------------|
|00 01 0B 09 00 49 FF FF 00 5A 00 01 ED          |.............   |
-------------------------------------------------------------------
[Server] packet : (0x1A) F_CAMPAIGN_STATUS  Size = 159 
|------------------------------------------------|----------------|
|00 01 02 03 04 05 06 07 08 09 0A 0B 0C 0D 0E 0F |0123456789ABCDEF|
|------------------------------------------------|----------------|
|00 9C 1A 00 05 00 6D 00 CB 00 00 00 64 00 32 32 |......m.....d.22|
|00 32 32 00 32 32 00 00 64 00 32 32 00 64 00 00 |.22.22..d.22.d..|
|32 32 00 00 00 00 32 32 00 32 32 00 32 32 61 03 |22....22.22.22a.|
|00 00 00 00 00 00 00 00 00 00 00 00 00 00 00 00 |................|
|00 00 00 00 00 00 00 64 63 00 00 64 00 00 64 36 |.......dc..d..d6|
|00 00 00 00 2D 00 00 00 00 01 00 01 00 00 00 00 |....-...........|
|00 00 00 00 00 00 00 00 00 00 00 00 00 00 00 00 |................|
|00 00 00 00 00 00 00 00 00 00 00 00 00 00 00 00 |................|
|00 03 01 00 02 03 03 00 02 02 03 03 01 01 00 03 |................|
|00 00 46 1E 0A 3C 00 00 00 03 84 00 00 00 00    |............... |
-------------------------------------------------------------------
[Client] packet : (0x0B) F_PING  Size = 32 
|------------------------------------------------|----------------|
|00 01 02 03 04 05 06 07 08 09 0A 0B 0C 0D 0E 0F |0123456789ABCDEF|
|------------------------------------------------|----------------|
|00 14 0B 0F 00 49 00 00 00 0B 00 11 12 AC 14 88 |.....I..........|
|C0 40 67 A7 2C 85 00 00 00 00 00 00 00 00 7F 05 |.@g.,...........|                                                
-------------------------------------------------------------------
[Server] packet : (0x81) S_PONG  Size = 23 
|------------------------------------------------|----------------|
|00 01 02 03 04 05 06 07 08 09 0A 0B 0C 0D 0E 0F |0123456789ABCDEF|
|------------------------------------------------|----------------|
|00 14 81 00 11 12 AC 52 82 86 B5 00 00 00 00 00 |.......R........|
|00 0B 10 00 00 00 00                            |.......         |
-------------------------------------------------------------------
[Server] packet : (0x1A) F_CAMPAIGN_STATUS  Size = 159 
|------------------------------------------------|----------------|
|00 01 02 03 04 05 06 07 08 09 0A 0B 0C 0D 0E 0F |0123456789ABCDEF|
|------------------------------------------------|----------------|
|00 9C 1A 00 05 00 6D 00 CB 00 00 00 64 00 32 32 |......m.....d.22|
|00 32 32 00 32 32 00 00 64 00 32 32 00 64 00 00 |.22.22..d.22.d..|
|32 32 00 00 00 00 32 32 00 32 32 00 32 32 00 00 |22....22.22.22..|
|00 00 00 00 00 00 00 00 00 00 00 00 00 00 00 00 |................|
|00 00 00 00 00 00 00 64 63 00 00 64 00 00 64 36 |.......dc..d..d6|
|00 00 00 00 2D 00 00 00 00 01 00 01 00 00 00 00 |....-...........|
|00 00 00 00 00 00 00 00 00 00 00 00 00 00 00 00 |................|
|00 00 00 00 00 00 00 00 00 00 00 00 00 00 00 00 |................|
|00 03 01 00 02 03 03 00 02 02 03 03 01 01 00 03 |................|
|00 00 46 1E 0A 3C 00 00 00 03 84 00 00 00 00    |............... |
-------------------------------------------------------------------
[Client] packet : (0x01) UNKNOWN  Size = 32 
|------------------------------------------------|----------------|
|00 01 02 03 04 05 06 07 08 09 0A 0B 0C 0D 0E 0F |0123456789ABCDEF|
|------------------------------------------------|----------------|
|00 14 0B 14 00 49 00 00 00 01 00 11 15 6B 00 23 |.....I.......k.#|
|39 B0 08 18 C0 4A 20 07 3B EE 90 38 4D 84 00 00 |9....J .;..8M...|                                                
-------------------------------------------------------------------
[Server] packet : (0x00) UNKNOWN  Size = 23 
|------------------------------------------------|----------------|
|00 01 02 03 04 05 06 07 08 09 0A 0B 0C 0D 0E 0F |0123456789ABCDEF|
|------------------------------------------------|----------------|
|00 14 00 00 11 15 6B AF 5E 24 5D 00 00 00 00 20 |......k.^$].... |
|07 3B EE 90 38 4D 00                            |.......         |
-------------------------------------------------------------------
[Client] packet : (0x0B) F_PING  Size = 32 
|------------------------------------------------|----------------|
|00 01 02 03 04 05 06 07 08 09 0A 0B 0C 0D 0E 0F |0123456789ABCDEF|
|------------------------------------------------|----------------|
|00 14 0B 1A 00 49 00 00 00 0B 00 11 26 41 5E C0 |.....I......&A^.|
|44 07 48 C6 23 A0 00 00 00 00 00 00 00 00 7F 05 |D.H.#...........|                                                
-------------------------------------------------------------------
[Server] packet : (0x81) S_PONG  Size = 23 
|------------------------------------------------|----------------|
|00 01 02 03 04 05 06 07 08 09 0A 0B 0C 0D 0E 0F |0123456789ABCDEF|
|------------------------------------------------|----------------|
|00 14 81 00 11 26 41 52 82 86 BA 00 00 00 00 00 |.....&AR........|
|00 0B 1B 00 00 00 00                            |.......         |
-------------------------------------------------------------------
[Server] packet : (0x71) F_CREATE_STATIC  Size = 53 
|------------------------------------------------|----------------|
|00 01 02 03 04 05 06 07 08 09 0A 0B 0C 0D 0E 0F |0123456789ABCDEF|
|------------------------------------------------|----------------|
|00 32 71 1D AF 00 00 00 22 47 13 00 13 0C 71 00 |.2q....."G....q.|
|0C E1 20 01 36 1E 00 00 00 57 20 00 01 20 00 00 |.. .6....W .. ..|
|00 00 64 AF 5E 38 FE 00 00 00 00 08 46 69 72 65 |..d.^8......Fire|
|62 61 6C 6C 00                                  |.....           |
-------------------------------------------------------------------
[Client] packet : (0x0B) F_PING  Size = 32 
|------------------------------------------------|----------------|
|00 01 02 03 04 05 06 07 08 09 0A 0B 0C 0D 0E 0F |0123456789ABCDEF|
|------------------------------------------------|----------------|
|00 14 0B 25 00 49 00 00 00 0B 00 11 39 CA 29 B7 |...%.I......9.).|
|BB BF 8F 5B D7 DA 00 00 00 00 00 00 00 00 7F 05 |...[............|                                                
-------------------------------------------------------------------
[Server] packet : (0x81) S_PONG  Size = 23 
|------------------------------------------------|----------------|
|00 01 02 03 04 05 06 07 08 09 0A 0B 0C 0D 0E 0F |0123456789ABCDEF|
|------------------------------------------------|----------------|
|00 14 81 00 11 39 CA 52 82 86 BF 00 00 00 00 00 |.....9.R........|
|00 0B 26 00 00 00 00                            |.......         |
-------------------------------------------------------------------
[Client] packet : (0x5A) F_PING_DATAGRAM  Size = 13 
|------------------------------------------------|----------------|
|00 01 02 03 04 05 06 07 08 09 0A 0B 0C 0D 0E 0F |0123456789ABCDEF|
|------------------------------------------------|----------------|
|00 01 0B 29 00 49 FF FF 00 5A 00 CE FE          |.............   |
-------------------------------------------------------------------
[Client] packet : (0x01) UNKNOWN  Size = 32 
|------------------------------------------------|----------------|
|00 01 02 03 04 05 06 07 08 09 0A 0B 0C 0D 0E 0F |0123456789ABCDEF|
|------------------------------------------------|----------------|
|00 14 0B 2A 00 49 00 00 00 01 00 11 3D D4 00 00 |...*.I......=...|
|00 00 00 00 00 00 00 00 44 45 00 00 21 B1 00 00 |........DE..!...|                                                
-------------------------------------------------------------------
[Server] packet : (0x00) UNKNOWN  Size = 23 
|------------------------------------------------|----------------|
|00 01 02 03 04 05 06 07 08 09 0A 0B 0C 0D 0E 0F |0123456789ABCDEF|
|------------------------------------------------|----------------|
|00 14 00 00 11 3D D4 AF 5E 4C CF 00 00 00 00 00 |.....=..^L......|
|00 44 45 00 00 21 00                            |.......         |
-------------------------------------------------------------------