
[Server] packet : (0x00) UNKNOWN  Size = 23 
|------------------------------------------------|----------------|
|00 01 02 03 04 05 06 07 08 09 0A 0B 0C 0D 0E 0F |0123456789ABCDEF|
|------------------------------------------------|----------------|
|00 14 00 00 2B 15 14 AA F4 42 81 00 00 00 00 00 |....+....B......|
|00 02 4E 00 00 1F 00                            |.......         |
-------------------------------------------------------------------
[Server] packet : (0x33) UNKNOWN  Size = 16 
|------------------------------------------------|----------------|
|00 01 02 03 04 05 06 07 08 09 0A 0B 0C 0D 0E 0F |0123456789ABCDEF|
|------------------------------------------------|----------------|
|00 0D 33 01 CC AF 25 F6 69 6A DD 74 12 84 2D 00 |..3...%.ij.t..-.|                                                
-------------------------------------------------------------------
[Client] packet : (0x5A) F_PING_DATAGRAM  Size = 13 
|------------------------------------------------|----------------|
|00 01 02 03 04 05 06 07 08 09 0A 0B 0C 0D 0E 0F |0123456789ABCDEF|
|------------------------------------------------|----------------|
|00 01 21 68 00 05 FF FF 00 5A 00 DF E4          |.............   |
-------------------------------------------------------------------
[Client] packet : (0x0B) F_PING  Size = 32 
|------------------------------------------------|----------------|
|00 01 02 03 04 05 06 07 08 09 0A 0B 0C 0D 0E 0F |0123456789ABCDEF|
|------------------------------------------------|----------------|
|00 14 21 69 00 05 00 00 00 0B 00 2B 26 1A 92 73 |..!i.......+&..s|
|39 F6 CC 9C C0 DA 00 00 00 00 00 00 00 00 F0 ED |9...............|                                                
-------------------------------------------------------------------
[Server] packet : (0x81) S_PONG  Size = 23 
|------------------------------------------------|----------------|
|00 01 02 03 04 05 06 07 08 09 0A 0B 0C 0D 0E 0F |0123456789ABCDEF|
|------------------------------------------------|----------------|
|00 14 81 00 2B 26 1A 52 81 65 80 00 00 00 00 00 |....+&.R.e......|
|00 21 6A 00 00 00 00                            |.......         |
-------------------------------------------------------------------
[Client] packet : (0xB6) F_SOCIAL_NETWORK  Size = 17 
|------------------------------------------------|----------------|
|00 01 02 03 04 05 06 07 08 09 0A 0B 0C 0D 0E 0F |0123456789ABCDEF|
|------------------------------------------------|----------------|
|00 05 21 6B 00 05 FF FF 00 B6 0D 00 00 00 00 00 |..!k............|
|00                                              |.               |
-------------------------------------------------------------------
[Server] packet : (0xB6) F_SOCIAL_NETWORK  Size = 71 
|------------------------------------------------|----------------|
|00 01 02 03 04 05 06 07 08 09 0A 0B 0C 0D 0E 0F |0123456789ABCDEF|
|------------------------------------------------|----------------|
|00 44 B6 00 00 0A 01 00 00 00 07 44 61 73 63 6F |.D.........Dasco|
|75 62 00 02 00 00 01 28 00 0E 00 C8 00 00 00 04 |ub.....(........|
|08 08 00 00 00 3D 52 00 00 02 02 00 07 57 61 72 |.....=R......War|
|65 6D 68 75 0F 01 00 18 01 00 07 44 61 73 63 6F |emhu.......Dasco|
|75 62 28 00 00 0E 00                            |.......         |
-------------------------------------------------------------------
[Server] packet : (0x5E) F_SET_TARGET  Size = 9 
|------------------------------------------------|----------------|
|00 01 02 03 04 05 06 07 08 09 0A 0B 0C 0D 0E 0F |0123456789ABCDEF|
|------------------------------------------------|----------------|
|00 06 5E 39 3D 27 94 02 00                      |.........       |
-------------------------------------------------------------------
[Server] packet : (0x33) UNKNOWN  Size = 16 
|------------------------------------------------|----------------|
|00 01 02 03 04 05 06 07 08 09 0A 0B 0C 0D 0E 0F |0123456789ABCDEF|
|------------------------------------------------|----------------|
|00 0D 33 01 1C 32 1B AC 68 69 DD 5C 12 08 45 00 |..3..2..hi.\..E.|                                                
-------------------------------------------------------------------
[Client] packet : (0x0B) F_PING  Size = 32 
|------------------------------------------------|----------------|
|00 01 02 03 04 05 06 07 08 09 0A 0B 0C 0D 0E 0F |0123456789ABCDEF|
|------------------------------------------------|----------------|
|00 14 21 75 00 05 00 00 00 0B 00 2B 39 A4 E4 08 |..!u.......+9...|
|C6 00 A2 41 04 10 00 00 00 00 00 00 00 00 F0 ED |...A............|                                                
-------------------------------------------------------------------
[Server] packet : (0x81) S_PONG  Size = 23 
|------------------------------------------------|----------------|
|00 01 02 03 04 05 06 07 08 09 0A 0B 0C 0D 0E 0F |0123456789ABCDEF|
|------------------------------------------------|----------------|
|00 14 81 00 2B 39 A4 52 81 65 85 00 00 00 00 00 |....+9.R.e......|
|00 21 76 00 00 00 00                            |.......         |
-------------------------------------------------------------------
[Server] packet : (0x51) F_ANIMATION  Size = 9 
|------------------------------------------------|----------------|
|00 01 02 03 04 05 06 07 08 09 0A 0B 0C 0D 0E 0F |0123456789ABCDEF|
|------------------------------------------------|----------------|
|00 06 51 01 3C 00 B0 00 00                      |.........       |
-------------------------------------------------------------------
[Client] packet : (0x01) UNKNOWN  Size = 32 
|------------------------------------------------|----------------|
|00 01 02 03 04 05 06 07 08 09 0A 0B 0C 0D 0E 0F |0123456789ABCDEF|
|------------------------------------------------|----------------|
|00 14 21 79 00 05 00 00 00 01 00 2B 3D 01 00 00 |..!y.......+=...|
|00 00 00 00 00 00 00 00 40 84 00 00 2C DA 00 00 |........@...,...|                                                
-------------------------------------------------------------------
[Server] packet : (0x00) UNKNOWN  Size = 23 
|------------------------------------------------|----------------|
|00 01 02 03 04 05 06 07 08 09 0A 0B 0C 0D 0E 0F |0123456789ABCDEF|
|------------------------------------------------|----------------|
|00 14 00 00 2B 3D 01 AA F4 69 F9 00 00 00 00 00 |....+=...i......|
|00 40 84 00 00 2C 00                            |.......         |
-------------------------------------------------------------------
[Server] packet : (0x33) UNKNOWN  Size = 16 
|------------------------------------------------|----------------|
|00 01 02 03 04 05 06 07 08 09 0A 0B 0C 0D 0E 0F |0123456789ABCDEF|
|------------------------------------------------|----------------|
|00 0D 33 01 1C 32 1B AC 68 69 DD 5C 12 42 17 00 |..3..2..hi.\.B..|                                                
-------------------------------------------------------------------
[Client] packet : (0x0B) F_PING  Size = 32 
|------------------------------------------------|----------------|
|00 01 02 03 04 05 06 07 08 09 0A 0B 0C 0D 0E 0F |0123456789ABCDEF|
|------------------------------------------------|----------------|
|00 14 21 80 00 05 00 00 00 0B 00 2B 4D 2F BD 9F |..!........+M/..|
|AE E9 F2 39 48 1E 00 00 00 00 00 00 00 00 F0 ED |...9H...........|                                                
-------------------------------------------------------------------
[Server] packet : (0x81) S_PONG  Size = 23 
|------------------------------------------------|----------------|
|00 01 02 03 04 05 06 07 08 09 0A 0B 0C 0D 0E 0F |0123456789ABCDEF|
|------------------------------------------------|----------------|
|00 14 81 00 2B 4D 2F 52 81 65 8A 00 00 00 00 00 |....+M/R.e......|
|00 21 81 00 00 00 00                            |.......         |
-------------------------------------------------------------------
[Server] packet : (0xBE) F_CHARACTER_INFO  Size = 186 
|------------------------------------------------|----------------|
|00 01 02 03 04 05 06 07 08 09 0A 0B 0C 0D 0E 0F |0123456789ABCDEF|
|------------------------------------------------|----------------|
|00 B7 BE 06 03 0E C4 7D 03 CC DF 96 01 0F 2A 03 |.......}......*.|
|0F 00 18 02 01 00 01 07 00 00 00 57 61 72 65 6D |...........Warem|
|68 75 07 00 00 00 57 61 72 20 45 6D 75 F6 D3 01 |hu....War Emu...|
|EA BA 03 F4 24 26 03 8F 3F 01 02 90 03 01 64 64 |....$&..?.....dd|
|00 9C E4 6C 0F 19 03 28 00 0E 02 00 00 01 07 00 |...l...(........|
|00 00 44 61 73 63 6F 75 62 08 00 00 00 56 6F 78 |..Dascoub....Vox|
|20 49 72 61 65 AC D1 01 E9 BA 03 DC 24 CA 27 12 | Irae.......$.'.|
|3F 01 02 90 03 01 64 64 00 EA A1 86 01 0F 2A 03 |?.....dd......*.|
|28 00 18 02 01 00 01 0C 00 00 00 44 72 6F 6C 65 |(..........Drole|
|64 65 66 65 6D 6D 65 08 00 00 00 56 6F 78 20 49 |defemme....Vox I|
|72 61 65 C3 D1 01 91 BC 03 DC 24 0E 61 FF 3F 01 |rae.......$.a.?.|
|02 90 03 01 64 64 00 00 00 00                   |..........      |
-------------------------------------------------------------------
[Server] packet : (0xD8) F_GROUP_STATUS  Size = 16 
|------------------------------------------------|----------------|
|00 01 02 03 04 05 06 07 08 09 0A 0B 0C 0D 0E 0F |0123456789ABCDEF|
|------------------------------------------------|----------------|
|00 0D D8 00 00 00 00 0E 02 9C E4 6C CC DF 96 00 |...........l....|                                                
-------------------------------------------------------------------
[Server] packet : (0x33) UNKNOWN  Size = 32 
|------------------------------------------------|----------------|
|00 01 02 03 04 05 06 07 08 09 0A 0B 0C 0D 0E 0F |0123456789ABCDEF|
|------------------------------------------------|----------------|
|00 1D 33 07 EA 90 21 C3 68 11 DE 5C 12 48 51 01 |..3...!.h..\.HQ.|
|00 00 00 01 00 00 00 C8 00 00 00 01 64 64 00 00 |............dd..|                                                
-------------------------------------------------------------------
[Server] packet : (0x33) UNKNOWN  Size = 49 
|------------------------------------------------|----------------|
|00 01 02 03 04 05 06 07 08 09 0A 0B 0C 0D 0E 0F |0123456789ABCDEF|
|------------------------------------------------|----------------|
|00 2E 33 18 EA 90 21 0F 00 2A 00 03 00 28 00 18 |..3...!..*...(..|
|02 01 00 01 0C 00 0D 08 00 09 44 72 6F 6C 65 64 |..........Droled|
|65 66 65 6D 6D 65 00 56 6F 78 20 49 72 61 65 00 |efemme.Vox Irae.|
|00                                              |.               |
-------------------------------------------------------------------
[Server] packet : (0xBE) F_CHARACTER_INFO  Size = 30 
|------------------------------------------------|----------------|
|00 01 02 03 04 05 06 07 08 09 0A 0B 0C 0D 0E 0F |0123456789ABCDEF|
|------------------------------------------------|----------------|
|00 1B BE 06 04 C4 7D CC DF 96 01 D3 07 00 9C E4 |......}.........|
|6C 94 4F 00 EA A1 86 01 BD 72 00 00 00 00       |..............  |
-------------------------------------------------------------------
[Server] packet : (0xD8) F_GROUP_STATUS  Size = 23 
|------------------------------------------------|----------------|
|00 01 02 03 04 05 06 07 08 09 0A 0B 0C 0D 0E 0F |0123456789ABCDEF|
|------------------------------------------------|----------------|
|00 14 D8 3E C4 01 00 00 00 00 00 00 00 00 01 00 |...>............|
|1B 32 1C 00 1B 32 00                            |.......         |
-------------------------------------------------------------------
[Server] packet : (0xD8) F_GROUP_STATUS  Size = 11 
|------------------------------------------------|----------------|
|00 01 02 03 04 05 06 07 08 09 0A 0B 0C 0D 0E 0F |0123456789ABCDEF|
|------------------------------------------------|----------------|
|00 08 D8 3E C4 02 00 01 00 00 00                |...........     |
-------------------------------------------------------------------
[Server] packet : (0xBE) F_CHARACTER_INFO  Size = 30 
|------------------------------------------------|----------------|
|00 01 02 03 04 05 06 07 08 09 0A 0B 0C 0D 0E 0F |0123456789ABCDEF|
|------------------------------------------------|----------------|
|00 1B BE 06 04 C4 7D CC DF 96 01 D3 07 00 9C E4 |......}.........|
|6C 94 4F 00 EA A1 86 01 BD 72 00 00 00 00       |..............  |
-------------------------------------------------------------------
[Server] packet : (0xD8) F_GROUP_STATUS  Size = 23 
|------------------------------------------------|----------------|
|00 01 02 03 04 05 06 07 08 09 0A 0B 0C 0D 0E 0F |0123456789ABCDEF|
|------------------------------------------------|----------------|
|00 14 D8 3E C4 01 00 00 00 00 00 00 00 00 01 00 |...>............|
|1B 32 1C 00 1B 32 00                            |.......         |
-------------------------------------------------------------------
[Server] packet : (0xD8) F_GROUP_STATUS  Size = 11 
|------------------------------------------------|----------------|
|00 01 02 03 04 05 06 07 08 09 0A 0B 0C 0D 0E 0F |0123456789ABCDEF|
|------------------------------------------------|----------------|
|00 08 D8 3E C4 02 00 01 00 00 00                |...........     |
-------------------------------------------------------------------
[Server] packet : (0xD8) F_GROUP_STATUS  Size = 11 
|------------------------------------------------|----------------|
|00 01 02 03 04 05 06 07 08 09 0A 0B 0C 0D 0E 0F |0123456789ABCDEF|
|------------------------------------------------|----------------|
|00 08 D8 3E C4 02 00 01 00 00 00                |...........     |
-------------------------------------------------------------------
[Server] packet : (0x33) UNKNOWN  Size = 16 
|------------------------------------------------|----------------|
|00 01 02 03 04 05 06 07 08 09 0A 0B 0C 0D 0E 0F |0123456789ABCDEF|
|------------------------------------------------|----------------|
|00 0D 33 01 EA 90 21 3B 68 0E DE 5C 12 AC 68 00 |..3...!;h..\..h.|                                                
-------------------------------------------------------------------
[Server] packet : (0x33) UNKNOWN  Size = 16 
|------------------------------------------------|----------------|
|00 01 02 03 04 05 06 07 08 09 0A 0B 0C 0D 0E 0F |0123456789ABCDEF|
|------------------------------------------------|----------------|
|00 0D 33 01 EA 90 21 ED 67 49 DE 5C 12 80 08 00 |..3...!.gI.\....|                                                
-------------------------------------------------------------------
[Server] packet : (0x5E) F_SET_TARGET  Size = 9 
|------------------------------------------------|----------------|
|00 01 02 03 04 05 06 07 08 09 0A 0B 0C 0D 0E 0F |0123456789ABCDEF|
|------------------------------------------------|----------------|
|00 06 5E 03 D3 27 94 02 00                      |.........       |
-------------------------------------------------------------------
[Client] packet : (0xB6) F_SOCIAL_NETWORK  Size = 17 
|------------------------------------------------|----------------|
|00 01 02 03 04 05 06 07 08 09 0A 0B 0C 0D 0E 0F |0123456789ABCDEF|
|------------------------------------------------|----------------|
|00 05 21 86 00 05 FF FF 00 B6 0D 00 00 00 00 00 |..!.............|
|00                                              |.               |
-------------------------------------------------------------------
[Server] packet : (0xB6) F_SOCIAL_NETWORK  Size = 90 
|------------------------------------------------|----------------|
|00 01 02 03 04 05 06 07 08 09 0A 0B 0C 0D 0E 0F |0123456789ABCDEF|
|------------------------------------------------|----------------|
|00 57 B6 00 00 0A 01 00 00 00 07 44 61 73 63 6F |.W.........Dasco|
|75 62 00 02 00 00 01 28 00 0E 00 C8 00 00 00 04 |ub.....(........|
|08 08 00 00 00 3D 52 00 00 03 03 00 07 57 61 72 |.....=R......War|
|65 6D 68 75 0F 01 00 18 01 00 07 44 61 73 63 6F |emhu.......Dasco|
|75 62 28 00 00 0E 01 00 0C 44 72 6F 6C 65 64 65 |ub(......Drolede|
|66 65 6D 6D 65 28 01 00 18 00                   |..........      |
-------------------------------------------------------------------
[Server] packet : (0x51) F_ANIMATION  Size = 9 
|------------------------------------------------|----------------|
|00 01 02 03 04 05 06 07 08 09 0A 0B 0C 0D 0E 0F |0123456789ABCDEF|
|------------------------------------------------|----------------|
|00 06 51 0F E7 00 AC 00 00                      |.........       |
-------------------------------------------------------------------
[Client] packet : (0x5A) F_PING_DATAGRAM  Size = 13 
|------------------------------------------------|----------------|
|00 01 02 03 04 05 06 07 08 09 0A 0B 0C 0D 0E 0F |0123456789ABCDEF|
|------------------------------------------------|----------------|
|00 01 21 8A 00 05 FF FF 00 5A 00 77 24          |.............   |
-------------------------------------------------------------------
[Server] packet : (0x51) F_ANIMATION  Size = 9 
|------------------------------------------------|----------------|
|00 01 02 03 04 05 06 07 08 09 0A 0B 0C 0D 0E 0F |0123456789ABCDEF|
|------------------------------------------------|----------------|
|00 06 51 01 3B 00 AC 00 00                      |.........       |
-------------------------------------------------------------------
[Server] packet : (0xD8) F_GROUP_STATUS  Size = 12 
|------------------------------------------------|----------------|
|00 01 02 03 04 05 06 07 08 09 0A 0B 0C 0D 0E 0F |0123456789ABCDEF|
|------------------------------------------------|----------------|
|00 09 D8 00 00 00 00 0E 01 9C E4 00             |............    |
-------------------------------------------------------------------
[Server] packet : (0xB6) F_SOCIAL_NETWORK  Size = 8 
|------------------------------------------------|----------------|
|00 01 02 03 04 05 06 07 08 09 0A 0B 0C 0D 0E 0F |0123456789ABCDEF|
|------------------------------------------------|----------------|
|00 05 B6 00 00 03 00 00                         |........        |
-------------------------------------------------------------------
[Server] packet : (0xBE) F_CHARACTER_INFO  Size = 11 
|------------------------------------------------|----------------|
|00 01 02 03 04 05 06 07 08 09 0A 0B 0C 0D 0E 0F |0123456789ABCDEF|
|------------------------------------------------|----------------|
|00 08 BE 06 01 C4 7D CC DF 96 00                |...........     |
-------------------------------------------------------------------
[Server] packet : (0x1D) F_GUILD_DATA  Size = 62 
|------------------------------------------------|----------------|
|00 01 02 03 04 05 06 07 08 09 0A 0B 0C 0D 0E 0F |0123456789ABCDEF|
|------------------------------------------------|----------------|
|00 3B 1D 02 01 00 25 AF CC 00 C8 00 00 09 00 0F |.;....%.........|
|43 68 65 66 20 64 65 20 67 75 69 6C 64 65 00 00 |Chef de guilde..|
|00 0A 57 61 72 65 6D 68 75 5E 46 00 0F 01 6B 01 |..Waremhu^F...k.|
|52 81 64 AD 00 00 00 01 00 01 00 00 01 00       |..............  |
-------------------------------------------------------------------
[Server] packet : (0x6F) F_LOCALIZED_STRING  Size = 13 
|------------------------------------------------|----------------|
|00 01 02 03 04 05 06 07 08 09 0A 0B 0C 0D 0E 0F |0123456789ABCDEF|
|------------------------------------------------|----------------|
|00 0A 6F 00 00 00 00 01 F3 00 00 00 00          |.............   |
-------------------------------------------------------------------
[Client] packet : (0x0B) F_PING  Size = 32 
|------------------------------------------------|----------------|
|00 01 02 03 04 05 06 07 08 09 0A 0B 0C 0D 0E 0F |0123456789ABCDEF|
|------------------------------------------------|----------------|
|00 14 21 8C 00 05 00 00 00 0B 00 2B 60 BD 58 D0 |..!........+`.X.|
|80 12 0B C1 3C 51 00 00 00 00 00 00 00 00 F0 ED |....<Q..........|                                                
-------------------------------------------------------------------
[Server] packet : (0x81) S_PONG  Size = 23 
|------------------------------------------------|----------------|
|00 01 02 03 04 05 06 07 08 09 0A 0B 0C 0D 0E 0F |0123456789ABCDEF|
|------------------------------------------------|----------------|
|00 14 81 00 2B 60 BD 52 81 65 8F 00 00 00 00 00 |....+`.R.e......|
|00 21 8D 00 00 00 00                            |.......         |
-------------------------------------------------------------------
[Server] packet : (0x5E) F_SET_TARGET  Size = 9 
|------------------------------------------------|----------------|
|00 01 02 03 04 05 06 07 08 09 0A 0B 0C 0D 0E 0F |0123456789ABCDEF|
|------------------------------------------------|----------------|
|00 06 5E 00 00 27 94 06 00                      |.........       |
-------------------------------------------------------------------
[Server] packet : (0x51) F_ANIMATION  Size = 9 
|------------------------------------------------|----------------|
|00 01 02 03 04 05 06 07 08 09 0A 0B 0C 0D 0E 0F |0123456789ABCDEF|
|------------------------------------------------|----------------|
|00 06 51 0D 2B 00 6C 00 00                      |.........       |
-------------------------------------------------------------------
[Client] packet : (0x01) UNKNOWN  Size = 32 
|------------------------------------------------|----------------|
|00 01 02 03 04 05 06 07 08 09 0A 0B 0C 0D 0E 0F |0123456789ABCDEF|
|------------------------------------------------|----------------|
|00 14 21 91 00 05 00 00 00 01 00 2B 65 5D 00 00 |..!........+e]..|
|00 00 00 00 00 00 00 00 15 86 00 00 05 20 00 00 |............. ..|                                                
-------------------------------------------------------------------
[Server] packet : (0x00) UNKNOWN  Size = 23 
|------------------------------------------------|----------------|
|00 01 02 03 04 05 06 07 08 09 0A 0B 0C 0D 0E 0F |0123456789ABCDEF|
|------------------------------------------------|----------------|
|00 14 00 00 2B 65 5D AA F4 92 49 00 00 00 00 00 |....+e]...I.....|
|00 15 86 00 00 05 00                            |.......         |
-------------------------------------------------------------------
[Server] packet : (0x51) F_ANIMATION  Size = 9 
|------------------------------------------------|----------------|
|00 01 02 03 04 05 06 07 08 09 0A 0B 0C 0D 0E 0F |0123456789ABCDEF|
|------------------------------------------------|----------------|
|00 06 51 01 3C 00 E5 00 00                      |.........       |
-------------------------------------------------------------------
[Client] packet : (0x0B) F_PING  Size = 32 
|------------------------------------------------|----------------|
|00 01 02 03 04 05 06 07 08 09 0A 0B 0C 0D 0E 0F |0123456789ABCDEF|
|------------------------------------------------|----------------|
|00 14 21 97 00 05 00 00 00 0B 00 2B 74 49 9F F8 |..!........+tI..|
|C1 81 05 C2 29 7B 00 00 00 00 00 00 00 00 F0 ED |....){..........|                                                
-------------------------------------------------------------------
[Server] packet : (0x81) S_PONG  Size = 23 
|------------------------------------------------|----------------|
|00 01 02 03 04 05 06 07 08 09 0A 0B 0C 0D 0E 0F |0123456789ABCDEF|
|------------------------------------------------|----------------|
|00 14 81 00 2B 74 49 52 81 65 94 00 00 00 00 00 |....+tIR.e......|
|00 21 98 00 00 00 00                            |.......         |
-------------------------------------------------------------------
[Client] packet : (0x16) F_REQUEST_INIT_OBJECT  Size = 16 
|------------------------------------------------|----------------|
|00 01 02 03 04 05 06 07 08 09 0A 0B 0C 0D 0E 0F |0123456789ABCDEF|
|------------------------------------------------|----------------|
|00 04 21 98 00 05 00 00 00 16 34 E0 00 00 00 00 |..!.......4.....|                                                
-------------------------------------------------------------------
[Server] packet : (0x72) F_CREATE_MONSTER  Size = 108 
|------------------------------------------------|----------------|
|00 01 02 03 04 05 06 07 08 09 0A 0B 0C 0D 0E 0F |0123456789ABCDEF|
|------------------------------------------------|----------------|
|00 69 72 34 E0 00 EB 00 A4 24 20 00 0F D9 50 00 |.ir4.....$ ...P.|
|10 40 01 FF FC 04 3C 32 07 61 00 00 00 00 00 00 |.@....<2.a......|
|00 00 00 03 E8 00 00 00 00 89 74 00 05 00 00 01 |..........t.....|
|19 00 47 6F 6C 64 65 6E 77 69 6E 67 20 45 61 67 |..Goldenwing Eag|
|6C 65 5E 6D 00 01 0A 00 00 00 1A 05 00 34 E0 59 |le^m.........4.Y|
|50 C0 01 24 20 64 21 C8 00 00 00 00 00 EB 00 81 |P..$ d!.........|
|14 59 ED C0 1C 24 C8 34 E0 00 00 00             |............    |
-------------------------------------------------------------------
[Server] packet : (0xA9) F_UPDATE_HOT_SPOT  Size = 406 
|------------------------------------------------|----------------|
|00 01 02 03 04 05 06 07 08 09 0A 0B 0C 0D 0E 0F |0123456789ABCDEF|
|------------------------------------------------|----------------|
|01 93 A9 50 02 00 01 00 00 00 00 02 00 00 00 00 |...P............|
|03 00 00 00 00 04 00 00 00 00 05 00 00 00 00 06 |................|
|00 00 00 00 07 00 00 00 00 08 00 00 00 00 09 00 |................|
|00 00 00 0A 00 00 00 00 0B 00 00 00 00 1A 00 00 |................|
|00 00 1B 00 00 00 00 44 00 00 00 00 46 00 00 00 |.......D....F...|
|00 47 00 00 00 00 4A 00 00 00 00 4B 00 00 00 00 |.G....J....K....|
|58 00 00 00 00 64 00 00 00 00 65 00 00 00 00 66 |X....d....e....f|
|00 00 00 00 67 00 00 00 00 68 00 00 00 00 69 00 |....g....h....i.|
|00 00 00 6A 00 00 00 00 6B 00 00 00 00 6C 00 00 |...j....k....l..|
|00 00 6D 00 00 00 00 6E 00 00 00 00 75 00 00 00 |..m....n....u...|
|00 76 00 00 00 00 78 00 00 00 00 81 00 00 00 00 |.v....x.........|
|90 00 00 00 00 91 00 00 00 00 A1 00 00 00 00 A2 |................|
|00 00 00 00 AF 00 00 00 00 B2 00 00 00 00 BE 00 |................|
|00 00 00 BF 00 00 00 00 C0 00 00 00 00 C1 00 00 |................|
|00 00 C6 00 00 00 00 C8 00 00 00 00 C9 00 00 00 |................|
|00 CA 00 00 00 00 CB 01 01 00 00 CC 00 00 00 00 |................|
|CD 00 00 00 00 CE 00 00 00 00 CF 00 00 00 00 D0 |................|
|00 00 00 00 D1 00 00 00 00 D2 00 00 00 00 D3 00 |................|
|00 00 00 D5 00 00 00 00 D7 00 00 00 00 D8 00 00 |................|
|00 00 D9 00 00 00 00 DC 00 00 00 00 DD 00 00 00 |................|
|00 DE 00 00 00 00 E3 00 00 00 00 E4 00 00 00 00 |................|
|FA 00 00 00 00 FB 00 00 00 00 FC 00 00 00 00 FD |................|
|00 00 00 01 15 00 00 00 01 16 00 00 00 01 18 00 |................|
|00 00 01 1B 00 00 00 01 1C 00 00 00 01 1D 00 00 |................|
|00 01 1F 00 00 00 01 22 00 00 00 01 23 00 00 00 |......."....#...|
|01 24 00 00 00 00                               |......          |
-------------------------------------------------------------------
[Client] packet : (0x16) F_REQUEST_INIT_OBJECT  Size = 16 
|------------------------------------------------|----------------|
|00 01 02 03 04 05 06 07 08 09 0A 0B 0C 0D 0E 0F |0123456789ABCDEF|
|------------------------------------------------|----------------|
|00 04 21 A2 00 05 00 00 00 16 31 83 00 00 02 B2 |..!.......1.....|                                                
-------------------------------------------------------------------
[Server] packet : (0x51) F_ANIMATION  Size = 9 
|------------------------------------------------|----------------|
|00 01 02 03 04 05 06 07 08 09 0A 0B 0C 0D 0E 0F |0123456789ABCDEF|
|------------------------------------------------|----------------|
|00 06 51 0F E7 00 AC 00 00                      |.........       |
-------------------------------------------------------------------
[Client] packet : (0x0B) F_PING  Size = 32 
|------------------------------------------------|----------------|
|00 01 02 03 04 05 06 07 08 09 0A 0B 0C 0D 0E 0F |0123456789ABCDEF|
|------------------------------------------------|----------------|
|00 14 21 A3 00 05 00 00 00 0B 00 2B 88 EE 22 2F |..!........+.."/|
|3D BD F9 3C F1 7B 00 00 00 00 00 00 00 00 F0 ED |=..<.{..........|                                                
-------------------------------------------------------------------
[Server] packet : (0x72) F_CREATE_MONSTER  Size = 108 
|------------------------------------------------|----------------|
|00 01 02 03 04 05 06 07 08 09 0A 0B 0C 0D 0E 0F |0123456789ABCDEF|
|------------------------------------------------|----------------|
|00 69 72 31 83 00 EB 01 C5 26 F2 00 0F D4 B8 00 |.ir1.....&......|
|10 40 38 FF D6 04 3C 32 07 61 00 00 00 00 00 00 |.@8...<2.a......|
|00 00 00 03 E8 00 00 00 00 89 74 00 00 00 00 01 |..........t.....|
|19 00 47 6F 6C 64 65 6E 77 69 6E 67 20 45 61 67 |..Goldenwing Eag|
|6C 65 5E 6D 00 01 0A 00 00 00 1A 05 00 31 83 54 |le^m.........1.T|
|B8 C0 38 26 F2 64 21 C8 00 00 00 00 00 EB 00 8A |..8&.d!.........|
|50 52 1B C3 40 26 C8 31 83 00 00 00             |............    |
-------------------------------------------------------------------
[Server] packet : (0x81) S_PONG  Size = 23 
|------------------------------------------------|----------------|
|00 01 02 03 04 05 06 07 08 09 0A 0B 0C 0D 0E 0F |0123456789ABCDEF|
|------------------------------------------------|----------------|
|00 14 81 00 2B 88 EE 52 81 65 99 00 00 00 00 00 |....+..R.e......|
|00 21 A4 00 00 00 00                            |.......         |
-------------------------------------------------------------------
[Client] packet : (0x01) UNKNOWN  Size = 32 
|------------------------------------------------|----------------|
|00 01 02 03 04 05 06 07 08 09 0A 0B 0C 0D 0E 0F |0123456789ABCDEF|
|------------------------------------------------|----------------|
|00 14 21 A8 00 05 00 00 00 01 00 2B 8D 4F 00 23 |..!........+.O.#|
|39 B0 08 18 C0 4A 20 07 2B 7D 90 38 5C BC D0 C6 |9....J .+}.8\...|                                                
-------------------------------------------------------------------
[Server] packet : (0x00) UNKNOWN  Size = 23 
|------------------------------------------------|----------------|
|00 01 02 03 04 05 06 07 08 09 0A 0B 0C 0D 0E 0F |0123456789ABCDEF|
|------------------------------------------------|----------------|
|00 14 00 00 2B 8D 4F AA F4 BA 39 00 00 00 00 20 |....+.O...9.... |
|07 2B 7D 90 38 5C 00                            |.......         |
-------------------------------------------------------------------
[Client] packet : (0xB6) F_SOCIAL_NETWORK  Size = 17 
|------------------------------------------------|----------------|
|00 01 02 03 04 05 06 07 08 09 0A 0B 0C 0D 0E 0F |0123456789ABCDEF|
|------------------------------------------------|----------------|
|00 05 21 AB 00 05 FF FF 00 B6 0D 00 00 00 00 00 |..!.............|
|00                                              |.               |
-------------------------------------------------------------------
[Server] packet : (0xB6) F_SOCIAL_NETWORK  Size = 76 
|------------------------------------------------|----------------|
|00 01 02 03 04 05 06 07 08 09 0A 0B 0C 0D 0E 0F |0123456789ABCDEF|
|------------------------------------------------|----------------|
|00 49 B6 00 00 0A 01 00 00 00 07 44 61 73 63 6F |.I.........Dasco|
|75 62 00 02 00 00 01 28 00 0E 00 C8 00 00 00 03 |ub.....(........|
|08 08 00 00 00 3D 52 00 00 02 02 00 07 44 61 73 |.....=R......Das|
|63 6F 75 62 28 00 00 0E 01 00 0C 44 72 6F 6C 65 |coub(......Drole|
|64 65 66 65 6D 6D 65 28 01 00 18 00             |............    |
-------------------------------------------------------------------
[Client] packet : (0xFE) F_PLAY_VOICE_OVER  Size = 16 
|------------------------------------------------|----------------|
|00 01 02 03 04 05 06 07 08 09 0A 0B 0C 0D 0E 0F |0123456789ABCDEF|
|------------------------------------------------|----------------|
|00 04 21 AE 00 05 FF FF 00 FE 02 00 00 00 D1 1B |..!.............|                                                
-------------------------------------------------------------------
[Client] packet : (0x5A) F_PING_DATAGRAM  Size = 13 
|------------------------------------------------|----------------|
|00 01 02 03 04 05 06 07 08 09 0A 0B 0C 0D 0E 0F |0123456789ABCDEF|
|------------------------------------------------|----------------|
|00 01 21 AF 00 05 FF FF 00 5A 00 45 34          |.............   |
-------------------------------------------------------------------
[Server] packet : (0x74) UNKNOWN  Size = 44 
|------------------------------------------------|----------------|
|00 01 02 03 04 05 06 07 08 09 0A 0B 0C 0D 0E 0F |0123456789ABCDEF|
|------------------------------------------------|----------------|
|00 29 74 01 01 00 00 00 04 02 00 00 01 00 03 00 |.)t.............|
|00 00 00 00 00 00 01 00 01 00 00 01 F4 00 00 01 |................|
|43 02 00 01 00 00 01 F4 00 00 01 00             |............    |
-------------------------------------------------------------------
[Client] packet : (0x16) F_REQUEST_INIT_OBJECT  Size = 16 
|------------------------------------------------|----------------|
|00 01 02 03 04 05 06 07 08 09 0A 0B 0C 0D 0E 0F |0123456789ABCDEF|
|------------------------------------------------|----------------|
|00 04 21 B0 00 05 00 00 00 16 10 C2 00 00 00 00 |..!.............|                                                
-------------------------------------------------------------------
[Server] packet : (0x51) F_ANIMATION  Size = 9 
|------------------------------------------------|----------------|
|00 01 02 03 04 05 06 07 08 09 0A 0B 0C 0D 0E 0F |0123456789ABCDEF|
|------------------------------------------------|----------------|
|00 06 51 01 3C 00 B0 00 00                      |.........       |
-------------------------------------------------------------------
[Server] packet : (0x72) F_CREATE_MONSTER  Size = 108 
|------------------------------------------------|----------------|
|00 01 02 03 04 05 06 07 08 09 0A 0B 0C 0D 0E 0F |0123456789ABCDEF|
|------------------------------------------------|----------------|
|00 69 72 10 C2 00 EB 0B 93 29 FA 00 0F D0 4D 00 |.ir......)....M.|
|10 40 40 00 00 04 3C 32 07 61 00 00 00 00 00 00 |.@@...<2.a......|
|00 00 00 03 E8 00 00 00 00 89 66 00 04 00 00 01 |..........f.....|
|19 00 47 6F 6C 64 65 6E 77 69 6E 67 20 46 6C 69 |..Goldenwing Fli|
|65 72 5E 6D 00 01 0A 00 00 00 1A 05 00 10 C2 50 |er^m...........P|
|4D C0 40 29 FA 64 21 C8 00 00 00 00 00 EB 00 00 |M.@).d!.........|
|AD 59 AE BE FA 29 C8 10 C2 00 00 00             |............    |
-------------------------------------------------------------------
[Client] packet : (0x0B) F_PING  Size = 32 
|------------------------------------------------|----------------|
|00 01 02 03 04 05 06 07 08 09 0A 0B 0C 0D 0E 0F |0123456789ABCDEF|
|------------------------------------------------|----------------|
|00 14 21 B1 00 05 00 00 00 0B 00 2B 9B FD 48 E8 |..!........+..H.|
|D0 87 0D 05 2C 58 00 00 00 00 00 00 00 00 F0 ED |....,X..........|                                                
-------------------------------------------------------------------
[Server] packet : (0x81) S_PONG  Size = 23 
|------------------------------------------------|----------------|
|00 01 02 03 04 05 06 07 08 09 0A 0B 0C 0D 0E 0F |0123456789ABCDEF|
|------------------------------------------------|----------------|
|00 14 81 00 2B 9B FD 52 81 65 9E 00 00 00 00 00 |....+..R.e......|
|00 21 B2 00 00 00 00                            |.......         |
-------------------------------------------------------------------
[Client] packet : (0x07) F_TEXT  Size = 28 
|------------------------------------------------|----------------|
|00 01 02 03 04 05 06 07 08 09 0A 0B 0C 0D 0E 0F |0123456789ABCDEF|
|------------------------------------------------|----------------|
|00 10 21 B4 00 05 FF FF 00 07 00 26 6A 6F 69 6E |..!........&join|
|20 44 61 73 63 6F 75 62 00 00 00 00             |............    |
-------------------------------------------------------------------
[Server] packet : (0x1D) F_GUILD_DATA  Size = 62 
|------------------------------------------------|----------------|
|00 01 02 03 04 05 06 07 08 09 0A 0B 0C 0D 0E 0F |0123456789ABCDEF|
|------------------------------------------------|----------------|
|00 3B 1D 02 01 00 25 AF CC 00 C8 00 00 09 00 0F |.;....%.........|
|43 68 65 66 20 64 65 20 67 75 69 6C 64 65 00 00 |Chef de guilde..|
|00 0A 57 61 72 65 6D 68 75 5E 46 00 0F 01 6B 01 |..Waremhu^F...k.|
|52 81 64 AD 00 02 02 01 00 01 00 00 01 00       |..............  |
-------------------------------------------------------------------
[Server] packet : (0xBE) F_CHARACTER_INFO  Size = 186 
|------------------------------------------------|----------------|
|00 01 02 03 04 05 06 07 08 09 0A 0B 0C 0D 0E 0F |0123456789ABCDEF|
|------------------------------------------------|----------------|
|00 B7 BE 06 03 0E C4 7D 03 9C E4 6C 0F 19 03 28 |.......}...l...(|
|00 0E 02 00 00 01 07 00 00 00 44 61 73 63 6F 75 |..........Dascou|
|62 08 00 00 00 56 6F 78 20 49 72 61 65 F5 D1 01 |b....Vox Irae...|
|EF BA 03 DC 24 C8 3E 98 40 01 02 90 03 01 64 64 |....$.>.@.....dd|
|00 EA A1 86 01 0F 2A 03 28 00 18 02 01 00 01 0C |......*.(.......|
|00 00 00 44 72 6F 6C 65 64 65 66 65 6D 6D 65 08 |...Droledefemme.|
|00 00 00 56 6F 78 20 49 72 61 65 F6 D1 01 A7 BB |...Vox Irae.....|
|03 DC 24 34 FC 8A 40 01 02 90 03 01 64 64 00 CC |..$4..@.....dd..|
|DF 96 01 0F 2A 03 0F 00 18 02 01 00 01 07 00 00 |....*...........|
|00 57 61 72 65 6D 68 75 07 00 00 00 57 61 72 20 |.Waremhu....War |
|45 6D 75 F6 D3 01 EA BA 03 F4 24 26 03 8F 3F 01 |Emu.......$&..?.|
|02 90 03 01 64 64 00 00 00 00                   |..........      |
-------------------------------------------------------------------
[Server] packet : (0xD8) F_GROUP_STATUS  Size = 12 
|------------------------------------------------|----------------|
|00 01 02 03 04 05 06 07 08 09 0A 0B 0C 0D 0E 0F |0123456789ABCDEF|
|------------------------------------------------|----------------|
|00 09 D8 00 00 00 00 0E 01 9C E4 00             |............    |
-------------------------------------------------------------------
[Server] packet : (0x33) UNKNOWN  Size = 32 
|------------------------------------------------|----------------|
|00 01 02 03 04 05 06 07 08 09 0A 0B 0C 0D 0E 0F |0123456789ABCDEF|
|------------------------------------------------|----------------|
|00 1D 33 07 1C 32 1B F5 68 6F DD 5C 12 D6 C1 01 |..3..2..ho.\....|
|00 00 00 01 00 00 00 C8 00 00 00 01 64 64 00 00 |............dd..|                                                
-------------------------------------------------------------------
[Server] packet : (0x33) UNKNOWN  Size = 32 
|------------------------------------------------|----------------|
|00 01 02 03 04 05 06 07 08 09 0A 0B 0C 0D 0E 0F |0123456789ABCDEF|
|------------------------------------------------|----------------|
|00 1D 33 07 EA 90 21 F6 68 A7 DD 5C 12 F4 B0 01 |..3...!.h..\....|
|00 00 00 01 00 00 00 C8 00 00 00 01 64 64 00 00 |............dd..|                                                
-------------------------------------------------------------------
[Server] packet : (0x33) UNKNOWN  Size = 32 
|------------------------------------------------|----------------|
|00 01 02 03 04 05 06 07 08 09 0A 0B 0C 0D 0E 0F |0123456789ABCDEF|
|------------------------------------------------|----------------|
|00 1D 33 07 CC AF 25 F6 69 6A DD 74 12 84 2D 01 |..3...%.ij.t..-.|
|00 00 00 01 00 00 00 C8 00 00 00 01 64 64 00 00 |............dd..|                                                
-------------------------------------------------------------------
[Server] packet : (0x33) UNKNOWN  Size = 44 
|------------------------------------------------|----------------|
|00 01 02 03 04 05 06 07 08 09 0A 0B 0C 0D 0E 0F |0123456789ABCDEF|
|------------------------------------------------|----------------|
|00 29 33 18 1C 32 1B 0F 00 19 00 03 00 28 00 0E |.)3..2.......(..|
|02 00 00 01 07 00 08 08 00 09 44 61 73 63 6F 75 |..........Dascou|
|62 00 56 6F 78 20 49 72 61 65 00 00             |............    |
-------------------------------------------------------------------
[Server] packet : (0x33) UNKNOWN  Size = 49 
|------------------------------------------------|----------------|
|00 01 02 03 04 05 06 07 08 09 0A 0B 0C 0D 0E 0F |0123456789ABCDEF|
|------------------------------------------------|----------------|
|00 2E 33 18 EA 90 21 0F 00 2A 00 03 00 28 00 18 |..3...!..*...(..|
|02 01 00 01 0C 00 0D 08 00 09 44 72 6F 6C 65 64 |..........Droled|
|65 66 65 6D 6D 65 00 56 6F 78 20 49 72 61 65 00 |efemme.Vox Irae.|
|00                                              |.               |
-------------------------------------------------------------------
[Server] packet : (0x33) UNKNOWN  Size = 43 
|------------------------------------------------|----------------|
|00 01 02 03 04 05 06 07 08 09 0A 0B 0C 0D 0E 0F |0123456789ABCDEF|
|------------------------------------------------|----------------|
|00 28 33 18 CC AF 25 0F 00 2A 00 03 00 0F 00 18 |.(3...%..*......|
|02 01 00 01 07 00 08 07 00 08 57 61 72 65 6D 68 |..........Waremh|
|75 00 57 61 72 20 45 6D 75 00 00                |...........     |
-------------------------------------------------------------------
[Server] packet : (0xBE) F_CHARACTER_INFO  Size = 30 
|------------------------------------------------|----------------|
|00 01 02 03 04 05 06 07 08 09 0A 0B 0C 0D 0E 0F |0123456789ABCDEF|
|------------------------------------------------|----------------|
|00 1B BE 06 04 C4 7D 9C E4 6C 94 4F 00 EA A1 86 |......}..l.O....|
|01 BD 72 00 CC DF 96 01 D3 07 00 00 00 00       |..............  |
-------------------------------------------------------------------
[Server] packet : (0xD8) F_GROUP_STATUS  Size = 23 
|------------------------------------------------|----------------|
|00 01 02 03 04 05 06 07 08 09 0A 0B 0C 0D 0E 0F |0123456789ABCDEF|
|------------------------------------------------|----------------|
|00 14 D8 3E C4 01 00 00 00 00 00 00 00 00 01 00 |...>............|
|1B 32 1C 00 1B 32 00                            |.......         |
-------------------------------------------------------------------
[Server] packet : (0xD8) F_GROUP_STATUS  Size = 11 
|------------------------------------------------|----------------|
|00 01 02 03 04 05 06 07 08 09 0A 0B 0C 0D 0E 0F |0123456789ABCDEF|
|------------------------------------------------|----------------|
|00 08 D8 3E C4 02 00 01 00 00 00                |...........     |
-------------------------------------------------------------------
[Server] packet : (0xBE) F_CHARACTER_INFO  Size = 30 
|------------------------------------------------|----------------|
|00 01 02 03 04 05 06 07 08 09 0A 0B 0C 0D 0E 0F |0123456789ABCDEF|
|------------------------------------------------|----------------|
|00 1B BE 06 04 C4 7D 9C E4 6C 94 4F 00 EA A1 86 |......}..l.O....|
|01 BD 72 00 CC DF 96 01 D3 07 00 00 00 00       |..............  |
-------------------------------------------------------------------
[Server] packet : (0xD8) F_GROUP_STATUS  Size = 23 
|------------------------------------------------|----------------|
|00 01 02 03 04 05 06 07 08 09 0A 0B 0C 0D 0E 0F |0123456789ABCDEF|
|------------------------------------------------|----------------|
|00 14 D8 3E C4 01 00 00 00 00 00 00 00 00 01 00 |...>............|
|1B 32 1C 00 1B 32 00                            |.......         |
-------------------------------------------------------------------
[Server] packet : (0xD8) F_GROUP_STATUS  Size = 11 
|------------------------------------------------|----------------|
|00 01 02 03 04 05 06 07 08 09 0A 0B 0C 0D 0E 0F |0123456789ABCDEF|
|------------------------------------------------|----------------|
|00 08 D8 3E C4 02 00 01 00 00 00                |...........     |
-------------------------------------------------------------------
[Server] packet : (0xD8) F_GROUP_STATUS  Size = 11 
|------------------------------------------------|----------------|
|00 01 02 03 04 05 06 07 08 09 0A 0B 0C 0D 0E 0F |0123456789ABCDEF|
|------------------------------------------------|----------------|
|00 08 D8 3E C4 02 00 01 00 00 00                |...........     |
-------------------------------------------------------------------
[Server] packet : (0x6F) F_LOCALIZED_STRING  Size = 13 
|------------------------------------------------|----------------|
|00 01 02 03 04 05 06 07 08 09 0A 0B 0C 0D 0E 0F |0123456789ABCDEF|
|------------------------------------------------|----------------|
|00 0A 6F 00 00 00 00 01 FE 00 00 00 00          |.............   |
-------------------------------------------------------------------
[Server] packet : (0x6F) F_LOCALIZED_STRING  Size = 13 
|------------------------------------------------|----------------|
|00 01 02 03 04 05 06 07 08 09 0A 0B 0C 0D 0E 0F |0123456789ABCDEF|
|------------------------------------------------|----------------|
|00 0A 6F 00 00 00 00 03 B9 00 00 00 00          |.............   |
-------------------------------------------------------------------
[Server] packet : (0x51) F_ANIMATION  Size = 9 
|------------------------------------------------|----------------|
|00 01 02 03 04 05 06 07 08 09 0A 0B 0C 0D 0E 0F |0123456789ABCDEF|
|------------------------------------------------|----------------|
|00 06 51 0D 2B 00 6C 00 00                      |.........       |
-------------------------------------------------------------------